Date-Time,Nephelom NTU,Name
2018-01-01,1.37,Rio Vista Park
2018-01-02,1.88,Rio Vista Park
2018-01-03,2.49,Rio Vista Park
2018-01-04,1.86,Rio Vista Park
2018-01-05,2.16,Rio Vista Park
2018-01-06,1.69,Rio Vista Park
2018-01-07,1.69,Rio Vista Park
2018-01-08,1.89,Rio Vista Park
2018-01-09,1.97,Rio Vista Park
2018-01-10,2.04,Rio Vista Park
2018-01-11,5.43,Rio Vista Park
2018-01-12,5.43,Rio Vista Park
2018-01-13,3.29,Rio Vista Park
2018-01-14,3.29,Rio Vista Park
2018-01-15,3.29,Rio Vista Park
2018-01-16,2.99,Rio Vista Park
2018-01-17,4.53,Rio Vista Park
2018-01-18,2.51,Rio Vista Park
2018-01-19,3.38,Rio Vista Park
2018-01-20,4.35,Rio Vista Park
2018-01-21,3.29,Rio Vista Park
2018-01-22,4.35,Rio Vista Park
2018-01-23,3.29,Rio Vista Park
2018-01-24,5.43,Rio Vista Park
2018-01-25,8.62,Rio Vista Park
2018-01-26,4.35,Rio Vista Park
2018-01-27,13.92,Rio Vista Park
2018-01-28,5.43,Rio Vista Park
2018-01-29,7.56,Rio Vista Park
2018-01-30,3.29,Rio Vista Park
2018-01-31,2.58,Rio Vista Park
2018-02-01,4.35,Rio Vista Park
2018-02-02,7.56,Rio Vista Park
2018-02-03,3.29,Rio Vista Park
2018-02-04,4.45,Rio Vista Park
2018-02-05,4.35,Rio Vista Park
2018-02-06,4.35,Rio Vista Park
2018-02-07,15.02,Rio Vista Park
2018-02-08,4.1,Rio Vista Park
2018-02-09,4.39,Rio Vista Park
2018-02-10,7.56,Rio Vista Park
2018-02-11,4.35,Rio Vista Park
2018-02-12,4.35,Rio Vista Park
2018-02-13,4.35,Rio Vista Park
2018-02-14,4.35,Rio Vista Park
2018-02-15,4.44,Rio Vista Park
2018-02-16,5.4,Rio Vista Park
2018-02-17,5.43,Rio Vista Park
2018-02-18,4.45,Rio Vista Park
2018-02-19,4.32,Rio Vista Park
2018-02-20,11.89,Rio Vista Park
2018-02-21,12.03,Rio Vista Park
2018-02-22,11.83,Rio Vista Park
2018-02-23,72.3,Rio Vista Park
2018-02-24,5.37,Rio Vista Park
2018-02-25,13.97,Rio Vista Park
2018-02-26,5.43,Rio Vista Park
2018-02-27,11.77,Rio Vista Park
2018-02-28,16.09,Rio Vista Park
2018-03-01,17.22,Rio Vista Park
2018-03-02,2.2,Rio Vista Park
2018-03-03,2.63,Rio Vista Park
2018-03-04,3.63,Rio Vista Park
2018-03-05,3.74,Rio Vista Park
2018-03-06,2.54,Rio Vista Park
2018-03-07,2.21,Rio Vista Park
2018-03-08,2.4,Rio Vista Park
2018-03-09,2.44,Rio Vista Park
2018-03-10,3.67,Rio Vista Park
2018-03-11,3.73,Rio Vista Park
2018-03-12,2.26,Rio Vista Park
2018-03-13,3.1,Rio Vista Park
2018-03-14,2.75,Rio Vista Park
2018-03-15,3.29,Rio Vista Park
2018-03-16,3.53,Rio Vista Park
2018-03-17,2.75,Rio Vista Park
2018-03-18,2.79,Rio Vista Park
2018-03-19,2.7,Rio Vista Park
2018-03-20,2.43,Rio Vista Park
2018-03-21,2.12,Rio Vista Park
2018-03-22,2.23,Rio Vista Park
2018-03-23,2.15,Rio Vista Park
2018-03-24,2.65,Rio Vista Park
2018-03-25,5.93,Rio Vista Park
2018-03-26,3.22,Rio Vista Park
2018-03-27,19.11,Rio Vista Park
2018-03-28,285.8,Rio Vista Park
2018-03-29,40.56,Rio Vista Park
2018-03-30,4.25,Rio Vista Park
2018-03-31,4.38,Rio Vista Park
2018-04-01,4.07,Rio Vista Park
2018-04-02,3.3,Rio Vista Park
2018-04-03,3.16,Rio Vista Park
2018-04-04,2.93,Rio Vista Park
2018-04-05,2.67,Rio Vista Park
2018-04-06,3.22,Rio Vista Park
2018-04-07,4.06,Rio Vista Park
2018-04-08,2.96,Rio Vista Park
2018-04-09,4.98,Rio Vista Park
2018-04-10,2.4,Rio Vista Park
2018-04-11,3.26,Rio Vista Park
2018-04-12,8.45,Rio Vista Park
2018-04-13,3.96,Rio Vista Park
2018-04-14,4.9,Rio Vista Park
2018-04-15,5.31,Rio Vista Park
2018-04-16,2.76,Rio Vista Park
2018-04-17,8.01,Rio Vista Park
2018-04-18,4.31,Rio Vista Park
2018-04-19,4.86,Rio Vista Park
2018-04-20,6.52,Rio Vista Park
2018-04-21,4.72,Rio Vista Park
2018-04-22,4.46,Rio Vista Park
2018-04-23,3.32,Rio Vista Park
2018-04-24,15.32,Rio Vista Park
2018-04-25,9.61,Rio Vista Park
2018-04-26,3.95,Rio Vista Park
2018-04-27,4.54,Rio Vista Park
2018-04-28,6.21,Rio Vista Park
2018-04-29,7.79,Rio Vista Park
2018-04-30,19.47,Rio Vista Park
2018-05-01,4.32,Rio Vista Park
2018-05-02,2.53,Rio Vista Park
2018-05-03,3.09,Rio Vista Park
2018-05-04,73.23,Rio Vista Park
2018-05-05,3.33,Rio Vista Park
2018-05-06,4.82,Rio Vista Park
2018-05-07,3.63,Rio Vista Park
2018-05-08,2.45,Rio Vista Park
2018-05-09,11.5,Rio Vista Park
2018-05-10,4.1,Rio Vista Park
2018-05-11,3.27,Rio Vista Park
2018-05-12,3.16,Rio Vista Park
2018-05-13,4.24,Rio Vista Park
2018-05-14,2.39,Rio Vista Park
2018-05-15,3.84,Rio Vista Park
2018-05-16,3.43,Rio Vista Park
2018-05-17,3.99,Rio Vista Park
2018-05-18,5.39,Rio Vista Park
2018-05-19,4.42,Rio Vista Park
2018-05-20,5.56,Rio Vista Park
2018-05-21,2.6,Rio Vista Park
2018-05-22,2.78,Rio Vista Park
2018-05-23,4.77,Rio Vista Park
2018-05-24,4.16,Rio Vista Park
2018-05-25,5.43,Rio Vista Park
2018-05-26,4.1,Rio Vista Park
2018-05-27,10.48,Rio Vista Park
2018-05-28,13.13,Rio Vista Park
2018-05-29,3.27,Rio Vista Park
2018-05-30,2.78,Rio Vista Park
2018-05-31,4.89,Rio Vista Park
2018-06-01,18.11,Rio Vista Park
2018-06-02,6.79,Rio Vista Park
2018-06-03,6.96,Rio Vista Park
2018-06-04,7.92,Rio Vista Park
2018-06-05,7.55,Rio Vista Park
2018-06-06,4.77,Rio Vista Park
2018-06-07,5.05,Rio Vista Park
2018-06-08,11.37,Rio Vista Park
2018-06-09,8.52,Rio Vista Park
2018-06-10,9.89,Rio Vista Park
2018-06-11,9.49,Rio Vista Park
2018-06-12,6.61,Rio Vista Park
2018-06-13,11.01,Rio Vista Park
2018-06-14,6.02,Rio Vista Park
2018-06-15,4.58,Rio Vista Park
2018-06-16,17.95,Rio Vista Park
2018-06-17,6.19,Rio Vista Park
2018-06-18,5.2,Rio Vista Park
2018-06-19,7.83,Rio Vista Park
2018-06-20,7.33,Rio Vista Park
2018-06-21,6.15,Rio Vista Park
2018-06-22,4.94,Rio Vista Park
2018-06-23,9.96,Rio Vista Park
2018-06-24,7.95,Rio Vista Park
2018-06-25,5.31,Rio Vista Park
2018-06-26,5.1,Rio Vista Park
2018-06-27,4.65,Rio Vista Park
2018-06-28,4.05,Rio Vista Park
2018-06-29,3.75,Rio Vista Park
2018-06-30,8.66,Rio Vista Park
2018-07-01,7.59,Rio Vista Park
2018-07-02,7.2,Rio Vista Park
2018-07-03,5.65,Rio Vista Park
2018-07-04,78.2,Rio Vista Park
2018-07-06,7.39,Rio Vista Park
2018-07-07,151.1,Rio Vista Park
2018-07-08,7.71,Rio Vista Park
2018-07-09,229.7,Rio Vista Park
2018-07-10,5.2,Rio Vista Park
2018-07-11,4.11,Rio Vista Park
2018-07-12,3.97,Rio Vista Park
2018-07-13,7.57,Rio Vista Park
2018-07-14,9.26,Rio Vista Park
2018-07-15,11.37,Rio Vista Park
2018-07-16,5.22,Rio Vista Park
2018-07-17,5.81,Rio Vista Park
2018-07-18,8.93,Rio Vista Park
2018-07-19,6.18,Rio Vista Park
2018-07-20,7.21,Rio Vista Park
2018-07-21,14.84,Rio Vista Park
2018-07-22,9.34,Rio Vista Park
2018-07-23,5.02,Rio Vista Park
2018-07-24,6.34,Rio Vista Park
2018-07-25,6.04,Rio Vista Park
2018-07-26,5.91,Rio Vista Park
2018-07-27,5.37,Rio Vista Park
2018-07-28,15.11,Rio Vista Park
2018-07-29,8.28,Rio Vista Park
2018-07-30,6.05,Rio Vista Park
2018-07-31,7.4,Rio Vista Park
2018-08-01,5.3,Rio Vista Park
2018-08-02,4.74,Rio Vista Park
2018-08-03,8.23,Rio Vista Park
2018-08-04,10.63,Rio Vista Park
2018-08-05,11.89,Rio Vista Park
2018-08-06,6.27,Rio Vista Park
2018-08-07,6.18,Rio Vista Park
2018-08-08,7.46,Rio Vista Park
2018-08-09,8.96,Rio Vista Park
2018-08-10,8.88,Rio Vista Park
2018-08-11,10.88,Rio Vista Park
2018-08-12,11.26,Rio Vista Park
2018-08-13,10.79,Rio Vista Park
2018-08-14,8.15,Rio Vista Park
2018-08-15,6.31,Rio Vista Park
2018-08-16,4.23,Rio Vista Park
2018-08-17,5.52,Rio Vista Park
2018-08-18,16.69,Rio Vista Park
2018-08-19,10.4,Rio Vista Park
2018-08-20,8.93,Rio Vista Park
2018-08-21,5.92,Rio Vista Park
2018-08-22,8.27,Rio Vista Park
2018-08-23,4.32,Rio Vista Park
2018-08-24,4.66,Rio Vista Park
2018-08-25,8.73,Rio Vista Park
2018-08-26,6.21,Rio Vista Park
2018-08-27,4.27,Rio Vista Park
2018-08-28,3.57,Rio Vista Park
2018-08-29,4.61,Rio Vista Park
2018-08-30,5.8,Rio Vista Park
2018-08-31,13.29,Rio Vista Park
2018-09-01,8.73,Rio Vista Park
2018-09-02,10.25,Rio Vista Park
2018-09-03,5.4,Rio Vista Park
2018-09-04,4.44,Rio Vista Park
2018-09-05,3.03,Rio Vista Park
2018-09-06,3.87,Rio Vista Park
2018-09-07,256.1,Rio Vista Park
2018-09-08,6.8,Rio Vista Park
2018-09-09,252.2,Rio Vista Park
2018-09-10,8.92,Rio Vista Park
2018-09-11,19.79,Rio Vista Park
2018-09-12,5.38,Rio Vista Park
2018-09-13,5.6,Rio Vista Park
2018-09-14,27.3,Rio Vista Park
2018-09-15,8.67,Rio Vista Park
2018-09-16,5.82,Rio Vista Park
2018-09-17,4.34,Rio Vista Park
2018-09-18,6.28,Rio Vista Park
2018-09-19,5,Rio Vista Park
2018-09-20,12.61,Rio Vista Park
2018-09-21,6.8,Rio Vista Park
2018-09-22,109.2,Rio Vista Park
2018-09-23,3.52,Rio Vista Park
2018-09-24,4.18,Rio Vista Park
2018-09-25,4.38,Rio Vista Park
2018-09-26,2.97,Rio Vista Park
2018-09-27,3.16,Rio Vista Park
2018-09-28,5.35,Rio Vista Park
2018-09-29,2.07,Rio Vista Park
2018-09-30,2.79,Rio Vista Park
2018-10-01,4.17,Rio Vista Park
2018-10-02,5.35,Rio Vista Park
2018-10-03,3.09,Rio Vista Park
2018-10-04,3.05,Rio Vista Park
2018-10-05,17.67,Rio Vista Park
2018-10-06,8.39,Rio Vista Park
2018-10-07,2.37,Rio Vista Park
2018-10-08,10.35,Rio Vista Park
2018-10-09,5.82,Rio Vista Park
2018-10-10,6.92,Rio Vista Park
2018-10-11,5.33,Rio Vista Park
2018-10-12,3.05,Rio Vista Park
2018-10-13,2.94,Rio Vista Park
2018-10-14,5.69,Rio Vista Park
2018-10-15,7.18,Rio Vista Park
2018-10-16,7.35,Rio Vista Park
2018-10-17,2.07,Rio Vista Park
2018-10-18,2.38,Rio Vista Park
2018-10-19,17.98,Rio Vista Park
2018-10-20,7.78,Rio Vista Park
2018-10-21,5.63,Rio Vista Park
2018-10-22,2.88,Rio Vista Park
2018-10-23,4.39,Rio Vista Park
2018-10-24,8.49,Rio Vista Park
2018-10-25,2.51,Rio Vista Park
2018-10-26,3.7,Rio Vista Park
2018-10-27,2.29,Rio Vista Park
2018-10-28,3.2,Rio Vista Park
2018-10-29,5.95,Rio Vista Park
2018-10-30,4.2,Rio Vista Park
2018-10-31,91.82,Rio Vista Park
2018-11-01,3.96,Rio Vista Park
2018-11-02,2.21,Rio Vista Park
2018-11-03,2.01,Rio Vista Park
2018-11-04,1.98,Rio Vista Park
2018-11-05,2.59,Rio Vista Park
2018-11-06,1.54,Rio Vista Park
2018-11-07,2.68,Rio Vista Park
2018-11-08,2.79,Rio Vista Park
2018-11-09,18.4,Rio Vista Park
2018-11-10,2.74,Rio Vista Park
2018-11-11,3.34,Rio Vista Park
2018-11-12,3.1,Rio Vista Park
2018-11-13,9.16,Rio Vista Park
2018-11-14,2.19,Rio Vista Park
2018-11-15,3.06,Rio Vista Park
2018-11-16,2.78,Rio Vista Park
2018-11-17,3.13,Rio Vista Park
2018-11-18,2.38,Rio Vista Park
2018-11-19,4.13,Rio Vista Park
2018-11-20,2.15,Rio Vista Park
2018-11-21,7.77,Rio Vista Park
2018-11-22,1.64,Rio Vista Park
2018-11-23,5.32,Rio Vista Park
2018-11-24,3.75,Rio Vista Park
2018-11-25,3.75,Rio Vista Park
2018-11-26,2.66,Rio Vista Park
2018-11-27,3.3,Rio Vista Park
2018-11-28,3.52,Rio Vista Park
2018-11-29,3.73,Rio Vista Park
2018-11-30,2.43,Rio Vista Park
2018-12-01,3.42,Rio Vista Park
2018-12-02,2.72,Rio Vista Park
2018-12-03,4.63,Rio Vista Park
2018-12-04,3.34,Rio Vista Park
2018-12-05,6.14,Rio Vista Park
2018-12-06,3.91,Rio Vista Park
2018-12-07,33.66,Rio Vista Park
2018-12-08,4.28,Rio Vista Park
2018-12-09,3.97,Rio Vista Park
2018-12-10,3.08,Rio Vista Park
2018-12-11,6.49,Rio Vista Park
2018-12-12,2.96,Rio Vista Park
2018-12-13,2.2,Rio Vista Park
2018-12-14,2.22,Rio Vista Park
2018-12-15,16.48,Rio Vista Park
2018-12-16,3.2,Rio Vista Park
2018-12-17,2.76,Rio Vista Park
2018-12-18,2.33,Rio Vista Park
2018-12-19,3.58,Rio Vista Park
2018-12-20,1.94,Rio Vista Park
2018-12-21,2.53,Rio Vista Park
2018-12-22,4.38,Rio Vista Park
2018-12-23,2.84,Rio Vista Park
2018-12-24,20.61,Rio Vista Park
2018-12-25,13.54,Rio Vista Park
2018-12-26,4.9,Rio Vista Park
2018-12-27,30.29,Rio Vista Park
2018-12-28,5.61,Rio Vista Park
2018-12-29,8.22,Rio Vista Park
2018-12-30,19.56,Rio Vista Park
2018-12-31,6.79,Rio Vista Park
2018-01-01,3.42,Fish Hatchery
2018-01-02,3.62,Fish Hatchery
2018-01-03,3.51,Fish Hatchery
2018-01-04,9.13,Fish Hatchery
2018-01-05,12.07,Fish Hatchery
2018-01-06,17.68,Fish Hatchery
2018-01-07,19.06,Fish Hatchery
2018-01-08,16.14,Fish Hatchery
2018-01-09,18.17,Fish Hatchery
2018-01-10,16.8,Fish Hatchery
2018-01-11,19.45,Fish Hatchery
2018-01-12,14.35,Fish Hatchery
2018-01-13,9.02,Fish Hatchery
2018-01-14,8.56,Fish Hatchery
2018-01-15,8.13,Fish Hatchery
2018-01-16,3.38,Fish Hatchery
2018-01-17,2.85,Fish Hatchery
2018-01-18,2.78,Fish Hatchery
2018-01-19,3.54,Fish Hatchery
2018-01-20,4.38,Fish Hatchery
2018-01-21,3.36,Fish Hatchery
2018-01-22,6.52,Fish Hatchery
2018-01-23,3,Fish Hatchery
2018-01-24,3.23,Fish Hatchery
2018-01-25,2.97,Fish Hatchery
2018-01-26,3.1,Fish Hatchery
2018-01-27,47.84,Fish Hatchery
2018-01-28,3.58,Fish Hatchery
2018-01-29,2.99,Fish Hatchery
2018-01-30,3.24,Fish Hatchery
2018-01-31,2.87,Fish Hatchery
2018-02-01,3.06,Fish Hatchery
2018-02-02,3.1,Fish Hatchery
2018-02-03,3.54,Fish Hatchery
2018-02-04,3.48,Fish Hatchery
2018-02-05,3.04,Fish Hatchery
2018-02-06,3.26,Fish Hatchery
2018-02-07,7.34,Fish Hatchery
2018-02-08,5.05,Fish Hatchery
2018-02-09,5.45,Fish Hatchery
2018-02-10,,Fish Hatchery
2018-02-11,,Fish Hatchery
2018-02-12,5.39,Fish Hatchery
2018-02-13,5.38,Fish Hatchery
2018-02-14,5.71,Fish Hatchery
2018-02-15,5.62,Fish Hatchery
2018-02-16,7.27,Fish Hatchery
2018-02-17,3.17,Fish Hatchery
2018-02-18,3.28,Fish Hatchery
2018-02-19,4.43,Fish Hatchery
2018-02-20,5.83,Fish Hatchery
2018-02-21,10.54,Fish Hatchery
2018-02-22,10.87,Fish Hatchery
2018-02-23,4.42,Fish Hatchery
2018-02-25,6.28,Fish Hatchery
2018-02-26,4.26,Fish Hatchery
2018-02-27,3.82,Fish Hatchery
2018-02-28,10.11,Fish Hatchery
2018-03-01,6.52,Fish Hatchery
2018-03-02,3.75,Fish Hatchery
2018-03-03,4.14,Fish Hatchery
2018-03-04,4.08,Fish Hatchery
2018-03-05,4.37,Fish Hatchery
2018-03-06,4.48,Fish Hatchery
2018-03-07,3.82,Fish Hatchery
2018-03-08,3.87,Fish Hatchery
2018-03-09,3.71,Fish Hatchery
2018-03-10,8.02,Fish Hatchery
2018-03-11,3.91,Fish Hatchery
2018-03-12,3.77,Fish Hatchery
2018-03-13,3.69,Fish Hatchery
2018-03-14,4.08,Fish Hatchery
2018-03-15,3.86,Fish Hatchery
2018-03-16,6.62,Fish Hatchery
2018-03-17,4.46,Fish Hatchery
2018-03-18,9.8,Fish Hatchery
2018-03-19,5.87,Fish Hatchery
2018-03-20,7.89,Fish Hatchery
2018-03-21,5.9,Fish Hatchery
2018-03-22,19.38,Fish Hatchery
2018-03-23,18.34,Fish Hatchery
2018-03-24,,Fish Hatchery
2018-03-25,17.27,Fish Hatchery
2018-03-26,19.38,Fish Hatchery
2018-03-27,235.1,Fish Hatchery
2018-03-28,321.9,Fish Hatchery
2018-03-29,248.6,Fish Hatchery
2018-03-30,22.77,Fish Hatchery
2018-03-31,11.08,Fish Hatchery
2018-04-01,17.25,Fish Hatchery
2018-04-02,19.88,Fish Hatchery
2018-04-03,16.21,Fish Hatchery
2018-04-04,17.64524918,Fish Hatchery
2018-04-05,8.708097284,Fish Hatchery
2018-04-06,9.445895554,Fish Hatchery
2018-04-07,19.39744494,Fish Hatchery
2018-04-08,13.63239212,Fish Hatchery
2018-04-09,13.63239212,Fish Hatchery
2018-04-10,15.32408953,Fish Hatchery
2018-04-11,7.569239033,Fish Hatchery
2018-04-12,14.64218681,Fish Hatchery
2018-04-13,9.069335721,Fish Hatchery
2018-04-14,9.127834676,Fish Hatchery
2018-04-15,13.37223217,Fish Hatchery
2018-04-16,7.981531483,Fish Hatchery
2018-04-17,13.45022978,Fish Hatchery
2018-04-18,11.30127783,Fish Hatchery
2018-04-19,12.4643766,Fish Hatchery
2018-04-20,9.906575351,Fish Hatchery
2018-04-21,6.890824828,Fish Hatchery
2018-04-22,8.181072516,Fish Hatchery
2018-04-23,14.06012116,Fish Hatchery
2018-04-24,7.792319905,Fish Hatchery
2018-04-25,31.77696807,Fish Hatchery
2018-04-26,18.92286661,Fish Hatchery
2018-04-27,10.69551537,Fish Hatchery
2018-04-28,9.348414802,Fish Hatchery
2018-04-29,9.686862429,Fish Hatchery
2018-04-30,5.854811698,Fish Hatchery
2018-05-01,11.06990988,Fish Hatchery
2018-05-02,9.496457774,Fish Hatchery
2018-05-03,6.603307669,Fish Hatchery
2018-05-04,390.7639057,Fish Hatchery
2018-05-05,13.59420472,Fish Hatchery
2018-05-06,22.43875321,Fish Hatchery
2018-05-07,15.40260101,Fish Hatchery
2018-05-08,7.429650254,Fish Hatchery
2018-05-09,4.32,Fish Hatchery
2018-05-10,9.36,Fish Hatchery
2018-05-11,6.29,Fish Hatchery
2018-05-12,10.89,Fish Hatchery
2018-05-13,6.23,Fish Hatchery
2018-05-14,3.58,Fish Hatchery
2018-05-15,3.63,Fish Hatchery
2018-05-16,6.91,Fish Hatchery
2018-05-17,4.07,Fish Hatchery
2018-05-18,4.41,Fish Hatchery
2018-05-19,5.99,Fish Hatchery
2018-05-20,95.52,Fish Hatchery
2018-05-21,10.87,Fish Hatchery
2018-05-22,5.1,Fish Hatchery
2018-05-23,8.37,Fish Hatchery
2018-05-24,3.6,Fish Hatchery
2018-05-25,4.04,Fish Hatchery
2018-05-26,8.55,Fish Hatchery
2018-05-27,17.83,Fish Hatchery
2018-05-28,8.93,Fish Hatchery
2018-05-29,19.4,Fish Hatchery
2018-05-30,5.55,Fish Hatchery
2018-05-31,4.88,Fish Hatchery
2018-06-01,9.36,Fish Hatchery
2018-06-02,18.55,Fish Hatchery
2018-06-03,9.2,Fish Hatchery
2018-06-04,4.89,Fish Hatchery
2018-06-05,6.3,Fish Hatchery
2018-06-06,8.16,Fish Hatchery
2018-06-07,4.63,Fish Hatchery
2018-06-08,17.68,Fish Hatchery
2018-06-09,12.27,Fish Hatchery
2018-06-10,6.48,Fish Hatchery
2018-06-11,11.97,Fish Hatchery
2018-06-12,16.67,Fish Hatchery
2018-06-13,5.23,Fish Hatchery
2018-06-14,8.25,Fish Hatchery
2018-06-15,5.98,Fish Hatchery
2018-06-16,104.7,Fish Hatchery
2018-06-17,8.1,Fish Hatchery
2018-06-18,7.15,Fish Hatchery
2018-06-19,19.32,Fish Hatchery
2018-06-20,7.34,Fish Hatchery
2018-06-21,9.74,Fish Hatchery
2018-06-22,6.78,Fish Hatchery
2018-06-23,10.28,Fish Hatchery
2018-06-24,13.3,Fish Hatchery
2018-06-25,8.71,Fish Hatchery
2018-06-26,7.88,Fish Hatchery
2018-06-27,8.23,Fish Hatchery
2018-06-28,7.28,Fish Hatchery
2018-06-29,7.22,Fish Hatchery
2018-06-30,12.34,Fish Hatchery
2018-07-01,11.55,Fish Hatchery
2018-07-02,7.89,Fish Hatchery
2018-07-03,13.01,Fish Hatchery
2018-07-04,348.9,Fish Hatchery
2018-07-05,9.54,Fish Hatchery
2018-07-06,7.47,Fish Hatchery
2018-07-07,105.5,Fish Hatchery
2018-07-08,23.51,Fish Hatchery
2018-07-09,361.2,Fish Hatchery
2018-07-10,10.63,Fish Hatchery
2018-07-11,8.47,Fish Hatchery
2018-07-12,8.68,Fish Hatchery
2018-07-13,8.47,Fish Hatchery
2018-07-14,14.47,Fish Hatchery
2018-07-15,14.75,Fish Hatchery
2018-07-16,7.55,Fish Hatchery
2018-07-17,7.58,Fish Hatchery
2018-07-18,12.59,Fish Hatchery
2018-07-19,8.64,Fish Hatchery
2018-07-20,7.71,Fish Hatchery
2018-07-21,14.51,Fish Hatchery
2018-07-22,12.51,Fish Hatchery
2018-07-23,10.58,Fish Hatchery
2018-07-24,7.43,Fish Hatchery
2018-07-25,7.4,Fish Hatchery
2018-07-26,8.62,Fish Hatchery
2018-07-27,9.71,Fish Hatchery
2018-07-28,13.26,Fish Hatchery
2018-07-29,14.09,Fish Hatchery
2018-07-30,8.72,Fish Hatchery
2018-07-31,9.71,Fish Hatchery
2018-08-01,6.97,Fish Hatchery
2018-08-02,6.48,Fish Hatchery
2018-08-03,18.37,Fish Hatchery
2018-08-04,8.69,Fish Hatchery
2018-08-05,9.72,Fish Hatchery
2018-08-06,5.52,Fish Hatchery
2018-08-07,5.13,Fish Hatchery
2018-08-08,5.15,Fish Hatchery
2018-08-09,5.93,Fish Hatchery
2018-08-10,5.29,Fish Hatchery
2018-08-11,9.59,Fish Hatchery
2018-08-12,14.3,Fish Hatchery
2018-08-13,8.68,Fish Hatchery
2018-08-14,8.13,Fish Hatchery
2018-08-15,9.5,Fish Hatchery
2018-08-16,8.78,Fish Hatchery
2018-08-17,9.03,Fish Hatchery
2018-08-18,14.97,Fish Hatchery
2018-08-19,9.59,Fish Hatchery
2018-08-20,7,Fish Hatchery
2018-08-21,5.47,Fish Hatchery
2018-08-22,19.5,Fish Hatchery
2018-08-23,9.27,Fish Hatchery
2018-08-24,5.56,Fish Hatchery
2018-08-25,5.99,Fish Hatchery
2018-08-26,10.93,Fish Hatchery
2018-08-27,4.18,Fish Hatchery
2018-08-28,11.33,Fish Hatchery
2018-08-29,7.73,Fish Hatchery
2018-08-30,4.29,Fish Hatchery
2018-08-31,5.18,Fish Hatchery
2018-09-01,13.01,Fish Hatchery
2018-09-02,8.26,Fish Hatchery
2018-09-03,5.27,Fish Hatchery
2018-09-04,6.03,Fish Hatchery
2018-09-05,4.16,Fish Hatchery
2018-09-06,4.42,Fish Hatchery
2018-09-07,163,Fish Hatchery
2018-09-08,8.34,Fish Hatchery
2018-09-09,144.8,Fish Hatchery
2018-09-10,11.47,Fish Hatchery
2018-09-11,6.68,Fish Hatchery
2018-09-12,4.65,Fish Hatchery
2018-09-13,17.32,Fish Hatchery
2018-09-14,64.98,Fish Hatchery
2018-09-15,27.2,Fish Hatchery
2018-09-16,14.17,Fish Hatchery
2018-09-17,14,Fish Hatchery
2018-09-18,4.55,Fish Hatchery
2018-09-19,4.25,Fish Hatchery
2018-09-20,35.89,Fish Hatchery
2018-09-21,6.38,Fish Hatchery
2018-09-22,132,Fish Hatchery
2018-09-23,16.9,Fish Hatchery
2018-09-24,20.41,Fish Hatchery
2018-09-25,12.21,Fish Hatchery
2018-09-26,7.13,Fish Hatchery
2018-09-27,10.74,Fish Hatchery
2018-09-28,4.75,Fish Hatchery
2018-09-29,3.62,Fish Hatchery
2018-09-30,8.58,Fish Hatchery
2018-10-01,8.56,Fish Hatchery
2018-10-02,4.47,Fish Hatchery
2018-10-03,4.62,Fish Hatchery
2018-10-04,5.52,Fish Hatchery
2018-10-05,4.13,Fish Hatchery
2018-10-06,6.13,Fish Hatchery
2018-10-07,4.19,Fish Hatchery
2018-10-08,13.5,Fish Hatchery
2018-10-09,7.37,Fish Hatchery
2018-10-10,4.44,Fish Hatchery
2018-10-11,3.99,Fish Hatchery
2018-10-12,3.95,Fish Hatchery
2018-10-13,4.43,Fish Hatchery
2018-10-14,4.83,Fish Hatchery
2018-10-15,25.16,Fish Hatchery
2018-10-16,21.38,Fish Hatchery
2018-10-17,3.93,Fish Hatchery
2018-10-18,2.7,Fish Hatchery
2018-10-19,3.64,Fish Hatchery
2018-10-20,7.1,Fish Hatchery
2018-10-21,5.18,Fish Hatchery
2018-10-22,20.11,Fish Hatchery
2018-10-23,5.08,Fish Hatchery
2018-10-24,17.34,Fish Hatchery
2018-10-25,4.61,Fish Hatchery
2018-10-26,12.03,Fish Hatchery
2018-10-27,3.61,Fish Hatchery
2018-10-28,2.93,Fish Hatchery
2018-10-29,4.2,Fish Hatchery
2018-10-30,3.17,Fish Hatchery
2018-10-31,255.4,Fish Hatchery
2018-11-01,10.15,Fish Hatchery
2018-11-02,3.3,Fish Hatchery
2018-11-03,12.13,Fish Hatchery
2018-11-04,4.87,Fish Hatchery
2018-11-05,3.45,Fish Hatchery
2018-11-06,3.2,Fish Hatchery
2018-11-07,3.51,Fish Hatchery
2018-11-08,3.62,Fish Hatchery
2018-11-09,4.85,Fish Hatchery
2018-11-10,6.01,Fish Hatchery
2018-11-11,3.34,Fish Hatchery
2018-11-12,2.58,Fish Hatchery
2018-11-13,3.22,Fish Hatchery
2018-11-14,4.17,Fish Hatchery
2018-11-15,9.02,Fish Hatchery
2018-11-16,3.49,Fish Hatchery
2018-11-17,7.1,Fish Hatchery
2018-11-18,4.85,Fish Hatchery
2018-11-19,6.04,Fish Hatchery
2018-11-20,5.77,Fish Hatchery
2018-11-21,18.01,Fish Hatchery
2018-11-22,3.12,Fish Hatchery
2018-11-23,4.81,Fish Hatchery
2018-11-24,3.89,Fish Hatchery
2018-11-25,4.98,Fish Hatchery
2018-11-26,3.22,Fish Hatchery
2018-11-27,2.76,Fish Hatchery
2018-11-28,7.42,Fish Hatchery
2018-11-29,3.91,Fish Hatchery
2018-11-30,3.91,Fish Hatchery
2018-12-01,4.61,Fish Hatchery
2018-12-02,10.06,Fish Hatchery
2018-12-03,16.15,Fish Hatchery
2018-12-04,14.86,Fish Hatchery
2018-12-05,6.94,Fish Hatchery
2018-12-06,8.62,Fish Hatchery
2018-12-07,71.73,Fish Hatchery
2018-12-08,16.2,Fish Hatchery
2018-12-09,13.47,Fish Hatchery
2018-12-10,18.28,Fish Hatchery
2018-12-11,8.71,Fish Hatchery
2018-12-12,18.84,Fish Hatchery
2018-12-13,17.88,Fish Hatchery
2018-12-14,20.12,Fish Hatchery
2018-12-15,17.76,Fish Hatchery
2018-12-16,16.8,Fish Hatchery
2018-12-17,14.64,Fish Hatchery
2018-12-18,12.99,Fish Hatchery
2018-12-19,11.31,Fish Hatchery
2018-12-20,18.33,Fish Hatchery
2018-12-21,18.94,Fish Hatchery
2018-12-22,9.54,Fish Hatchery
2018-12-23,9.54,Fish Hatchery
2018-12-24,13.68,Fish Hatchery
2018-12-25,8.31,Fish Hatchery
2018-12-26,19.02,Fish Hatchery
2018-12-27,74.79,Fish Hatchery
2018-12-28,16.49,Fish Hatchery
2018-12-29,5.83,Fish Hatchery
2018-12-30,10.04,Fish Hatchery
2018-12-31,7.58,Fish Hatchery
2018-03-30,17.31,Landa Lake
2018-03-31,0.43,Landa Lake
2018-04-01,0.82,Landa Lake
2018-04-02,0.9,Landa Lake
2018-04-03,13.86,Landa Lake
2018-04-04,0.84,Landa Lake
2018-04-05,0.76,Landa Lake
2018-04-06,3.16,Landa Lake
2018-04-07,0.41,Landa Lake
2018-04-08,0.23,Landa Lake
2018-04-09,0.94,Landa Lake
2018-04-10,0.62,Landa Lake
2018-04-11,0.37,Landa Lake
2018-04-12,11.21,Landa Lake
2018-04-13,13.27,Landa Lake
2018-04-14,18.32,Landa Lake
2018-04-15,4.54,Landa Lake
2018-04-16,2.54,Landa Lake
2018-04-17,7.36,Landa Lake
2018-04-18,0.37,Landa Lake
2018-04-19,0.25,Landa Lake
2018-04-20,0.21,Landa Lake
2018-04-21,14.16,Landa Lake
2018-04-22,8.13,Landa Lake
2018-04-23,6.38,Landa Lake
2018-04-24,0.93,Landa Lake
2018-04-25,15.62,Landa Lake
2018-04-26,0.5,Landa Lake
2018-04-27,0.44,Landa Lake
2018-04-28,0.48,Landa Lake
2018-04-29,0.55,Landa Lake
2018-04-30,0.73,Landa Lake
2018-05-01,0.67,Landa Lake
2018-05-02,1.44,Landa Lake
2018-05-03,0.66,Landa Lake
2018-05-04,1.48,Landa Lake
2018-05-05,4.65,Landa Lake
2018-05-06,3.3,Landa Lake
2018-05-07,1.31,Landa Lake
2018-05-08,13.93,Landa Lake
2018-05-09,3.09,Landa Lake
2018-05-10,0.41,Landa Lake
2018-05-11,1.06,Landa Lake
2018-05-12,2.32,Landa Lake
2018-05-13,1.44,Landa Lake
2018-05-14,0.52,Landa Lake
2018-05-15,4.34,Landa Lake
2018-05-16,4.34,Landa Lake
2018-05-17,8.96,Landa Lake
2018-05-18,0.77,Landa Lake
2018-05-19,0.56,Landa Lake
2018-05-20,12.47,Landa Lake
2018-05-21,0.73,Landa Lake
2018-05-22,0.57,Landa Lake
2018-05-23,0.88,Landa Lake
2018-05-24,0.73,Landa Lake
2018-05-25,0.92,Landa Lake
2018-05-26,0.64,Landa Lake
2018-05-27,0.93,Landa Lake
2018-05-28,0.77,Landa Lake
2018-05-29,0.89,Landa Lake
2018-05-30,0.91,Landa Lake
2018-05-31,0.83,Landa Lake
2018-06-01,0.87,Landa Lake
2018-06-02,0.71,Landa Lake
2018-06-03,0.68,Landa Lake
2018-06-04,0.63,Landa Lake
2018-06-05,1.01,Landa Lake
2018-06-06,0.73,Landa Lake
2018-06-07,1.22,Landa Lake
2018-06-08,1.18,Landa Lake
2018-06-09,0.89,Landa Lake
2018-06-10,10.07,Landa Lake
2018-06-11,5.17,Landa Lake
2018-06-12,12.47,Landa Lake
2018-06-13,15.71,Landa Lake
2018-06-14,4.35,Landa Lake
2018-06-15,2.3,Landa Lake
2018-06-16,19.29,Landa Lake
2018-06-17,2.75,Landa Lake
2018-06-18,10.7,Landa Lake
2018-06-19,5.98,Landa Lake
2018-06-20,4.16,Landa Lake
2018-06-21,10.45,Landa Lake
2018-06-22,2.57,Landa Lake
2018-06-23,19.32,Landa Lake
2018-06-24,17.62,Landa Lake
2018-06-25,2.84,Landa Lake
2018-06-26,17.04,Landa Lake
2018-06-27,13.9,Landa Lake
2018-06-28,8.34,Landa Lake
2018-06-29,13.6,Landa Lake
2018-06-30,16.96,Landa Lake
2018-07-01,13.55,Landa Lake
2018-07-02,10.84,Landa Lake
2018-07-03,19.93,Landa Lake
2018-07-04,19.69,Landa Lake
2018-07-05,2.26,Landa Lake
2018-07-06,8.48,Landa Lake
2018-07-07,13.47,Landa Lake
2018-07-08,18.78,Landa Lake
2018-07-09,11.41,Landa Lake
2018-07-10,16.16,Landa Lake
2018-07-11,15.9,Landa Lake
2018-07-12,17.73,Landa Lake
2018-07-13,19.93,Landa Lake
2018-07-14,17.73,Landa Lake
2018-07-15,13.59,Landa Lake
2018-07-16,19.01,Landa Lake
2018-07-17,3.59,Landa Lake
2018-07-18,2.06,Landa Lake
2018-07-19,12.8,Landa Lake
2018-07-20,4.82,Landa Lake
2018-07-21,7.52,Landa Lake
2018-07-22,13.82,Landa Lake
2018-07-23,18.28,Landa Lake
2018-07-24,12.73,Landa Lake
2018-07-25,16.01,Landa Lake
2018-07-26,1.8,Landa Lake
2018-07-27,6.03,Landa Lake
2018-07-28,0.85,Landa Lake
2018-07-29,12.39,Landa Lake
2018-07-30,0.55,Landa Lake
2018-07-31,8.35,Landa Lake
2018-08-09,5.66,Landa Lake
2018-08-10,3.67,Landa Lake
2018-08-11,9.7,Landa Lake
2018-08-12,19.7,Landa Lake
2018-08-13,19.82,Landa Lake
2018-08-14,15.74,Landa Lake
2018-08-15,7.46,Landa Lake
2018-08-16,3.98,Landa Lake
2018-08-17,2,Landa Lake
2018-08-18,3.94,Landa Lake
2018-08-19,1.77,Landa Lake
2018-08-20,9.83,Landa Lake
2018-08-21,19.39,Landa Lake
2018-08-22,2.09,Landa Lake
2018-08-23,19.23,Landa Lake
2018-08-24,6.9,Landa Lake
2018-08-25,3.75,Landa Lake
2018-08-26,17.83,Landa Lake
2018-08-27,16.74,Landa Lake
2018-08-28,19.67,Landa Lake
2018-08-29,15.84,Landa Lake
2018-08-30,7.27,Landa Lake
2018-08-31,2.54,Landa Lake
2018-09-01,2.09,Landa Lake
2018-09-02,8.18,Landa Lake
2018-09-03,9.74,Landa Lake
2018-09-04,1.34,Landa Lake
2018-09-05,0.95,Landa Lake
2018-09-06,1.05,Landa Lake
2018-09-07,13.43,Landa Lake
2018-09-08,4.94,Landa Lake
2018-09-09,1.46,Landa Lake
2018-09-10,2.89,Landa Lake
2018-09-11,7.72,Landa Lake
2018-09-12,1.19,Landa Lake
2018-09-13,1.25,Landa Lake
2018-09-14,1.26,Landa Lake
2018-09-15,4.14,Landa Lake
2018-09-16,1.45,Landa Lake
2018-09-17,15.45,Landa Lake
2018-09-18,1.59,Landa Lake
2018-09-19,2.81,Landa Lake
2018-09-20,1.6,Landa Lake
2018-09-21,1.74,Landa Lake
2018-09-22,1.61,Landa Lake
2018-09-23,1.4,Landa Lake
2018-09-24,2.32,Landa Lake
2018-09-25,1.7,Landa Lake
2018-09-26,5.02,Landa Lake
2018-09-27,1.11,Landa Lake
2018-09-28,1.85,Landa Lake
2018-09-29,0.9,Landa Lake
2018-09-30,2.53,Landa Lake
2018-10-01,2.79,Landa Lake
2018-10-02,8.86,Landa Lake
2018-10-03,2.23,Landa Lake
2018-10-04,7.99,Landa Lake
2018-10-05,1.95,Landa Lake
2018-10-06,1.52,Landa Lake
2018-10-07,2.14,Landa Lake
2018-10-08,0.91,Landa Lake
2018-10-09,,Landa Lake
2018-10-10,,Landa Lake
2018-10-11,,Landa Lake
2018-10-12,,Landa Lake
2018-10-13,,Landa Lake
2018-10-14,,Landa Lake
2018-10-15,,Landa Lake
2018-10-16,,Landa Lake
2018-10-17,,Landa Lake
2018-10-18,,Landa Lake
2018-10-19,,Landa Lake
2018-10-20,,Landa Lake
2018-10-21,,Landa Lake
2018-10-22,,Landa Lake
2018-10-23,,Landa Lake
2018-10-24,,Landa Lake
2018-12-10,0.88,Landa Lake
2018-12-11,0.68,Landa Lake
2018-12-12,1.64,Landa Lake
2018-12-13,1.21,Landa Lake
2018-12-14,1.46,Landa Lake
2018-12-15,,Landa Lake
2018-12-16,,Landa Lake
2018-12-17,,Landa Lake
2018-12-18,,Landa Lake
2018-12-19,,Landa Lake
2018-12-20,,Landa Lake
2018-12-21,,Landa Lake
2018-12-22,,Landa Lake
2018-12-23,,Landa Lake
2018-12-24,,Landa Lake
2018-12-25,,Landa Lake
2018-12-26,,Landa Lake
2018-12-27,,Landa Lake
2018-12-28,,Landa Lake
2018-12-29,,Landa Lake
2018-12-30,,Landa Lake
2018-12-31,,Landa Lake
2018-01-01,,Comal New Channel
2018-01-02,,Comal New Channel
2018-01-03,2.14,Comal New Channel
2018-01-04,1.89,Comal New Channel
2018-01-05,1.45,Comal New Channel
2018-01-06,1.58,Comal New Channel
2018-01-07,1.81,Comal New Channel
2018-01-08,2.39,Comal New Channel
2018-01-09,4,Comal New Channel
2018-01-10,15.21,Comal New Channel
2018-01-11,1.6,Comal New Channel
2018-01-12,1.92,Comal New Channel
2018-01-13,2.06,Comal New Channel
2018-01-14,2.04,Comal New Channel
2018-01-15,1.94,Comal New Channel
2018-01-16,2.32,Comal New Channel
2018-01-17,1.26,Comal New Channel
2018-01-18,1.62,Comal New Channel
2018-01-19,1.08,Comal New Channel
2018-01-20,2.75,Comal New Channel
2018-01-21,1.64,Comal New Channel
2018-01-22,1.58,Comal New Channel
2018-01-23,1.54,Comal New Channel
2018-01-24,2,Comal New Channel
2018-01-25,1.85,Comal New Channel
2018-01-26,1.57,Comal New Channel
2018-01-27,1.4,Comal New Channel
2018-01-28,1.78,Comal New Channel
2018-01-29,1.53,Comal New Channel
2018-01-30,1.8,Comal New Channel
2018-01-31,1.59,Comal New Channel
2018-02-01,3.05,Comal New Channel
2018-02-02,1.56,Comal New Channel
2018-02-03,3.12,Comal New Channel
2018-02-04,2.21,Comal New Channel
2018-02-05,1.39,Comal New Channel
2018-02-06,3.82,Comal New Channel
2018-02-07,11.71,Comal New Channel
2018-02-08,3.05,Comal New Channel
2018-02-09,1.7,Comal New Channel
2018-02-10,2.12,Comal New Channel
2018-02-11,3.99,Comal New Channel
2018-02-12,2.3,Comal New Channel
2018-02-13,3.57,Comal New Channel
2018-02-14,3.44,Comal New Channel
2018-02-15,2.6,Comal New Channel
2018-02-16,2,Comal New Channel
2018-02-17,2.52,Comal New Channel
2018-02-18,3.05,Comal New Channel
2018-02-19,2.55,Comal New Channel
2018-02-20,3.5,Comal New Channel
2018-02-21,2.63,Comal New Channel
2018-02-22,6.13,Comal New Channel
2018-02-23,677.8,Comal New Channel
2018-02-24,135.3,Comal New Channel
2018-02-25,11.32,Comal New Channel
2018-02-26,5.2,Comal New Channel
2018-02-27,2.67,Comal New Channel
2018-02-28,,Comal New Channel
2018-03-01,13.07,Comal New Channel
2018-03-02,3.22,Comal New Channel
2018-03-03,5.35,Comal New Channel
2018-03-04,2.88,Comal New Channel
2018-03-05,3.52,Comal New Channel
2018-03-06,5.6,Comal New Channel
2018-03-07,3.91,Comal New Channel
2018-03-08,2.9,Comal New Channel
2018-03-09,2.32,Comal New Channel
2018-03-10,8.03,Comal New Channel
2018-03-11,10.91,Comal New Channel
2018-03-12,11.08,Comal New Channel
2018-03-13,3.45,Comal New Channel
2018-03-14,4.01,Comal New Channel
2018-03-15,1.96,Comal New Channel
2018-03-16,7.46,Comal New Channel
2018-03-17,4.58,Comal New Channel
2018-03-18,4.73,Comal New Channel
2018-03-19,3.92,Comal New Channel
2018-03-20,4.31,Comal New Channel
2018-03-21,4.89,Comal New Channel
2018-03-22,4.75,Comal New Channel
2018-03-23,3.78,Comal New Channel
2018-03-24,3.67,Comal New Channel
2018-03-25,2.91,Comal New Channel
2018-03-26,3.94,Comal New Channel
2018-03-27,2.77,Comal New Channel
2018-03-28,1084,Comal New Channel
2018-03-29,326,Comal New Channel
2018-03-30,22.46,Comal New Channel
2018-03-31,9.85,Comal New Channel
2018-04-01,6.72,Comal New Channel
2018-04-02,6.54,Comal New Channel
2018-04-03,7.82,Comal New Channel
2018-04-04,6.8,Comal New Channel
2018-04-05,7.66,Comal New Channel
2018-04-06,8,Comal New Channel
2018-04-07,8.28,Comal New Channel
2018-04-08,5.84,Comal New Channel
2018-04-09,7.55,Comal New Channel
2018-04-10,8.34,Comal New Channel
2018-04-11,16.18,Comal New Channel
2018-04-12,13.64,Comal New Channel
2018-04-13,17.15,Comal New Channel
2018-04-14,18.72,Comal New Channel
2018-04-15,12.34,Comal New Channel
2018-04-16,16.78,Comal New Channel
2018-04-17,8.64,Comal New Channel
2018-04-18,5.04,Comal New Channel
2018-04-19,11.14,Comal New Channel
2018-04-20,11.67,Comal New Channel
2018-04-21,7.52,Comal New Channel
2018-04-22,9.39,Comal New Channel
2018-04-23,6.9,Comal New Channel
2018-04-24,9.12,Comal New Channel
2018-04-25,10.01,Comal New Channel
2018-04-26,5.13,Comal New Channel
2018-04-27,6.51,Comal New Channel
2018-04-28,16.23,Comal New Channel
2018-04-29,4.34,Comal New Channel
2018-04-30,3.56,Comal New Channel
2018-05-01,3.64,Comal New Channel
2018-05-02,10.11,Comal New Channel
2018-05-03,7.59,Comal New Channel
2018-05-04,21.56,Comal New Channel
2018-05-05,14.98,Comal New Channel
2018-05-06,8.27,Comal New Channel
2018-05-07,9.52,Comal New Channel
2018-05-08,12.26,Comal New Channel
2018-05-09,8.29,Comal New Channel
2018-05-10,6.58,Comal New Channel
2018-05-11,5.71,Comal New Channel
2018-05-12,10.01,Comal New Channel
2018-05-13,10.8,Comal New Channel
2018-05-14,5.45,Comal New Channel
2018-05-15,10.02,Comal New Channel
2018-05-16,4.18,Comal New Channel
2018-05-17,5.92,Comal New Channel
2018-05-18,12.21,Comal New Channel
2018-05-19,9.29,Comal New Channel
2018-05-20,13.57,Comal New Channel
2018-05-21,5.33,Comal New Channel
2018-05-22,3.46,Comal New Channel
2018-05-23,4.11,Comal New Channel
2018-05-24,11.8,Comal New Channel
2018-05-25,13.63,Comal New Channel
2018-05-26,8.47,Comal New Channel
2018-05-27,14.2,Comal New Channel
2018-05-28,16.86,Comal New Channel
2018-05-29,4.38,Comal New Channel
2018-05-30,3.19,Comal New Channel
2018-05-31,5.25,Comal New Channel
2018-06-01,6.55,Comal New Channel
2018-06-02,15.78,Comal New Channel
2018-06-03,11.63,Comal New Channel
2018-06-04,14.75,Comal New Channel
2018-06-05,6.78,Comal New Channel
2018-06-06,6.67,Comal New Channel
2018-06-07,6.03,Comal New Channel
2018-06-08,5.32,Comal New Channel
2018-06-09,6.82,Comal New Channel
2018-06-10,8.14,Comal New Channel
2018-06-11,6.57,Comal New Channel
2018-06-12,9.89,Comal New Channel
2018-06-13,4.93,Comal New Channel
2018-06-14,4.48,Comal New Channel
2018-06-15,13.38,Comal New Channel
2018-06-16,6.5,Comal New Channel
2018-06-17,6.16,Comal New Channel
2018-06-18,4.7,Comal New Channel
2018-06-19,7.2,Comal New Channel
2018-06-20,7.55,Comal New Channel
2018-06-21,12.05,Comal New Channel
2018-06-22,5.84,Comal New Channel
2018-06-23,6.87,Comal New Channel
2018-06-24,9.53,Comal New Channel
2018-06-25,19.42,Comal New Channel
2018-06-26,5.05,Comal New Channel
2018-06-27,4.67,Comal New Channel
2018-06-28,12.13,Comal New Channel
2018-06-29,6,Comal New Channel
2018-06-30,4.24,Comal New Channel
2018-07-01,6.09,Comal New Channel
2018-07-02,5.54,Comal New Channel
2018-07-03,4.35,Comal New Channel
2018-07-04,10.59,Comal New Channel
2018-07-05,10.06,Comal New Channel
2018-07-06,4,Comal New Channel
2018-07-07,3.63,Comal New Channel
2018-07-08,6.16,Comal New Channel
2018-07-09,10.05,Comal New Channel
2018-07-10,16.04,Comal New Channel
2018-07-11,5.42,Comal New Channel
2018-07-12,14.31,Comal New Channel
2018-07-13,5.25,Comal New Channel
2018-07-14,6.93,Comal New Channel
2018-07-15,7.64,Comal New Channel
2018-07-16,4.32,Comal New Channel
2018-07-17,2.75,Comal New Channel
2018-07-18,6.95,Comal New Channel
2018-07-19,4.4,Comal New Channel
2018-07-20,7.77,Comal New Channel
2018-07-21,6.65,Comal New Channel
2018-07-22,4.64,Comal New Channel
2018-07-23,8.04,Comal New Channel
2018-07-24,4.27,Comal New Channel
2018-07-25,5.65,Comal New Channel
2018-07-26,6.35,Comal New Channel
2018-07-27,14.11,Comal New Channel
2018-07-28,6.69,Comal New Channel
2018-07-29,7.77,Comal New Channel
2018-07-30,8.64,Comal New Channel
2018-07-31,18.47,Comal New Channel
2018-08-01,14.75,Comal New Channel
2018-08-02,7.49,Comal New Channel
2018-08-03,7.44,Comal New Channel
2018-08-04,6.41,Comal New Channel
2018-08-05,17.41,Comal New Channel
2018-08-06,9.58,Comal New Channel
2018-08-07,17.56,Comal New Channel
2018-08-08,6.61,Comal New Channel
2018-08-09,8.66,Comal New Channel
2018-08-10,6.38,Comal New Channel
2018-08-11,11.38,Comal New Channel
2018-08-12,25.59,Comal New Channel
2018-08-13,19.76,Comal New Channel
2018-08-14,8.53,Comal New Channel
2018-08-15,24.82,Comal New Channel
2018-08-16,14.15,Comal New Channel
2018-08-17,10.15,Comal New Channel
2018-08-18,12.9,Comal New Channel
2018-08-19,10.91,Comal New Channel
2018-08-20,14.09,Comal New Channel
2018-08-21,10.13,Comal New Channel
2018-08-22,6.37,Comal New Channel
2018-08-23,6.44,Comal New Channel
2018-08-24,7,Comal New Channel
2018-08-25,43.4,Comal New Channel
2018-08-26,7.95,Comal New Channel
2018-08-27,6.79,Comal New Channel
2018-08-28,7.45,Comal New Channel
2018-08-29,3.01,Comal New Channel
2018-08-30,4.02,Comal New Channel
2018-08-31,8.19,Comal New Channel
2018-09-01,19.69,Comal New Channel
2018-09-02,5.35,Comal New Channel
2018-09-03,9.61,Comal New Channel
2018-09-04,2.85,Comal New Channel
2018-09-05,3.19,Comal New Channel
2018-09-06,9.44,Comal New Channel
2018-09-07,10.41,Comal New Channel
2018-09-08,6.24,Comal New Channel
2018-09-09,12.06,Comal New Channel
2018-09-10,19.4,Comal New Channel
2018-09-11,19.44,Comal New Channel
2018-09-12,15.54,Comal New Channel
2018-09-13,8.78,Comal New Channel
2018-09-14,5.71,Comal New Channel
2018-09-15,88.61,Comal New Channel
2018-09-16,36.89,Comal New Channel
2018-09-17,9.9,Comal New Channel
2018-09-18,3.93,Comal New Channel
2018-09-19,7.98,Comal New Channel
2018-09-20,20.06,Comal New Channel
2018-09-21,181.7,Comal New Channel
2018-09-22,28.95,Comal New Channel
2018-09-23,15.19,Comal New Channel
2018-09-24,7.57,Comal New Channel
2018-09-25,7.43,Comal New Channel
2018-09-26,8.4,Comal New Channel
2018-09-27,17.74,Comal New Channel
2018-09-28,7.48,Comal New Channel
2018-09-29,17.38,Comal New Channel
2018-09-30,7.77,Comal New Channel
2018-10-01,15.67,Comal New Channel
2018-10-02,17.14,Comal New Channel
2018-10-03,6.25,Comal New Channel
2018-10-04,5.51,Comal New Channel
2018-10-05,12.75,Comal New Channel
2018-10-06,12.93,Comal New Channel
2018-10-07,15.24,Comal New Channel
2018-10-08,7.1,Comal New Channel
2018-10-09,12.41,Comal New Channel
2018-10-10,12.89,Comal New Channel
2018-10-11,7.64,Comal New Channel
2018-10-12,10.21,Comal New Channel
2018-10-13,12.83,Comal New Channel
2018-10-14,26.36,Comal New Channel
2018-10-15,85.46,Comal New Channel
2018-10-16,70.58,Comal New Channel
2018-10-17,25.01,Comal New Channel
2018-10-18,14.39,Comal New Channel
2018-10-19,11.28,Comal New Channel
2018-10-20,17.08,Comal New Channel
2018-10-21,21.91,Comal New Channel
2018-10-22,7.86,Comal New Channel
2018-10-23,18.42,Comal New Channel
2018-10-24,33.36,Comal New Channel
2018-10-25,55.97,Comal New Channel
2018-10-26,12.99,Comal New Channel
2018-10-27,13.62,Comal New Channel
2018-10-28,18.62,Comal New Channel
2018-10-29,16.43,Comal New Channel
2018-10-30,8.66,Comal New Channel
2018-10-31,263,Comal New Channel
2018-11-01,133,Comal New Channel
2018-11-02,15.97,Comal New Channel
2018-11-03,10.13,Comal New Channel
2018-11-04,188.2,Comal New Channel
2018-11-05,14.67,Comal New Channel
2018-11-06,10.31,Comal New Channel
2018-11-07,7.64,Comal New Channel
2018-11-08,26.55,Comal New Channel
2018-11-09,9.15,Comal New Channel
2018-11-10,5.46,Comal New Channel
2018-11-11,8.05,Comal New Channel
2018-11-12,9.82,Comal New Channel
2018-11-13,10.31,Comal New Channel
2018-11-14,5.19,Comal New Channel
2018-11-15,8.78,Comal New Channel
2018-11-16,10,Comal New Channel
2018-11-17,5.07,Comal New Channel
2018-11-18,10.48,Comal New Channel
2018-11-19,3.85,Comal New Channel
2018-11-20,5.98,Comal New Channel
2018-11-21,18.58,Comal New Channel
2018-11-22,2.55,Comal New Channel
2018-11-23,4.32,Comal New Channel
2018-11-24,12.22,Comal New Channel
2018-11-25,4.65,Comal New Channel
2018-11-26,5.51,Comal New Channel
2018-11-27,11.36,Comal New Channel
2018-11-28,8.97,Comal New Channel
2018-11-29,5.18,Comal New Channel
2018-11-30,6.1,Comal New Channel
2018-12-01,9.4,Comal New Channel
2018-12-02,3.8,Comal New Channel
2018-12-03,4.28,Comal New Channel
2018-12-04,6.19,Comal New Channel
2018-12-05,8.13,Comal New Channel
2018-12-06,8.81,Comal New Channel
2018-12-07,188.3,Comal New Channel
2018-12-08,136.6,Comal New Channel
2018-12-09,15.85,Comal New Channel
2018-12-10,8.47,Comal New Channel
2018-12-11,6.29,Comal New Channel
2018-12-12,8.45,Comal New Channel
2018-12-13,6.14,Comal New Channel
2018-12-14,4.56,Comal New Channel
2018-12-15,5.18,Comal New Channel
2018-12-16,2.21,Comal New Channel
2018-12-17,13.73,Comal New Channel
2018-12-18,1.69,Comal New Channel
2018-12-19,2.42,Comal New Channel
2018-12-20,3.23,Comal New Channel
2018-12-21,5.36,Comal New Channel
2018-12-22,2.18,Comal New Channel
2018-12-23,3.66,Comal New Channel
2018-12-24,2.9,Comal New Channel
2018-12-25,2.8,Comal New Channel
2018-12-26,3.55,Comal New Channel
2018-12-27,3.01,Comal New Channel
2018-12-28,6.05,Comal New Channel
2018-12-29,2.47,Comal New Channel
2018-12-30,4.74,Comal New Channel
2018-12-31,4.83,Comal New Channel
2018-04-20,3.47,Comal Old Channel
2018-04-21,3.09,Comal Old Channel
2018-04-22,13.91,Comal Old Channel
2018-04-23,2.99,Comal Old Channel
2018-04-24,2.7,Comal Old Channel
2018-04-25,4.25,Comal Old Channel
2018-04-26,2.35,Comal Old Channel
2018-04-27,4.97,Comal Old Channel
2018-04-28,9.94,Comal Old Channel
2018-04-29,2.06,Comal Old Channel
2018-04-30,2.07,Comal Old Channel
2018-05-01,2.16,Comal Old Channel
2018-05-02,5.06,Comal Old Channel
2018-05-03,7.99,Comal Old Channel
2018-05-04,17.81,Comal Old Channel
2018-05-05,4.27,Comal Old Channel
2018-05-06,2.32,Comal Old Channel
2018-05-07,2.6,Comal Old Channel
2018-05-08,2.58,Comal Old Channel
2018-05-09,9.58,Comal Old Channel
2018-05-10,3.23,Comal Old Channel
2018-05-11,5.35,Comal Old Channel
2018-05-12,4.45,Comal Old Channel
2018-05-13,2.91,Comal Old Channel
2018-05-14,1.93,Comal Old Channel
2018-05-15,3.01,Comal Old Channel
2018-05-16,3.01,Comal Old Channel
2018-05-17,4.24,Comal Old Channel
2018-05-18,3.34,Comal Old Channel
2018-05-19,2.24,Comal Old Channel
2018-05-20,6.85,Comal Old Channel
2018-05-21,2.17,Comal Old Channel
2018-05-22,2.67,Comal Old Channel
2018-05-23,2.62,Comal Old Channel
2018-05-24,4.69,Comal Old Channel
2018-05-25,9.6,Comal Old Channel
2018-05-26,4.35,Comal Old Channel
2018-05-27,8.08,Comal Old Channel
2018-05-28,2.23,Comal Old Channel
2018-05-29,1.84,Comal Old Channel
2018-05-30,9.93,Comal Old Channel
2018-05-31,2.92,Comal Old Channel
2018-06-01,2.26,Comal Old Channel
2018-06-02,1.01,Comal Old Channel
2018-06-03,1.98,Comal Old Channel
2018-06-04,1.48,Comal Old Channel
2018-06-05,2.26,Comal Old Channel
2018-06-06,1.19,Comal Old Channel
2018-06-07,1.84,Comal Old Channel
2018-06-08,1.84,Comal Old Channel
2018-06-09,1.84,Comal Old Channel
2018-06-10,1.05,Comal Old Channel
2018-06-11,1.05,Comal Old Channel
2018-06-12,0.94,Comal Old Channel
2018-06-13,1.33,Comal Old Channel
2018-06-14,1.775831797,Comal Old Channel
2018-06-15,4.196075738,Comal Old Channel
2018-06-16,4.301862416,Comal Old Channel
2018-06-17,1.291862416,Comal Old Channel
2018-06-18,1.191862416,Comal Old Channel
2018-06-19,1.171862416,Comal Old Channel
2018-06-20,1.301862416,Comal Old Channel
2018-06-21,1.321862416,Comal Old Channel
2018-06-22,1.301862416,Comal Old Channel
2018-06-23,1.461862416,Comal Old Channel
2018-06-24,3.241862416,Comal Old Channel
2018-06-25,6.471862416,Comal Old Channel
2018-06-26,1.471862416,Comal Old Channel
2018-06-27,1.611862416,Comal Old Channel
2018-06-28,6.151862416,Comal Old Channel
2018-06-29,12.02186242,Comal Old Channel
2018-06-30,17.44186242,Comal Old Channel
2018-07-01,1.401862416,Comal Old Channel
2018-07-02,1.241862416,Comal Old Channel
2018-07-03,1.631862416,Comal Old Channel
2018-07-04,1.581862416,Comal Old Channel
2018-07-05,1.301862416,Comal Old Channel
2018-07-06,1.321862416,Comal Old Channel
2018-07-07,1.081862416,Comal Old Channel
2018-07-08,1.331862416,Comal Old Channel
2018-07-09,1.741862416,Comal Old Channel
2018-07-10,1.481862416,Comal Old Channel
2018-07-11,1.341862416,Comal Old Channel
2018-07-12,1.291862416,Comal Old Channel
2018-07-13,1.391862416,Comal Old Channel
2018-07-14,1.271862416,Comal Old Channel
2018-07-15,2.021862416,Comal Old Channel
2018-07-16,6.441862416,Comal Old Channel
2018-07-17,1.301862416,Comal Old Channel
2018-07-18,2.591862416,Comal Old Channel
2018-07-19,1.491862416,Comal Old Channel
2018-07-20,4.70165384,Comal Old Channel
2018-07-21,3.334596542,Comal Old Channel
2018-07-22,3.531112413,Comal Old Channel
2018-07-23,4.129192269,Comal Old Channel
2018-07-24,3.953513689,Comal Old Channel
2018-07-25,4.263520876,Comal Old Channel
2018-07-26,2.469302868,Comal Old Channel
2018-07-27,5.944721513,Comal Old Channel
2018-07-28,8.007115603,Comal Old Channel
2018-07-29,6.052993822,Comal Old Channel
2018-07-30,6.297678588,Comal Old Channel
2018-07-31,8.782548621,Comal Old Channel
2018-08-01,2.778152534,Comal Old Channel
2018-08-02,4.743934526,Comal Old Channel
2018-08-03,2.939998011,Comal Old Channel
2018-08-04,6.531747261,Comal Old Channel
2018-08-05,5.568544625,Comal Old Channel
2018-08-06,17.58643921,Comal Old Channel
2018-08-07,4.885067682,Comal Old Channel
2018-08-08,4.079567183,Comal Old Channel
2018-08-09,16.99581593,Comal Old Channel
2018-08-10,10.81701657,Comal Old Channel
2018-08-11,7.936564186,Comal Old Channel
2018-08-12,4.21537792,Comal Old Channel
2018-08-13,7.653546816,Comal Old Channel
2018-08-14,3.681715711,Comal Old Channel
2018-08-15,11.86291635,Comal Old Channel
2018-08-16,9.213383108,Comal Old Channel
2018-08-17,3.690454778,Comal Old Channel
2018-08-18,2.225502891,Comal Old Channel
2018-08-19,3.962574562,Comal Old Channel
2018-08-20,3.543960466,Comal Old Channel
2018-08-21,16.04983868,Comal Old Channel
2018-08-22,3.990120177,Comal Old Channel
2018-08-23,12.2102164,Comal Old Channel
2018-08-24,4.563982025,Comal Old Channel
2018-08-25,5.403529638,Comal Old Channel
2018-08-26,2.453722091,Comal Old Channel
2018-08-27,3.579415043,Comal Old Channel
2018-08-28,2.725841874,Comal Old Channel
2018-08-29,1.96,Comal Old Channel
2018-08-30,1.87,Comal Old Channel
2018-08-31,3.61,Comal Old Channel
2018-09-01,2.8,Comal Old Channel
2018-09-02,5.02,Comal Old Channel
2018-09-03,1.59,Comal Old Channel
2018-09-04,3.66,Comal Old Channel
2018-09-05,2.41,Comal Old Channel
2018-09-06,2.23,Comal Old Channel
2018-09-07,1.73,Comal Old Channel
2018-09-08,2.81,Comal Old Channel
2018-09-09,2.56,Comal Old Channel
2018-09-10,2.09,Comal Old Channel
2018-09-11,2.01,Comal Old Channel
2018-09-12,7.33,Comal Old Channel
2018-09-13,2.34,Comal Old Channel
2018-09-14,3.07,Comal Old Channel
2018-09-15,8.05,Comal Old Channel
2018-09-16,2.84,Comal Old Channel
2018-09-17,3.2,Comal Old Channel
2018-09-18,2,Comal Old Channel
2018-09-19,2.5,Comal Old Channel
2018-09-20,2.56,Comal Old Channel
2018-09-21,4.01,Comal Old Channel
2018-09-22,5.1,Comal Old Channel
2018-09-23,4.67,Comal Old Channel
2018-09-24,2.35,Comal Old Channel
2018-09-25,2.76,Comal Old Channel
2018-09-26,4.43,Comal Old Channel
2018-09-27,2.56,Comal Old Channel
2018-09-28,6.04,Comal Old Channel
2018-09-29,1.95,Comal Old Channel
2018-09-30,2.68,Comal Old Channel
2018-10-01,2.68,Comal Old Channel
2018-10-02,4.76,Comal Old Channel
2018-10-03,2.63,Comal Old Channel
2018-10-04,1.91,Comal Old Channel
2018-10-05,1.71,Comal Old Channel
2018-10-06,1.47,Comal Old Channel
2018-10-07,1.92,Comal Old Channel
2018-10-08,2.16,Comal Old Channel
2018-10-09,10.87,Comal Old Channel
2018-10-10,1.97,Comal Old Channel
2018-10-11,2.06,Comal Old Channel
2018-10-12,2.1,Comal Old Channel
2018-10-13,11.57,Comal Old Channel
2018-10-14,1.72,Comal Old Channel
2018-10-15,2.62,Comal Old Channel
2018-10-16,2.17,Comal Old Channel
2018-10-17,2.53,Comal Old Channel
2018-10-18,5.13,Comal Old Channel
2018-10-19,1.83,Comal Old Channel
2018-10-20,1.29,Comal Old Channel
2018-10-21,2.37,Comal Old Channel
2018-10-22,1.65,Comal Old Channel
2018-10-23,2.97,Comal Old Channel
2018-10-24,3.65,Comal Old Channel
2018-10-25,2.55,Comal Old Channel
2018-10-26,3.11,Comal Old Channel
2018-10-27,2.04,Comal Old Channel
2018-10-28,4.06,Comal Old Channel
2018-10-29,1.41,Comal Old Channel
2018-10-30,2,Comal Old Channel
2018-10-31,18.95,Comal Old Channel
2018-11-01,2.88,Comal Old Channel
2018-11-02,5.43,Comal Old Channel
2018-11-03,1.7,Comal Old Channel
2018-11-04,23.32,Comal Old Channel
2018-11-05,4.08,Comal Old Channel
2018-11-06,4.43,Comal Old Channel
2018-11-07,2.2,Comal Old Channel
2018-11-08,2.07,Comal Old Channel
2018-11-09,2.41,Comal Old Channel
2018-11-10,2.02,Comal Old Channel
2018-11-11,3.32,Comal Old Channel
2018-11-12,2.98,Comal Old Channel
2018-11-13,2.3,Comal Old Channel
2018-11-14,2.57,Comal Old Channel
2018-11-15,2.57,Comal Old Channel
2018-11-16,3.91,Comal Old Channel
2018-11-17,2.5,Comal Old Channel
2018-11-18,4.05,Comal Old Channel
2018-11-19,1.64,Comal Old Channel
2018-11-20,3.11,Comal Old Channel
2018-11-21,1.87,Comal Old Channel
2018-11-22,2.82,Comal Old Channel
2018-11-23,3.44,Comal Old Channel
2018-11-24,2.77,Comal Old Channel
2018-11-25,1.84,Comal Old Channel
2018-11-26,3.36,Comal Old Channel
2018-11-27,1.54,Comal Old Channel
2018-11-28,3.79,Comal Old Channel
2018-11-29,1.45,Comal Old Channel
2018-11-30,2.61,Comal Old Channel
2018-12-01,2.34,Comal Old Channel
2018-12-02,1.47,Comal Old Channel
2018-12-03,1.2,Comal Old Channel
2018-12-04,2.02,Comal Old Channel
2018-12-05,2.61,Comal Old Channel
2018-12-06,2.99,Comal Old Channel
2018-12-07,3.33,Comal Old Channel
2018-12-08,3.93,Comal Old Channel
2018-12-09,1.68,Comal Old Channel
2018-12-10,1.06,Comal Old Channel
2018-12-11,4.01,Comal Old Channel
2018-12-12,2.06,Comal Old Channel
2018-12-13,2.92,Comal Old Channel
2018-12-14,4.38,Comal Old Channel
2018-12-15,1.45,Comal Old Channel
2018-12-16,2.4,Comal Old Channel
2018-12-17,2.4,Comal Old Channel
2018-12-18,3.35,Comal Old Channel
2018-12-19,3.18,Comal Old Channel
2018-12-20,3.09,Comal Old Channel
2018-12-21,2.1,Comal Old Channel
2018-12-22,2.38,Comal Old Channel
2018-12-23,6.55,Comal Old Channel
2018-12-24,2.05,Comal Old Channel
2018-12-25,2.26,Comal Old Channel
2018-12-26,1.99,Comal Old Channel
2018-12-27,1.58,Comal Old Channel
2018-12-28,1.82,Comal Old Channel
2018-12-29,2.39,Comal Old Channel
2018-12-30,4.35,Comal Old Channel
2018-12-31,1.32,Comal Old Channel
2018-01-01,1.37,Rio Vista Park
2018-01-02,1.88,Rio Vista Park
2018-01-03,2.49,Rio Vista Park
2018-01-04,1.86,Rio Vista Park
2018-01-05,2.16,Rio Vista Park
2018-01-06,1.69,Rio Vista Park
2018-01-07,1.69,Rio Vista Park
2018-01-08,1.89,Rio Vista Park
2018-01-09,1.97,Rio Vista Park
2018-01-10,2.04,Rio Vista Park
2018-01-11,5.43,Rio Vista Park
2018-01-12,5.43,Rio Vista Park
2018-01-13,3.29,Rio Vista Park
2018-01-14,3.29,Rio Vista Park
2018-01-15,3.29,Rio Vista Park
2018-01-16,2.99,Rio Vista Park
2018-01-17,4.53,Rio Vista Park
2018-01-18,2.51,Rio Vista Park
2018-01-19,3.38,Rio Vista Park
2018-01-20,4.35,Rio Vista Park
2018-01-21,3.29,Rio Vista Park
2018-01-22,4.35,Rio Vista Park
2018-01-23,3.29,Rio Vista Park
2018-01-24,5.43,Rio Vista Park
2018-01-25,8.62,Rio Vista Park
2018-01-26,4.35,Rio Vista Park
2018-01-27,13.92,Rio Vista Park
2018-01-28,5.43,Rio Vista Park
2018-01-29,7.56,Rio Vista Park
2018-01-30,3.29,Rio Vista Park
2018-01-31,2.58,Rio Vista Park
2018-02-01,4.35,Rio Vista Park
2018-02-02,7.56,Rio Vista Park
2018-02-03,3.29,Rio Vista Park
2018-02-04,4.45,Rio Vista Park
2018-02-05,4.35,Rio Vista Park
2018-02-06,4.35,Rio Vista Park
2018-02-07,15.02,Rio Vista Park
2018-02-08,4.1,Rio Vista Park
2018-02-09,4.39,Rio Vista Park
2018-02-10,7.56,Rio Vista Park
2018-02-11,4.35,Rio Vista Park
2018-02-12,4.35,Rio Vista Park
2018-02-13,4.35,Rio Vista Park
2018-02-14,4.35,Rio Vista Park
2018-02-15,4.44,Rio Vista Park
2018-02-16,5.4,Rio Vista Park
2018-02-17,5.43,Rio Vista Park
2018-02-18,4.45,Rio Vista Park
2018-02-19,4.32,Rio Vista Park
2018-02-20,11.89,Rio Vista Park
2018-02-21,12.03,Rio Vista Park
2018-02-22,11.83,Rio Vista Park
2018-02-23,72.3,Rio Vista Park
2018-02-24,5.37,Rio Vista Park
2018-02-25,13.97,Rio Vista Park
2018-02-26,5.43,Rio Vista Park
2018-02-27,11.77,Rio Vista Park
2018-02-28,16.09,Rio Vista Park
2018-03-01,17.22,Rio Vista Park
2018-03-02,2.2,Rio Vista Park
2018-03-03,2.63,Rio Vista Park
2018-03-04,3.63,Rio Vista Park
2018-03-05,3.74,Rio Vista Park
2018-03-06,2.54,Rio Vista Park
2018-03-07,2.21,Rio Vista Park
2018-03-08,2.4,Rio Vista Park
2018-03-09,2.44,Rio Vista Park
2018-03-10,3.67,Rio Vista Park
2018-03-11,3.73,Rio Vista Park
2018-03-12,2.26,Rio Vista Park
2018-03-13,3.1,Rio Vista Park
2018-03-14,2.75,Rio Vista Park
2018-03-15,3.29,Rio Vista Park
2018-03-16,3.53,Rio Vista Park
2018-03-17,2.75,Rio Vista Park
2018-03-18,2.79,Rio Vista Park
2018-03-19,2.7,Rio Vista Park
2018-03-20,2.43,Rio Vista Park
2018-03-21,2.12,Rio Vista Park
2018-03-22,2.23,Rio Vista Park
2018-03-23,2.15,Rio Vista Park
2018-03-24,2.65,Rio Vista Park
2018-03-25,5.93,Rio Vista Park
2018-03-26,3.22,Rio Vista Park
2018-03-27,19.11,Rio Vista Park
2018-03-28,285.8,Rio Vista Park
2018-03-29,40.56,Rio Vista Park
2018-03-30,4.25,Rio Vista Park
2018-03-31,4.38,Rio Vista Park
2018-04-01,4.07,Rio Vista Park
2018-04-02,3.3,Rio Vista Park
2018-04-03,3.16,Rio Vista Park
2018-04-04,2.93,Rio Vista Park
2018-04-05,2.67,Rio Vista Park
2018-04-06,3.22,Rio Vista Park
2018-04-07,4.06,Rio Vista Park
2018-04-08,2.96,Rio Vista Park
2018-04-09,4.98,Rio Vista Park
2018-04-10,2.4,Rio Vista Park
2018-04-11,3.26,Rio Vista Park
2018-04-12,8.45,Rio Vista Park
2018-04-13,3.96,Rio Vista Park
2018-04-14,4.9,Rio Vista Park
2018-04-15,5.31,Rio Vista Park
2018-04-16,2.76,Rio Vista Park
2018-04-17,8.01,Rio Vista Park
2018-04-18,4.31,Rio Vista Park
2018-04-19,4.86,Rio Vista Park
2018-04-20,6.52,Rio Vista Park
2018-04-21,4.72,Rio Vista Park
2018-04-22,4.46,Rio Vista Park
2018-04-23,3.32,Rio Vista Park
2018-04-24,15.32,Rio Vista Park
2018-04-25,9.61,Rio Vista Park
2018-04-26,3.95,Rio Vista Park
2018-04-27,4.54,Rio Vista Park
2018-04-28,6.21,Rio Vista Park
2018-04-29,7.79,Rio Vista Park
2018-04-30,19.47,Rio Vista Park
2018-05-01,4.32,Rio Vista Park
2018-05-02,2.53,Rio Vista Park
2018-05-03,3.09,Rio Vista Park
2018-05-04,73.23,Rio Vista Park
2018-05-05,3.33,Rio Vista Park
2018-05-06,4.82,Rio Vista Park
2018-05-07,3.63,Rio Vista Park
2018-05-08,2.45,Rio Vista Park
2018-05-09,11.5,Rio Vista Park
2018-05-10,4.1,Rio Vista Park
2018-05-11,3.27,Rio Vista Park
2018-05-12,3.16,Rio Vista Park
2018-05-13,4.24,Rio Vista Park
2018-05-14,2.39,Rio Vista Park
2018-05-15,3.84,Rio Vista Park
2018-05-16,3.43,Rio Vista Park
2018-05-17,3.99,Rio Vista Park
2018-05-18,5.39,Rio Vista Park
2018-05-19,4.42,Rio Vista Park
2018-05-20,5.56,Rio Vista Park
2018-05-21,2.6,Rio Vista Park
2018-05-22,2.78,Rio Vista Park
2018-05-23,4.77,Rio Vista Park
2018-05-24,4.16,Rio Vista Park
2018-05-25,5.43,Rio Vista Park
2018-05-26,4.1,Rio Vista Park
2018-05-27,10.48,Rio Vista Park
2018-05-28,13.13,Rio Vista Park
2018-05-29,3.27,Rio Vista Park
2018-05-30,2.78,Rio Vista Park
2018-05-31,4.89,Rio Vista Park
2018-06-01,18.11,Rio Vista Park
2018-06-02,6.79,Rio Vista Park
2018-06-03,6.96,Rio Vista Park
2018-06-04,7.92,Rio Vista Park
2018-06-05,7.55,Rio Vista Park
2018-06-06,4.77,Rio Vista Park
2018-06-07,5.05,Rio Vista Park
2018-06-08,11.37,Rio Vista Park
2018-06-09,8.52,Rio Vista Park
2018-06-10,9.89,Rio Vista Park
2018-06-11,9.49,Rio Vista Park
2018-06-12,6.61,Rio Vista Park
2018-06-13,11.01,Rio Vista Park
2018-06-14,6.02,Rio Vista Park
2018-06-15,4.58,Rio Vista Park
2018-06-16,17.95,Rio Vista Park
2018-06-17,6.19,Rio Vista Park
2018-06-18,5.2,Rio Vista Park
2018-06-19,7.83,Rio Vista Park
2018-06-20,7.33,Rio Vista Park
2018-06-21,6.15,Rio Vista Park
2018-06-22,4.94,Rio Vista Park
2018-06-23,9.96,Rio Vista Park
2018-06-24,7.95,Rio Vista Park
2018-06-25,5.31,Rio Vista Park
2018-06-26,5.1,Rio Vista Park
2018-06-27,4.65,Rio Vista Park
2018-06-28,4.05,Rio Vista Park
2018-06-29,3.75,Rio Vista Park
2018-06-30,8.66,Rio Vista Park
2018-07-01,7.59,Rio Vista Park
2018-07-02,7.2,Rio Vista Park
2018-07-03,5.65,Rio Vista Park
2018-07-04,78.2,Rio Vista Park
2018-07-06,7.39,Rio Vista Park
2018-07-07,151.1,Rio Vista Park
2018-07-08,7.71,Rio Vista Park
2018-07-09,229.7,Rio Vista Park
2018-07-10,5.2,Rio Vista Park
2018-07-11,4.11,Rio Vista Park
2018-07-12,3.97,Rio Vista Park
2018-07-13,7.57,Rio Vista Park
2018-07-14,9.26,Rio Vista Park
2018-07-15,11.37,Rio Vista Park
2018-07-16,5.22,Rio Vista Park
2018-07-17,5.81,Rio Vista Park
2018-07-18,8.93,Rio Vista Park
2018-07-19,6.18,Rio Vista Park
2018-07-20,7.21,Rio Vista Park
2018-07-21,14.84,Rio Vista Park
2018-07-22,9.34,Rio Vista Park
2018-07-23,5.02,Rio Vista Park
2018-07-24,6.34,Rio Vista Park
2018-07-25,6.04,Rio Vista Park
2018-07-26,5.91,Rio Vista Park
2018-07-27,5.37,Rio Vista Park
2018-07-28,15.11,Rio Vista Park
2018-07-29,8.28,Rio Vista Park
2018-07-30,6.05,Rio Vista Park
2018-07-31,7.4,Rio Vista Park
2018-08-01,5.3,Rio Vista Park
2018-08-02,4.74,Rio Vista Park
2018-08-03,8.23,Rio Vista Park
2018-08-04,10.63,Rio Vista Park
2018-08-05,11.89,Rio Vista Park
2018-08-06,6.27,Rio Vista Park
2018-08-07,6.18,Rio Vista Park
2018-08-08,7.46,Rio Vista Park
2018-08-09,8.96,Rio Vista Park
2018-08-10,8.88,Rio Vista Park
2018-08-11,10.88,Rio Vista Park
2018-08-12,11.26,Rio Vista Park
2018-08-13,10.79,Rio Vista Park
2018-08-14,8.15,Rio Vista Park
2018-08-15,6.31,Rio Vista Park
2018-08-16,4.23,Rio Vista Park
2018-08-17,5.52,Rio Vista Park
2018-08-18,16.69,Rio Vista Park
2018-08-19,10.4,Rio Vista Park
2018-08-20,8.93,Rio Vista Park
2018-08-21,5.92,Rio Vista Park
2018-08-22,8.27,Rio Vista Park
2018-08-23,4.32,Rio Vista Park
2018-08-24,4.66,Rio Vista Park
2018-08-25,8.73,Rio Vista Park
2018-08-26,6.21,Rio Vista Park
2018-08-27,4.27,Rio Vista Park
2018-08-28,3.57,Rio Vista Park
2018-08-29,4.61,Rio Vista Park
2018-08-30,5.8,Rio Vista Park
2018-08-31,13.29,Rio Vista Park
2018-09-01,8.73,Rio Vista Park
2018-09-02,10.25,Rio Vista Park
2018-09-03,5.4,Rio Vista Park
2018-09-04,4.44,Rio Vista Park
2018-09-05,3.03,Rio Vista Park
2018-09-06,3.87,Rio Vista Park
2018-09-07,256.1,Rio Vista Park
2018-09-08,6.8,Rio Vista Park
2018-09-09,252.2,Rio Vista Park
2018-09-10,8.92,Rio Vista Park
2018-09-11,19.79,Rio Vista Park
2018-09-12,5.38,Rio Vista Park
2018-09-13,5.6,Rio Vista Park
2018-09-14,27.3,Rio Vista Park
2018-09-15,8.67,Rio Vista Park
2018-09-16,5.82,Rio Vista Park
2018-09-17,4.34,Rio Vista Park
2018-09-18,6.28,Rio Vista Park
2018-09-19,5,Rio Vista Park
2018-09-20,12.61,Rio Vista Park
2018-09-21,6.8,Rio Vista Park
2018-09-22,109.2,Rio Vista Park
2018-09-23,3.52,Rio Vista Park
2018-09-24,4.18,Rio Vista Park
2018-09-25,4.38,Rio Vista Park
2018-09-26,2.97,Rio Vista Park
2018-09-27,3.16,Rio Vista Park
2018-09-28,5.35,Rio Vista Park
2018-09-29,2.07,Rio Vista Park
2018-09-30,2.79,Rio Vista Park
2018-10-01,4.17,Rio Vista Park
2018-10-02,5.35,Rio Vista Park
2018-10-03,3.09,Rio Vista Park
2018-10-04,3.05,Rio Vista Park
2018-10-05,17.67,Rio Vista Park
2018-10-06,8.39,Rio Vista Park
2018-10-07,2.37,Rio Vista Park
2018-10-08,10.35,Rio Vista Park
2018-10-09,5.82,Rio Vista Park
2018-10-10,6.92,Rio Vista Park
2018-10-11,5.33,Rio Vista Park
2018-10-12,3.05,Rio Vista Park
2018-10-13,2.94,Rio Vista Park
2018-10-14,5.69,Rio Vista Park
2018-10-15,7.18,Rio Vista Park
2018-10-16,7.35,Rio Vista Park
2018-10-17,2.07,Rio Vista Park
2018-10-18,2.38,Rio Vista Park
2018-10-19,17.98,Rio Vista Park
2018-10-20,7.78,Rio Vista Park
2018-10-21,5.63,Rio Vista Park
2018-10-22,2.88,Rio Vista Park
2018-10-23,4.39,Rio Vista Park
2018-10-24,8.49,Rio Vista Park
2018-10-25,2.51,Rio Vista Park
2018-10-26,3.7,Rio Vista Park
2018-10-27,2.29,Rio Vista Park
2018-10-28,3.2,Rio Vista Park
2018-10-29,5.95,Rio Vista Park
2018-10-30,4.2,Rio Vista Park
2018-10-31,91.82,Rio Vista Park
2018-11-01,3.96,Rio Vista Park
2018-11-02,2.21,Rio Vista Park
2018-11-03,2.01,Rio Vista Park
2018-11-04,1.98,Rio Vista Park
2018-11-05,2.59,Rio Vista Park
2018-11-06,1.54,Rio Vista Park
2018-11-07,2.68,Rio Vista Park
2018-11-08,2.79,Rio Vista Park
2018-11-09,18.4,Rio Vista Park
2018-11-10,2.74,Rio Vista Park
2018-11-11,3.34,Rio Vista Park
2018-11-12,3.1,Rio Vista Park
2018-11-13,9.16,Rio Vista Park
2018-11-14,2.19,Rio Vista Park
2018-11-15,3.06,Rio Vista Park
2018-11-16,2.78,Rio Vista Park
2018-11-17,3.13,Rio Vista Park
2018-11-18,2.38,Rio Vista Park
2018-11-19,4.13,Rio Vista Park
2018-11-20,2.15,Rio Vista Park
2018-11-21,7.77,Rio Vista Park
2018-11-22,1.64,Rio Vista Park
2018-11-23,5.32,Rio Vista Park
2018-11-24,3.75,Rio Vista Park
2018-11-25,3.75,Rio Vista Park
2018-11-26,2.66,Rio Vista Park
2018-11-27,3.3,Rio Vista Park
2018-11-28,3.52,Rio Vista Park
2018-11-29,3.73,Rio Vista Park
2018-11-30,2.43,Rio Vista Park
2018-12-01,3.42,Rio Vista Park
2018-12-02,2.72,Rio Vista Park
2018-12-03,4.63,Rio Vista Park
2018-12-04,3.34,Rio Vista Park
2018-12-05,6.14,Rio Vista Park
2018-12-06,3.91,Rio Vista Park
2018-12-07,33.66,Rio Vista Park
2018-12-08,4.28,Rio Vista Park
2018-12-09,3.97,Rio Vista Park
2018-12-10,3.08,Rio Vista Park
2018-12-11,6.49,Rio Vista Park
2018-12-12,2.96,Rio Vista Park
2018-12-13,2.2,Rio Vista Park
2018-12-14,2.22,Rio Vista Park
2018-12-15,16.48,Rio Vista Park
2018-12-16,3.2,Rio Vista Park
2018-12-17,2.76,Rio Vista Park
2018-12-18,2.33,Rio Vista Park
2018-12-19,3.58,Rio Vista Park
2018-12-20,1.94,Rio Vista Park
2018-12-21,2.53,Rio Vista Park
2018-12-22,4.38,Rio Vista Park
2018-12-23,2.84,Rio Vista Park
2018-12-24,20.61,Rio Vista Park
2018-12-25,13.54,Rio Vista Park
2018-12-26,4.9,Rio Vista Park
2018-12-27,30.29,Rio Vista Park
2018-12-28,5.61,Rio Vista Park
2018-12-29,8.22,Rio Vista Park
2018-12-30,19.56,Rio Vista Park
2018-12-31,6.79,Rio Vista Park
2018-01-03,8.07,Sessom Creek
2018-01-04,6.17,Sessom Creek
2018-01-05,6.17,Sessom Creek
2018-01-06,1.32,Sessom Creek
2018-01-07,2.72,Sessom Creek
2018-01-08,3.41,Sessom Creek
2018-01-09,1.1,Sessom Creek
2018-01-10,0.81,Sessom Creek
2018-01-11,1.99,Sessom Creek
2018-01-12,1.17,Sessom Creek
2018-01-13,6.54,Sessom Creek
2018-01-14,0.82,Sessom Creek
2018-01-15,8.46,Sessom Creek
2018-01-16,10.44,Sessom Creek
2018-01-17,1.2,Sessom Creek
2018-01-18,1.88,Sessom Creek
2018-01-19,1.66,Sessom Creek
2018-01-20,2.15,Sessom Creek
2018-01-22,2.34,Sessom Creek
2018-01-23,1.86,Sessom Creek
2018-01-24,2.07,Sessom Creek
2018-01-25,2.15,Sessom Creek
2018-01-26,1.96,Sessom Creek
2018-01-27,7.74,Sessom Creek
2018-01-28,4.14,Sessom Creek
2018-01-29,0.95,Sessom Creek
2018-01-30,0.87,Sessom Creek
2018-01-31,3.72,Sessom Creek
2018-02-01,17.02,Sessom Creek
2018-02-02,2.77,Sessom Creek
2018-02-03,6.19,Sessom Creek
2018-02-04,1.92,Sessom Creek
2018-02-05,1.68,Sessom Creek
2018-02-06,1.15,Sessom Creek
2018-02-07,3.16,Sessom Creek
2018-02-08,2.76,Sessom Creek
2018-02-09,2.17,Sessom Creek
2018-02-10,2.51,Sessom Creek
2018-02-11,5.62,Sessom Creek
2018-02-12,1.22,Sessom Creek
2018-02-13,3.96,Sessom Creek
2018-02-14,5.08,Sessom Creek
2018-02-15,1.83,Sessom Creek
2018-02-16,1.78,Sessom Creek
2018-02-17,111.9,Sessom Creek
2018-02-18,0.77,Sessom Creek
2018-02-19,6.26,Sessom Creek
2018-02-20,194.1,Sessom Creek
2018-02-21,308.6,Sessom Creek
2018-02-22,72.43,Sessom Creek
2018-02-23,355.7,Sessom Creek
2018-02-24,23.42,Sessom Creek
2018-02-25,515.9,Sessom Creek
2018-02-26,3.37,Sessom Creek
2018-02-27,1.59,Sessom Creek
2018-02-28,13.68,Sessom Creek
2018-03-01,0.87,Sessom Creek
2018-03-02,7.76,Sessom Creek
2018-03-03,33.29,Sessom Creek
2018-03-04,3.29,Sessom Creek
2018-03-05,3.29,Sessom Creek
2018-03-06,2.17,Sessom Creek
2018-03-07,2.26,Sessom Creek
2018-03-08,4.15,Sessom Creek
2018-03-09,1.06,Sessom Creek
2018-03-10,0.91,Sessom Creek
2018-03-11,0.9,Sessom Creek
2018-03-12,2.37,Sessom Creek
2018-03-13,2.13,Sessom Creek
2018-03-14,1.79,Sessom Creek
2018-03-15,2.36,Sessom Creek
2018-03-16,3.88,Sessom Creek
2018-03-17,2.9,Sessom Creek
2018-03-18,5.04,Sessom Creek
2018-03-19,1.77,Sessom Creek
2018-03-20,14.82,Sessom Creek
2018-03-21,5.14,Sessom Creek
2018-03-22,9.3,Sessom Creek
2018-03-23,5.71,Sessom Creek
2018-03-24,3.32,Sessom Creek
2018-03-25,8.16,Sessom Creek
2018-03-26,2.92,Sessom Creek
2018-03-27,1.39,Sessom Creek
2018-03-29,,Sessom Creek
2018-03-30,,Sessom Creek
2018-03-31,,Sessom Creek
2018-04-01,,Sessom Creek
2018-04-02,,Sessom Creek
2018-04-03,,Sessom Creek
2018-04-04,,Sessom Creek
2018-04-05,,Sessom Creek
2018-04-06,,Sessom Creek
2018-04-07,,Sessom Creek
2018-04-08,,Sessom Creek
2018-04-09,,Sessom Creek
2018-04-10,,Sessom Creek
2018-04-11,,Sessom Creek
2018-04-12,,Sessom Creek
2018-04-13,,Sessom Creek
2018-04-14,,Sessom Creek
2018-04-15,,Sessom Creek
2018-04-16,,Sessom Creek
2018-04-17,0.95,Sessom Creek
2018-04-18,2.64,Sessom Creek
2018-04-19,0.96,Sessom Creek
2018-04-20,1.54,Sessom Creek
2018-04-21,1.49,Sessom Creek
2018-04-22,8.82,Sessom Creek
2018-04-23,1.67,Sessom Creek
2018-04-24,1.54,Sessom Creek
2018-04-25,243.2,Sessom Creek
2018-04-26,3.07,Sessom Creek
2018-04-27,1.94,Sessom Creek
2018-04-28,1.37,Sessom Creek
2018-04-29,1.88,Sessom Creek
2018-04-30,3.38,Sessom Creek
2018-05-01,1.37,Sessom Creek
2018-05-02,1.28,Sessom Creek
2018-05-03,1.63,Sessom Creek
2018-05-04,185.1,Sessom Creek
2018-05-05,6.53,Sessom Creek
2018-05-06,1.54,Sessom Creek
2018-05-07,1.76,Sessom Creek
2018-05-08,8.08,Sessom Creek
2018-05-09,2.71,Sessom Creek
2018-05-10,2.43,Sessom Creek
2018-05-11,16.75,Sessom Creek
2018-05-12,2.35,Sessom Creek
2018-05-13,13.27,Sessom Creek
2018-05-14,1.85,Sessom Creek
2018-05-15,1.82,Sessom Creek
2018-05-16,1.5,Sessom Creek
2018-05-17,1.76,Sessom Creek
2018-05-18,4.5,Sessom Creek
2018-05-19,4.33,Sessom Creek
2018-05-20,64.39,Sessom Creek
2018-05-21,4.17,Sessom Creek
2018-05-22,3.7,Sessom Creek
2018-05-23,1.77,Sessom Creek
2018-05-24,2.68,Sessom Creek
2018-05-25,6.253220927,Sessom Creek
2018-05-26,6.368592446,Sessom Creek
2018-05-27,10.02288536,Sessom Creek
2018-05-28,2.987919663,Sessom Creek
2018-05-29,3.348412265,Sessom Creek
2018-05-30,8.438408959,Sessom Creek
2018-05-31,3.636503843,Sessom Creek
2018-06-01,9.825674023,Sessom Creek
2018-06-02,11.249387,Sessom Creek
2018-06-03,6.889633028,Sessom Creek
2018-06-04,2.967313828,Sessom Creek
2018-06-05,2.762765518,Sessom Creek
2018-06-06,6.663835854,Sessom Creek
2018-06-07,4.732343169,Sessom Creek
2018-06-08,17.75333168,Sessom Creek
2018-06-09,5.582668816,Sessom Creek
2018-06-10,8.332004298,Sessom Creek
2018-06-11,5.026544343,Sessom Creek
2018-06-12,7.298357716,Sessom Creek
2018-06-13,5.381827424,Sessom Creek
2018-06-14,9.02322506,Sessom Creek
2018-06-15,7.038429622,Sessom Creek
2018-06-16,344.5400777,Sessom Creek
2018-06-17,11.45238863,Sessom Creek
2018-06-18,58.94750641,Sessom Creek
2018-06-19,701.3032069,Sessom Creek
2018-06-20,10.9903116,Sessom Creek
2018-06-21,2.241712538,Sessom Creek
2018-06-22,2.970714109,Sessom Creek
2018-06-23,3.533602777,Sessom Creek
2018-06-24,2.173185387,Sessom Creek
2018-06-25,4.72838995,Sessom Creek
2018-06-26,2.55441772,Sessom Creek
2018-06-27,4.131854699,Sessom Creek
2018-06-28,40.00556823,Sessom Creek
2018-06-29,17.52630961,Sessom Creek
2018-06-30,36.02985784,Sessom Creek
2018-07-01,10.5748971,Sessom Creek
2018-07-02,12.57373502,Sessom Creek
2018-07-03,3.320342177,Sessom Creek
2018-07-04,328.9841392,Sessom Creek
2018-07-05,7.065872386,Sessom Creek
2018-07-06,139.7062815,Sessom Creek
2018-07-07,453.8,Sessom Creek
2018-07-08,14.82,Sessom Creek
2018-07-09,577.5,Sessom Creek
2018-07-10,18.13,Sessom Creek
2018-07-11,2.68,Sessom Creek
2018-07-12,4.21,Sessom Creek
2018-07-13,5.32,Sessom Creek
2018-07-14,6.1,Sessom Creek
2018-07-15,4.31,Sessom Creek
2018-07-16,9.69,Sessom Creek
2018-07-17,4.33,Sessom Creek
2018-07-18,2.47,Sessom Creek
2018-07-19,3.99,Sessom Creek
2018-07-20,948.9,Sessom Creek
2018-07-21,60.66,Sessom Creek
2018-07-22,208.5,Sessom Creek
2018-07-23,131.2,Sessom Creek
2018-07-24,65.64,Sessom Creek
2018-07-25,13.04,Sessom Creek
2018-07-26,28.32,Sessom Creek
2018-07-27,5.99,Sessom Creek
2018-07-28,6.54,Sessom Creek
2018-07-29,6.6,Sessom Creek
2018-07-30,12.73,Sessom Creek
2018-07-31,16.47,Sessom Creek
2018-08-01,17.53,Sessom Creek
2018-08-02,16.77,Sessom Creek
2018-08-03,8.07,Sessom Creek
2018-08-04,7.33,Sessom Creek
2018-08-05,9.23,Sessom Creek
2018-08-06,17.88,Sessom Creek
2018-08-07,9.41,Sessom Creek
2018-08-08,5.55,Sessom Creek
2018-08-09,4.77,Sessom Creek
2018-08-10,11.42,Sessom Creek
2018-08-11,12.64,Sessom Creek
2018-08-12,363.3,Sessom Creek
2018-08-13,5.49,Sessom Creek
2018-08-14,3.4,Sessom Creek
2018-08-15,2.74,Sessom Creek
2018-08-16,2,Sessom Creek
2018-08-17,2.27,Sessom Creek
2018-08-18,15.6,Sessom Creek
2018-08-19,3.93,Sessom Creek
2018-08-20,10.49,Sessom Creek
2018-08-21,3.44,Sessom Creek
2018-08-22,3.35,Sessom Creek
2018-08-23,3.11,Sessom Creek
2018-08-24,2.49,Sessom Creek
2018-08-25,3.24,Sessom Creek
2018-08-26,3.36,Sessom Creek
2018-08-27,11.18,Sessom Creek
2018-08-28,5.01,Sessom Creek
2018-08-29,,Sessom Creek
2018-08-30,,Sessom Creek
2018-08-31,,Sessom Creek
2018-09-01,,Sessom Creek
2018-09-02,,Sessom Creek
2018-09-03,,Sessom Creek
2018-09-04,,Sessom Creek
2018-09-05,,Sessom Creek
2018-09-06,,Sessom Creek
2018-09-07,,Sessom Creek
2018-09-08,,Sessom Creek
2018-09-09,,Sessom Creek
2018-09-10,,Sessom Creek
2018-09-11,,Sessom Creek
2018-09-12,,Sessom Creek
2018-09-13,7.05,Sessom Creek
2018-09-14,315.3,Sessom Creek
2018-09-15,65.87,Sessom Creek
2018-09-16,5.4,Sessom Creek
2018-09-17,3.25,Sessom Creek
2018-09-18,1.2,Sessom Creek
2018-09-19,20.82,Sessom Creek
2018-09-20,264.3,Sessom Creek
2018-09-21,106.8,Sessom Creek
2018-09-22,347.8,Sessom Creek
2018-09-23,3.42,Sessom Creek
2018-09-24,3.35,Sessom Creek
2018-09-25,2.66,Sessom Creek
2018-09-26,32.57,Sessom Creek
2018-09-27,1.85,Sessom Creek
2018-09-28,130.4,Sessom Creek
2018-09-29,1.67,Sessom Creek
2018-09-30,2.27,Sessom Creek
2018-10-01,3.58,Sessom Creek
2018-10-02,63.19,Sessom Creek
2018-10-03,4.69,Sessom Creek
2018-10-04,8.08,Sessom Creek
2018-10-05,15.9,Sessom Creek
2018-10-06,205,Sessom Creek
2018-10-07,0.36,Sessom Creek
2018-10-09,131.7,Sessom Creek
2018-10-10,2.73,Sessom Creek
2018-10-11,5.5,Sessom Creek
2018-10-12,6.86,Sessom Creek
2018-10-13,11.74,Sessom Creek
2018-10-14,4.75,Sessom Creek
2018-10-15,152.7,Sessom Creek
2018-10-16,173.1,Sessom Creek
2018-10-17,4.87,Sessom Creek
2018-10-18,3.15,Sessom Creek
2018-10-19,185.6,Sessom Creek
2018-10-20,4.86,Sessom Creek
2018-10-21,9.74,Sessom Creek
2018-10-22,65.02,Sessom Creek
2018-10-23,57.51,Sessom Creek
2018-10-24,202.7,Sessom Creek
2018-10-25,6.32,Sessom Creek
2018-10-26,4.68,Sessom Creek
2018-10-27,5.64,Sessom Creek
2018-10-28,7.47,Sessom Creek
2018-10-29,3.13,Sessom Creek
2018-10-30,4.49,Sessom Creek
2018-10-31,278.4,Sessom Creek
2018-11-01,10.54,Sessom Creek
2018-11-02,3.77,Sessom Creek
2018-11-03,2.67,Sessom Creek
2018-11-04,2.73,Sessom Creek
2018-11-05,4.54,Sessom Creek
2018-11-06,4.1,Sessom Creek
2018-11-07,3.79,Sessom Creek
2018-11-08,199.8,Sessom Creek
2018-11-09,163,Sessom Creek
2018-11-10,0.96,Sessom Creek
2018-11-13,3.43,Sessom Creek
2018-11-14,3.75,Sessom Creek
2018-11-15,5.67,Sessom Creek
2018-11-16,3.28,Sessom Creek
2018-11-17,2.94,Sessom Creek
2018-11-18,79.69,Sessom Creek
2018-11-19,4.32,Sessom Creek
2018-11-20,2.42,Sessom Creek
2018-11-21,110.3,Sessom Creek
2018-11-22,5.07,Sessom Creek
2018-11-23,4.05,Sessom Creek
2018-11-24,4.59,Sessom Creek
2018-11-25,0.32,Sessom Creek
2018-11-26,3.3,Sessom Creek
2018-11-27,2.45,Sessom Creek
2018-11-28,1.62,Sessom Creek
2018-11-29,8.69,Sessom Creek
2018-11-30,6.34,Sessom Creek
2018-12-01,2.74,Sessom Creek
2018-12-02,6.05,Sessom Creek
2018-12-03,4.11,Sessom Creek
2018-12-04,4.24,Sessom Creek
2018-12-05,5.42,Sessom Creek
2018-12-06,168.5,Sessom Creek
2018-12-07,287.5,Sessom Creek
2018-12-08,27.06,Sessom Creek
2018-12-09,18.18,Sessom Creek
2018-12-10,12.68,Sessom Creek
2018-12-11,1.86,Sessom Creek
2018-12-12,9.11,Sessom Creek
2018-12-13,12.76,Sessom Creek
2018-12-14,3.75,Sessom Creek
2018-12-15,4.02,Sessom Creek
2018-12-16,5.59,Sessom Creek
2018-12-17,4.89,Sessom Creek
2018-12-18,7.78,Sessom Creek
2018-12-19,3.73,Sessom Creek
2018-12-20,8.84,Sessom Creek
2018-12-21,2.59,Sessom Creek
2018-12-22,4.32,Sessom Creek
2018-12-23,3.02,Sessom Creek
2018-12-24,7.65,Sessom Creek
2018-12-25,6.96,Sessom Creek
2018-12-26,5.56,Sessom Creek
2018-12-27,228.8,Sessom Creek
2018-12-28,5.91,Sessom Creek
2018-12-29,14.66,Sessom Creek
2018-12-30,11.51,Sessom Creek
2018-12-31,5.65,Sessom Creek
2018-01-01,19.59,Comal Spring 3
2018-01-02,13.14,Comal Spring 3
2018-01-03,10.69,Comal Spring 3
2018-01-04,10.92,Comal Spring 3
2018-01-05,15.09,Comal Spring 3
2018-01-06,14.45,Comal Spring 3
2018-01-07,10.14,Comal Spring 3
2018-01-08,3.43,Comal Spring 3
2018-01-09,19.64,Comal Spring 3
2018-01-10,17.38,Comal Spring 3
2018-01-11,12.81,Comal Spring 3
2018-01-12,2.63,Comal Spring 3
2018-01-13,11.6,Comal Spring 3
2018-01-14,5.46,Comal Spring 3
2018-01-15,3.13,Comal Spring 3
2018-01-16,0.83,Comal Spring 3
2018-01-17,17.88,Comal Spring 3
2018-01-18,3.63,Comal Spring 3
2018-01-19,22.14,Comal Spring 3
2018-01-20,13.5,Comal Spring 3
2018-01-21,2.49,Comal Spring 3
2018-01-22,3.3,Comal Spring 3
2018-01-23,15.24,Comal Spring 3
2018-01-24,14.7,Comal Spring 3
2018-01-25,14.32,Comal Spring 3
2018-01-26,1.51,Comal Spring 3
2018-01-27,4.93,Comal Spring 3
2018-01-28,7.94,Comal Spring 3
2018-01-29,2.12,Comal Spring 3
2018-01-30,3.85,Comal Spring 3
2018-01-31,16.22,Comal Spring 3
2018-02-01,2.86,Comal Spring 3
2018-02-02,2.36,Comal Spring 3
2018-02-03,4.53,Comal Spring 3
2018-02-04,2.94,Comal Spring 3
2018-02-05,2.89,Comal Spring 3
2018-02-06,4.35,Comal Spring 3
2018-02-07,9.01,Comal Spring 3
2018-02-08,17.74,Comal Spring 3
2018-02-09,9.27,Comal Spring 3
2018-02-10,15.43,Comal Spring 3
2018-02-11,15.2,Comal Spring 3
2018-02-12,19.89,Comal Spring 3
2018-02-13,10.82,Comal Spring 3
2018-02-14,21.04,Comal Spring 3
2018-02-15,10.06,Comal Spring 3
2018-02-16,15.5,Comal Spring 3
2018-02-17,18.7,Comal Spring 3
2018-02-18,11.26,Comal Spring 3
2018-02-19,5.34,Comal Spring 3
2018-02-20,8.94,Comal Spring 3
2018-02-21,3.62,Comal Spring 3
2018-02-22,19.11,Comal Spring 3
2018-02-23,33.66,Comal Spring 3
2018-02-24,19.61,Comal Spring 3
2018-02-25,18.18,Comal Spring 3
2018-02-26,5.83,Comal Spring 3
2018-02-27,9.02,Comal Spring 3
2018-02-28,20.81,Comal Spring 3
2018-03-01,3.93,Comal Spring 3
2018-03-02,3.61,Comal Spring 3
2018-03-03,17.78,Comal Spring 3
2018-03-04,5.58,Comal Spring 3
2018-03-05,1.38,Comal Spring 3
2018-03-06,1.41,Comal Spring 3
2018-03-07,10.84,Comal Spring 3
2018-03-08,4.23,Comal Spring 3
2018-03-09,8.3,Comal Spring 3
2018-03-10,9.48,Comal Spring 3
2018-03-11,9.52,Comal Spring 3
2018-03-12,3.99,Comal Spring 3
2018-03-13,1.68,Comal Spring 3
2018-03-14,3.06,Comal Spring 3
2018-03-15,2.34,Comal Spring 3
2018-03-16,1.67,Comal Spring 3
2018-03-17,12.68,Comal Spring 3
2018-03-18,9.19,Comal Spring 3
2018-03-19,7.58,Comal Spring 3
2018-03-20,15.45,Comal Spring 3
2018-03-21,1.79,Comal Spring 3
2018-03-22,0.66,Comal Spring 3
2018-03-23,1.63,Comal Spring 3
2018-03-24,7.76,Comal Spring 3
2018-03-25,2.18,Comal Spring 3
2018-03-26,1.6,Comal Spring 3
2018-03-27,0.92,Comal Spring 3
2018-03-28,26.94,Comal Spring 3
2018-03-29,17.55,Comal Spring 3
2018-03-30,13.94,Comal Spring 3
2018-03-31,5.27,Comal Spring 3
2018-04-01,13.96,Comal Spring 3
2018-04-02,1.63,Comal Spring 3
2018-04-03,1.18,Comal Spring 3
2018-04-04,2.02,Comal Spring 3
2018-04-05,1.58,Comal Spring 3
2018-04-06,0.7,Comal Spring 3
2018-04-07,2.22,Comal Spring 3
2018-04-08,1.02,Comal Spring 3
2018-04-09,0.47,Comal Spring 3
2018-04-10,0.37,Comal Spring 3
2018-04-11,0.5,Comal Spring 3
2018-04-12,3,Comal Spring 3
2018-04-13,4.36,Comal Spring 3
2018-04-14,0.44,Comal Spring 3
2018-04-15,4.26,Comal Spring 3
2018-04-16,2.16,Comal Spring 3
2018-04-17,0.6,Comal Spring 3
2018-04-18,0.37,Comal Spring 3
2018-04-19,2.49,Comal Spring 3
2018-04-20,14.34,Comal Spring 3
2018-04-21,13.36,Comal Spring 3
2018-04-22,8.21,Comal Spring 3
2018-04-23,1.14,Comal Spring 3
2018-04-24,0.65,Comal Spring 3
2018-04-25,0.94,Comal Spring 3
2018-04-26,4.657602968,Comal Spring 3
2018-04-27,5.962083315,Comal Spring 3
2018-04-28,1.725522004,Comal Spring 3
2018-04-29,8.048742781,Comal Spring 3
2018-04-30,7.508259055,Comal Spring 3
2018-05-01,15.73145588,Comal Spring 3
2018-05-02,4.815330394,Comal Spring 3
2018-05-03,9.554216882,Comal Spring 3
2018-05-04,51.79697788,Comal Spring 3
2018-05-05,3.919762838,Comal Spring 3
2018-05-06,9.285356695,Comal Spring 3
2018-05-07,4.448553521,Comal Spring 3
2018-05-08,8.087657922,Comal Spring 3
2018-05-09,4.991266621,Comal Spring 3
2018-05-10,7.120588933,Comal Spring 3
2018-05-11,3.367054439,Comal Spring 3
2018-05-12,5.812866209,Comal Spring 3
2018-05-13,5.618242155,Comal Spring 3
2018-05-14,10.72582117,Comal Spring 3
2018-05-15,2.002068765,Comal Spring 3
2018-05-16,19.88940592,Comal Spring 3
2018-05-17,17.22112526,Comal Spring 3
2018-05-18,19.76911615,Comal Spring 3
2018-05-19,17.04972174,Comal Spring 3
2018-05-20,10.46749496,Comal Spring 3
2018-05-21,14.10853662,Comal Spring 3
2018-05-22,19.69977224,Comal Spring 3
2018-05-23,11.17255719,Comal Spring 3
2018-05-24,18.71616589,Comal Spring 3
2018-05-25,14.19439864,Comal Spring 3
2018-05-26,16.7717358,Comal Spring 3
2018-05-27,17.83887899,Comal Spring 3
2018-05-28,17.93597428,Comal Spring 3
2018-05-29,13.81396517,Comal Spring 3
2018-05-30,18.56587848,Comal Spring 3
2018-05-31,20.17800969,Comal Spring 3
2018-06-01,1.419075302,Comal Spring 3
2018-06-02,0.29,Comal Spring 3
2018-06-03,0.61,Comal Spring 3
2018-06-04,0.17,Comal Spring 3
2018-06-05,0.7,Comal Spring 3
2018-06-06,0.33,Comal Spring 3
2018-06-07,0.52,Comal Spring 3
2018-06-08,0.34,Comal Spring 3
2018-06-09,0.35,Comal Spring 3
2018-06-10,6.69,Comal Spring 3
2018-06-11,1.83,Comal Spring 3
2018-06-12,0.41,Comal Spring 3
2018-06-13,0.25,Comal Spring 3
2018-06-14,0.36,Comal Spring 3
2018-06-15,2.37,Comal Spring 3
2018-06-16,3.03,Comal Spring 3
2018-06-17,0.27,Comal Spring 3
2018-06-18,0.77,Comal Spring 3
2018-06-19,1.48,Comal Spring 3
2018-06-20,0.4,Comal Spring 3
2018-06-21,1.01,Comal Spring 3
2018-06-22,0.66,Comal Spring 3
2018-06-23,1.31,Comal Spring 3
2018-06-24,8.31,Comal Spring 3
2018-06-25,1.34,Comal Spring 3
2018-06-26,1.52,Comal Spring 3
2018-06-27,1.14,Comal Spring 3
2018-06-28,1.19,Comal Spring 3
2018-06-29,10.22,Comal Spring 3
2018-06-30,0.74,Comal Spring 3
2018-07-01,2.65,Comal Spring 3
2018-07-02,0.96,Comal Spring 3
2018-07-03,2.44,Comal Spring 3
2018-07-04,15.26,Comal Spring 3
2018-07-05,2.65,Comal Spring 3
2018-07-06,9.09,Comal Spring 3
2018-07-07,0.74,Comal Spring 3
2018-07-08,4.86,Comal Spring 3
2018-07-09,4.99,Comal Spring 3
2018-07-10,0.42,Comal Spring 3
2018-07-11,0.79,Comal Spring 3
2018-07-12,0.27,Comal Spring 3
2018-07-13,0.42,Comal Spring 3
2018-07-14,1.19,Comal Spring 3
2018-07-15,0.48,Comal Spring 3
2018-07-16,0.27,Comal Spring 3
2018-07-17,1.22,Comal Spring 3
2018-07-18,1.03,Comal Spring 3
2018-07-19,1.3,Comal Spring 3
2018-07-20,2.34,Comal Spring 3
2018-07-21,8.28,Comal Spring 3
2018-07-22,8.35,Comal Spring 3
2018-07-23,17.77,Comal Spring 3
2018-07-24,11.5,Comal Spring 3
2018-07-25,7.67,Comal Spring 3
2018-07-26,1.7,Comal Spring 3
2018-07-27,10.82,Comal Spring 3
2018-07-28,7.39,Comal Spring 3
2018-07-29,17.38,Comal Spring 3
2018-07-30,1.99,Comal Spring 3
2018-07-31,1.83,Comal Spring 3
2018-08-01,15.1,Comal Spring 3
2018-08-02,1.07,Comal Spring 3
2018-08-03,1.46,Comal Spring 3
2018-08-04,2.47,Comal Spring 3
2018-08-05,8.2,Comal Spring 3
2018-08-06,4.88,Comal Spring 3
2018-08-07,0.6,Comal Spring 3
2018-08-08,5.48,Comal Spring 3
2018-08-09,1.21,Comal Spring 3
2018-08-10,6.73,Comal Spring 3
2018-08-11,12.76,Comal Spring 3
2018-08-12,3.27,Comal Spring 3
2018-08-13,3.65,Comal Spring 3
2018-08-14,15.59,Comal Spring 3
2018-08-15,15.14,Comal Spring 3
2018-08-16,17.62,Comal Spring 3
2018-08-17,18.33,Comal Spring 3
2018-08-18,18.09,Comal Spring 3
2018-08-19,1.1,Comal Spring 3
2018-08-20,16.06,Comal Spring 3
2018-08-21,20.49,Comal Spring 3
2018-08-22,20.05,Comal Spring 3
2018-08-23,18.3,Comal Spring 3
2018-08-24,14.68,Comal Spring 3
2018-08-25,19.03,Comal Spring 3
2018-08-26,9.47,Comal Spring 3
2018-08-27,18.2,Comal Spring 3
2018-08-28,6.15,Comal Spring 3
2018-08-29,0.44,Comal Spring 3
2018-08-30,0.41,Comal Spring 3
2018-08-31,1.79,Comal Spring 3
2018-09-01,0.78,Comal Spring 3
2018-09-02,0.45,Comal Spring 3
2018-09-03,3.32,Comal Spring 3
2018-09-04,0.79,Comal Spring 3
2018-09-05,6.66,Comal Spring 3
2018-09-06,1.19,Comal Spring 3
2018-09-07,18.75,Comal Spring 3
2018-09-08,11.75,Comal Spring 3
2018-09-09,25.35,Comal Spring 3
2018-09-10,17.96,Comal Spring 3
2018-09-11,6.82,Comal Spring 3
2018-09-12,8.39,Comal Spring 3
2018-09-13,2.34,Comal Spring 3
2018-09-14,12.3,Comal Spring 3
2018-09-15,13.83,Comal Spring 3
2018-09-16,1.52,Comal Spring 3
2018-09-17,3.58,Comal Spring 3
2018-09-18,1.67,Comal Spring 3
2018-09-19,7.56,Comal Spring 3
2018-09-20,21.16,Comal Spring 3
2018-09-21,18.21,Comal Spring 3
2018-09-22,19.67,Comal Spring 3
2018-09-23,19.2,Comal Spring 3
2018-09-24,18.65,Comal Spring 3
2018-09-25,20.19,Comal Spring 3
2018-09-26,5,Comal Spring 3
2018-09-27,20.43,Comal Spring 3
2018-09-28,5.03,Comal Spring 3
2018-09-29,10.29,Comal Spring 3
2018-09-30,0.35,Comal Spring 3
2018-10-01,0.71,Comal Spring 3
2018-10-02,0.8,Comal Spring 3
2018-10-03,0.91,Comal Spring 3
2018-10-04,0.73,Comal Spring 3
2018-10-05,0.51,Comal Spring 3
2018-10-06,0.33,Comal Spring 3
2018-10-07,1.25,Comal Spring 3
2018-10-08,0.78,Comal Spring 3
2018-10-09,2.35,Comal Spring 3
2018-10-10,9.81,Comal Spring 3
2018-10-11,1.11,Comal Spring 3
2018-10-12,1.75,Comal Spring 3
2018-10-13,0.63,Comal Spring 3
2018-10-14,0.55,Comal Spring 3
2018-10-15,2.76,Comal Spring 3
2018-10-16,4.08,Comal Spring 3
2018-10-17,4.32,Comal Spring 3
2018-10-18,0.99,Comal Spring 3
2018-10-19,1.34,Comal Spring 3
2018-10-20,4.9,Comal Spring 3
2018-10-21,0.5,Comal Spring 3
2018-10-22,0.68,Comal Spring 3
2018-10-23,1.27,Comal Spring 3
2018-10-24,1.98,Comal Spring 3
2018-10-25,2.42,Comal Spring 3
2018-10-26,1.36,Comal Spring 3
2018-10-27,1.55,Comal Spring 3
2018-10-28,0.67,Comal Spring 3
2018-10-29,1.24,Comal Spring 3
2018-10-30,0.63,Comal Spring 3
2018-10-31,22.67,Comal Spring 3
2018-11-01,0.72,Comal Spring 3
2018-11-02,2.57,Comal Spring 3
2018-11-03,0.28,Comal Spring 3
2018-11-04,12.06,Comal Spring 3
2018-11-05,4.72,Comal Spring 3
2018-11-06,12.98,Comal Spring 3
2018-11-07,0.39,Comal Spring 3
2018-11-08,0.1,Comal Spring 3
2018-11-09,,Comal Spring 3
2018-11-10,,Comal Spring 3
2018-11-11,,Comal Spring 3
2018-11-12,,Comal Spring 3
2018-11-13,,Comal Spring 3
2018-11-14,,Comal Spring 3
2018-11-15,,Comal Spring 3
2018-11-16,,Comal Spring 3
2018-11-17,,Comal Spring 3
2018-11-18,,Comal Spring 3
2018-11-19,,Comal Spring 3
2018-11-20,,Comal Spring 3
2018-11-21,,Comal Spring 3
2018-11-22,,Comal Spring 3
2018-11-23,,Comal Spring 3
2018-11-24,,Comal Spring 3
2018-11-25,,Comal Spring 3
2018-11-26,,Comal Spring 3
2018-11-27,,Comal Spring 3
2018-11-28,,Comal Spring 3
2018-11-29,,Comal Spring 3
2018-12-02,,Comal Spring 3
2018-12-03,,Comal Spring 3
2018-12-04,,Comal Spring 3
2018-12-05,,Comal Spring 3
2018-12-06,,Comal Spring 3
2018-12-07,,Comal Spring 3
2018-12-08,,Comal Spring 3
2018-12-09,,Comal Spring 3
2018-12-10,,Comal Spring 3
2018-12-11,,Comal Spring 3
2018-12-12,,Comal Spring 3
2018-12-13,,Comal Spring 3
2018-12-14,,Comal Spring 3
2018-12-15,,Comal Spring 3
2018-12-16,,Comal Spring 3
2018-12-17,,Comal Spring 3
2018-12-18,,Comal Spring 3
2018-12-19,,Comal Spring 3
2018-12-20,,Comal Spring 3
2018-12-21,,Comal Spring 3
2018-12-22,,Comal Spring 3
2018-12-23,,Comal Spring 3
2018-12-24,,Comal Spring 3
2018-12-25,,Comal Spring 3
2018-12-26,,Comal Spring 3
2018-12-27,,Comal Spring 3
2018-12-28,,Comal Spring 3
2018-12-29,,Comal Spring 3
2018-12-30,,Comal Spring 3
2018-12-31,,Comal Spring 3
2018-01-01,0.2,Comal Spring 7
2018-01-02,0.17,Comal Spring 7
2018-01-03,0.79,Comal Spring 7
2018-01-04,10.08,Comal Spring 7
2018-01-05,14.4,Comal Spring 7
2018-01-06,3.26,Comal Spring 7
2018-01-07,2.25,Comal Spring 7
2018-01-08,2.16,Comal Spring 7
2018-01-09,1.97,Comal Spring 7
2018-01-10,1.17,Comal Spring 7
2018-01-11,6.59,Comal Spring 7
2018-01-12,3.75,Comal Spring 7
2018-01-13,3.56,Comal Spring 7
2018-01-14,4.44,Comal Spring 7
2018-01-15,8.5,Comal Spring 7
2018-01-16,2.84,Comal Spring 7
2018-01-17,3.21,Comal Spring 7
2018-01-18,1.44,Comal Spring 7
2018-01-19,2,Comal Spring 7
2018-01-20,1.48,Comal Spring 7
2018-01-21,1.81,Comal Spring 7
2018-01-22,2.57,Comal Spring 7
2018-01-23,1.27,Comal Spring 7
2018-01-24,1.41,Comal Spring 7
2018-01-25,0.73,Comal Spring 7
2018-01-26,4.8,Comal Spring 7
2018-01-27,0.66,Comal Spring 7
2018-01-28,0.48,Comal Spring 7
2018-01-29,5.19,Comal Spring 7
2018-01-30,1.84,Comal Spring 7
2018-01-31,10.41,Comal Spring 7
2018-02-01,1.66,Comal Spring 7
2018-02-02,1.63,Comal Spring 7
2018-02-03,1.2,Comal Spring 7
2018-02-04,0.85,Comal Spring 7
2018-02-05,2.45,Comal Spring 7
2018-02-06,0.78,Comal Spring 7
2018-02-07,0.27,Comal Spring 7
2018-02-08,0.54,Comal Spring 7
2018-02-09,0.3,Comal Spring 7
2018-02-10,2.79,Comal Spring 7
2018-02-11,0.61,Comal Spring 7
2018-02-12,0.14,Comal Spring 7
2018-02-13,6.23,Comal Spring 7
2018-02-14,0.93,Comal Spring 7
2018-02-15,0.73,Comal Spring 7
2018-02-16,13.87,Comal Spring 7
2018-02-17,4,Comal Spring 7
2018-02-18,8.3,Comal Spring 7
2018-02-19,4.8,Comal Spring 7
2018-02-20,3.4,Comal Spring 7
2018-02-21,6.2,Comal Spring 7
2018-02-22,19.6,Comal Spring 7
2018-02-23,7.7,Comal Spring 7
2018-02-24,13,Comal Spring 7
2018-02-25,11.2,Comal Spring 7
2018-02-26,14.7,Comal Spring 7
2018-02-27,5,Comal Spring 7
2018-02-28,18.2,Comal Spring 7
2018-03-01,16.6,Comal Spring 7
2018-03-02,11.7,Comal Spring 7
2018-03-03,8.6,Comal Spring 7
2018-03-04,9.6,Comal Spring 7
2018-03-05,9.2,Comal Spring 7
2018-03-06,19.6,Comal Spring 7
2018-03-07,15.2,Comal Spring 7
2018-03-08,16.6,Comal Spring 7
2018-03-09,9.9,Comal Spring 7
2018-03-10,10.3,Comal Spring 7
2018-03-11,7.6,Comal Spring 7
2018-03-12,8.9,Comal Spring 7
2018-03-13,15.7,Comal Spring 7
2018-03-14,15.5,Comal Spring 7
2018-03-15,17.6,Comal Spring 7
2018-03-16,11.1,Comal Spring 7
2018-03-17,18.1,Comal Spring 7
2018-03-18,14.2,Comal Spring 7
2018-03-19,11.2,Comal Spring 7
2018-03-20,7.9,Comal Spring 7
2018-03-21,19.3,Comal Spring 7
2018-03-22,15.4,Comal Spring 7
2018-03-23,14.5,Comal Spring 7
2018-03-24,6.3,Comal Spring 7
2018-03-25,11.9,Comal Spring 7
2018-03-26,7.7,Comal Spring 7
2018-03-27,16.51,Comal Spring 7
2018-03-28,6.71,Comal Spring 7
2018-03-29,8.39,Comal Spring 7
2018-03-30,4.59,Comal Spring 7
2018-03-31,4.03,Comal Spring 7
2018-04-01,12.79,Comal Spring 7
2018-04-02,11.41,Comal Spring 7
2018-04-03,6.18,Comal Spring 7
2018-04-04,0.59,Comal Spring 7
2018-04-05,9.64,Comal Spring 7
2018-04-06,1.75,Comal Spring 7
2018-04-07,0.56,Comal Spring 7
2018-04-08,2.95,Comal Spring 7
2018-04-09,0.8,Comal Spring 7
2018-04-10,2.47,Comal Spring 7
2018-04-11,6.94,Comal Spring 7
2018-04-12,4.72,Comal Spring 7
2018-04-13,7.59,Comal Spring 7
2018-04-14,1.45,Comal Spring 7
2018-04-15,2.3,Comal Spring 7
2018-04-16,2.66,Comal Spring 7
2018-04-17,7.42,Comal Spring 7
2018-04-18,5.33,Comal Spring 7
2018-04-19,2.55,Comal Spring 7
2018-04-20,6.93,Comal Spring 7
2018-04-21,0.4,Comal Spring 7
2018-04-22,4.63,Comal Spring 7
2018-04-23,8.9,Comal Spring 7
2018-04-24,3.84,Comal Spring 7
2018-04-25,10.17,Comal Spring 7
2018-04-26,0.9,Comal Spring 7
2018-04-27,1.06,Comal Spring 7
2018-04-28,4.51,Comal Spring 7
2018-04-29,1.02,Comal Spring 7
2018-04-30,2.13,Comal Spring 7
2018-05-01,1.61,Comal Spring 7
2018-05-02,16.07,Comal Spring 7
2018-05-03,2.8,Comal Spring 7
2018-05-04,6,Comal Spring 7
2018-05-05,1.13,Comal Spring 7
2018-05-06,14.18,Comal Spring 7
2018-05-07,1.39,Comal Spring 7
2018-05-08,10.68,Comal Spring 7
2018-05-09,3.85,Comal Spring 7
2018-05-10,5.82,Comal Spring 7
2018-05-11,2.57,Comal Spring 7
2018-05-12,3.65,Comal Spring 7
2018-05-13,14.2,Comal Spring 7
2018-05-14,1,Comal Spring 7
2018-05-15,1.47,Comal Spring 7
2018-05-16,6.92,Comal Spring 7
2018-05-17,2.46,Comal Spring 7
2018-05-18,0.65,Comal Spring 7
2018-05-19,1.66,Comal Spring 7
2018-05-20,0.98,Comal Spring 7
2018-05-21,0.66,Comal Spring 7
2018-05-22,0.89,Comal Spring 7
2018-05-23,0.95,Comal Spring 7
2018-05-24,0.57,Comal Spring 7
2018-05-25,0.98,Comal Spring 7
2018-05-26,0.74,Comal Spring 7
2018-05-27,1.57,Comal Spring 7
2018-05-28,2.08,Comal Spring 7
2018-05-29,1.65,Comal Spring 7
2018-05-30,0.94,Comal Spring 7
2018-05-31,0.67,Comal Spring 7
2018-06-01,17.22,Comal Spring 7
2018-06-02,1.34,Comal Spring 7
2018-06-03,4.03,Comal Spring 7
2018-06-04,1,Comal Spring 7
2018-06-05,1.06,Comal Spring 7
2018-06-06,18.22,Comal Spring 7
2018-06-07,1.13,Comal Spring 7
2018-06-08,2.16,Comal Spring 7
2018-06-09,17.26,Comal Spring 7
2018-06-10,6.49,Comal Spring 7
2018-06-11,19.31,Comal Spring 7
2018-06-12,18.54,Comal Spring 7
2018-06-13,17.71,Comal Spring 7
2018-06-14,18.83,Comal Spring 7
2018-06-15,19.95,Comal Spring 7
2018-06-16,17.61,Comal Spring 7
2018-06-17,14.64,Comal Spring 7
2018-06-18,19.96,Comal Spring 7
2018-06-19,19.08,Comal Spring 7
2018-06-20,12.82,Comal Spring 7
2018-06-21,18.38,Comal Spring 7
2018-06-22,17.95,Comal Spring 7
2018-06-23,19.11,Comal Spring 7
2018-06-24,14.6,Comal Spring 7
2018-06-25,18.11,Comal Spring 7
2018-06-26,19.36,Comal Spring 7
2018-06-27,19.63,Comal Spring 7
2018-06-28,19.92,Comal Spring 7
2018-06-29,17.07,Comal Spring 7
2018-06-30,15.57,Comal Spring 7
2018-07-01,16.22,Comal Spring 7
2018-07-02,17.14,Comal Spring 7
2018-07-03,18.84,Comal Spring 7
2018-07-04,19.48,Comal Spring 7
2018-07-05,20.27,Comal Spring 7
2018-07-06,14.9,Comal Spring 7
2018-07-07,16.56,Comal Spring 7
2018-07-08,19.39,Comal Spring 7
2018-07-09,20.13,Comal Spring 7
2018-07-10,15.76,Comal Spring 7
2018-07-11,16.17,Comal Spring 7
2018-07-12,19.66,Comal Spring 7
2018-07-13,16.73,Comal Spring 7
2018-07-14,19.46,Comal Spring 7
2018-07-15,15.4,Comal Spring 7
2018-07-16,17.81,Comal Spring 7
2018-07-17,18.31,Comal Spring 7
2018-07-18,17.53,Comal Spring 7
2018-07-19,19.39,Comal Spring 7
2018-07-20,15.19,Comal Spring 7
2018-07-21,19.19,Comal Spring 7
2018-07-22,19.65,Comal Spring 7
2018-07-23,19.9,Comal Spring 7
2018-07-24,20.45,Comal Spring 7
2018-07-25,18.93,Comal Spring 7
2018-07-26,2.04,Comal Spring 7
2018-07-27,0.08,Comal Spring 7
2018-07-28,0.19,Comal Spring 7
2018-07-29,1.21,Comal Spring 7
2018-07-30,0.38,Comal Spring 7
2018-07-31,0.54,Comal Spring 7
2018-08-01,0.29,Comal Spring 7
2018-08-02,0.68,Comal Spring 7
2018-08-03,4.08,Comal Spring 7
2018-08-04,1.07,Comal Spring 7
2018-08-05,1.07,Comal Spring 7
2018-08-06,1.33,Comal Spring 7
2018-08-07,0.81,Comal Spring 7
2018-08-08,0.72,Comal Spring 7
2018-08-09,0.56,Comal Spring 7
2018-08-10,0.64,Comal Spring 7
2018-08-11,0.37,Comal Spring 7
2018-08-12,1.86,Comal Spring 7
2018-08-13,5.51,Comal Spring 7
2018-08-14,0.31,Comal Spring 7
2018-08-15,0.33,Comal Spring 7
2018-08-16,0.36,Comal Spring 7
2018-08-17,0.49,Comal Spring 7
2018-08-18,1,Comal Spring 7
2018-08-19,0.4,Comal Spring 7
2018-08-20,0.39,Comal Spring 7
2018-08-21,0.4,Comal Spring 7
2018-08-22,0.72,Comal Spring 7
2018-08-23,0.96,Comal Spring 7
2018-08-24,0.46,Comal Spring 7
2018-08-25,0.36,Comal Spring 7
2018-08-26,0.4,Comal Spring 7
2018-08-27,0.86,Comal Spring 7
2018-08-28,0.99,Comal Spring 7
2018-08-29,0.38,Comal Spring 7
2018-08-30,0.37,Comal Spring 7
2018-08-31,0.49,Comal Spring 7
2018-09-01,13.69,Comal Spring 7
2018-09-02,0.58,Comal Spring 7
2018-09-03,1.66,Comal Spring 7
2018-09-04,6.99,Comal Spring 7
2018-09-05,0.35,Comal Spring 7
2018-09-06,1.18,Comal Spring 7
2018-09-07,0.96,Comal Spring 7
2018-09-08,1.98,Comal Spring 7
2018-09-09,1.1,Comal Spring 7
2018-09-10,0.87,Comal Spring 7
2018-09-11,0.44,Comal Spring 7
2018-09-12,1.29,Comal Spring 7
2018-09-13,1.66,Comal Spring 7
2018-09-14,17.45,Comal Spring 7
2018-09-15,15.95,Comal Spring 7
2018-09-16,5.54,Comal Spring 7
2018-09-17,17.19,Comal Spring 7
2018-09-18,14.9,Comal Spring 7
2018-09-19,16.38,Comal Spring 7
2018-09-20,17.33,Comal Spring 7
2018-09-21,6.35,Comal Spring 7
2018-09-22,10.97,Comal Spring 7
2018-09-23,5.51,Comal Spring 7
2018-09-24,9.54,Comal Spring 7
2018-09-25,6.47,Comal Spring 7
2018-09-26,13.85,Comal Spring 7
2018-09-27,19.24,Comal Spring 7
2018-09-28,9,Comal Spring 7
2018-09-29,6.32,Comal Spring 7
2018-09-30,11.98,Comal Spring 7
2018-10-01,3.09,Comal Spring 7
2018-10-02,4.4,Comal Spring 7
2018-10-03,2.42,Comal Spring 7
2018-10-04,4.1,Comal Spring 7
2018-10-05,6.75,Comal Spring 7
2018-10-06,6.32,Comal Spring 7
2018-10-07,11.8,Comal Spring 7
2018-10-08,6.15,Comal Spring 7
2018-10-09,4.51,Comal Spring 7
2018-10-10,8.51,Comal Spring 7
2018-10-11,4.98,Comal Spring 7
2018-10-12,4.72,Comal Spring 7
2018-10-13,5.32,Comal Spring 7
2018-10-14,9.3,Comal Spring 7
2018-10-15,10.75,Comal Spring 7
2018-10-16,14.91,Comal Spring 7
2018-10-17,3.83,Comal Spring 7
2018-10-18,3.34,Comal Spring 7
2018-10-19,12.99,Comal Spring 7
2018-10-20,2.32,Comal Spring 7
2018-10-21,10.9,Comal Spring 7
2018-10-22,9.3,Comal Spring 7
2018-10-23,7.62,Comal Spring 7
2018-10-24,2.19,Comal Spring 7
2018-10-25,7.03,Comal Spring 7
2018-10-26,3.12,Comal Spring 7
2018-10-27,13.19,Comal Spring 7
2018-10-28,4.52,Comal Spring 7
2018-10-29,4.91,Comal Spring 7
2018-10-30,3.51,Comal Spring 7
2018-10-31,5.18,Comal Spring 7
2018-11-01,3.09,Comal Spring 7
2018-11-02,7.57,Comal Spring 7
2018-11-03,15.75,Comal Spring 7
2018-11-04,4.01,Comal Spring 7
2018-11-05,13.89,Comal Spring 7
2018-11-06,2.68,Comal Spring 7
2018-11-20,13.53,Comal Spring 7
2018-11-21,10.88,Comal Spring 7
2018-11-22,3.83,Comal Spring 7
2018-11-23,4,Comal Spring 7
2018-11-24,6.43,Comal Spring 7
2018-11-25,15.64,Comal Spring 7
2018-11-26,4.98,Comal Spring 7
2018-11-27,3.98,Comal Spring 7
2018-11-28,16.65,Comal Spring 7
2018-11-29,3.54,Comal Spring 7
2018-11-30,10.91,Comal Spring 7
2018-12-01,8.39,Comal Spring 7
2018-12-02,11.49,Comal Spring 7
2018-12-03,1.83,Comal Spring 7
2018-12-04,2.24,Comal Spring 7
2018-12-05,15.5,Comal Spring 7
2018-12-06,4.06,Comal Spring 7
2018-12-07,13.51,Comal Spring 7
2018-12-08,17.38,Comal Spring 7
2018-12-09,4.66,Comal Spring 7
2018-12-10,17.64,Comal Spring 7
2018-12-11,10.72,Comal Spring 7
2018-12-12,14.07,Comal Spring 7
2018-12-13,8,Comal Spring 7
2018-12-14,15.23,Comal Spring 7
2018-12-15,5.55,Comal Spring 7
2018-12-16,5.99,Comal Spring 7
2018-12-17,6.49,Comal Spring 7
2018-12-18,2.28,Comal Spring 7
2018-12-19,13.64,Comal Spring 7
2018-12-20,14.73,Comal Spring 7
2018-12-21,14.96,Comal Spring 7
2018-12-22,4.11,Comal Spring 7
2018-12-23,5.24,Comal Spring 7
2018-12-24,13.23,Comal Spring 7
2018-12-25,17.02,Comal Spring 7
2018-12-26,13.09,Comal Spring 7
2018-12-27,11.95,Comal Spring 7
2018-12-28,5.42,Comal Spring 7
2018-12-29,11.01,Comal Spring 7
2018-12-30,18.19,Comal Spring 7
2018-12-31,4.91,Comal Spring 7
