ServiceDate,Route,RouteName,CurrentRevenue,Ridership,PassCount,BillCount
8/28/2018,2,2-BLANCO RD.,1233.69,3505,1974,717
8/28/2018,3,3-SAN PEDRO SKIP,616.51,2920,1694,353
8/28/2018,4,4-SAN PEDRO,562.82,2173,1147,320
8/28/2018,5,5-MC CULLOUGH,442.69,1334,697,226
8/28/2018,6,6-US 281 Express,26.71,143,63,18
8/28/2018,7,7 STONEOAK/DOWNTOWN EXPRESS,35.45,147,55,20
8/28/2018,8,8-N.ST.MARYS,412.71,1121,658,248
8/28/2018,9,9-BROADWAY,327.14,1068,617,185
