ServiceDate,Route,RouteName,CurrentRevenue,Ridership,PassCount,BillCount
2018-01-01,2,2-BLANCO RD.,390.63,929,534,223
2018-01-01,14,14 Perrin Beitel,274.68,673,386,172
2018-01-01,36,36-S. PRESA ST.,78.18,194,112,47
2018-01-02,2,2-BLANCO RD.,815.08,1863,1047,448
2018-01-02,14,14 Perrin Beitel,581.36,1577,901,325
2018-01-02,36,36-S. PRESA ST.,234.87,431,231,119
2018-01-03,2,2-BLANCO RD.,1024.45,2524,1470,580
2018-01-03,14,14 Perrin Beitel,786.14,2303,1386,436
2018-01-03,36,36-S. PRESA ST.,276.46,682,413,162
2018-01-04,2,2-BLANCO RD.,1135.89,2592,1455,557
2018-01-04,14,14 Perrin Beitel,761.43,2019,1265,453
2018-01-04,36,36-S. PRESA ST.,303.55,636,338,169
2018-01-05,2,2-BLANCO RD.,1063.6,2630,1529,559
2018-01-05,14,14 Perrin Beitel,776.34,1831,1038,468
2018-01-05,36,36-S. PRESA ST.,260.88,590,340,136
2018-01-06,2,2-BLANCO RD.,651.34,1672,760,370
2018-01-06,14,14 Perrin Beitel,661,1934,846,396
2018-01-06,36,36-S. PRESA ST.,218.74,335,153,105
2018-01-07,2,2-BLANCO RD.,639.35,1507,661,402
2018-01-07,14,14 Perrin Beitel,473.76,1176,582,278
2018-01-07,36,36-S. PRESA ST.,150.57,391,177,85
2018-01-08,2,2-BLANCO RD.,1011.78,2775,1666,528
2018-01-08,14,14 Perrin Beitel,764.09,2099,1319,434
2018-01-08,36,36-S. PRESA ST.,410.8,988,514,212
2018-01-09,2,2-BLANCO RD.,1123.05,2792,1548,624
2018-01-09,14,14 Perrin Beitel,804.86,2160,1327,454
2018-01-09,36,36-S. PRESA ST.,250.21,730,361,135
2018-01-10,2,2-BLANCO RD.,1089.43,2762,1517,594
2018-01-10,14,14 Perrin Beitel,847.45,2175,1296,467
2018-01-10,36,36-S. PRESA ST.,440.48,1160,648,259
2018-01-11,2,2-BLANCO RD.,1092.26,2874,1558,612
2018-01-11,14,14 Perrin Beitel,811.69,2187,1296,475
2018-01-11,36,36-S. PRESA ST.,426.36,1010,554,226
2018-01-12,2,2-BLANCO RD.,919.73,2707,1359,519
2018-01-12,14,14 Perrin Beitel,862.62,2181,1268,485
2018-01-12,36,36-S. PRESA ST.,386.69,1005,559,210
2018-01-13,2,2-BLANCO RD.,716.01,1824,829,407
2018-01-13,14,14 Perrin Beitel,603.57,1609,794,390
2018-01-13,36,36-S. PRESA ST.,130.25,360,182,78
2018-01-14,2,2-BLANCO RD.,500.51,1297,585,300
2018-01-14,14,14 Perrin Beitel,440.65,1133,535,270
2018-01-14,36,36-S. PRESA ST.,175.02,436,174,100
2018-01-15,2,2-BLANCO RD.,823.07,2046,1129,442
2018-01-15,14,14 Perrin Beitel,629.05,1661,861,351
2018-01-15,36,36-S. PRESA ST.,239.57,527,278,125
2018-01-16,2,2-BLANCO RD.,329.43,986,489,171
2018-01-16,14,14 Perrin Beitel,356.2,916,571,217
2018-01-16,36,36-S. PRESA ST.,108.73,254,139,60
2018-01-17,2,2-BLANCO RD.,801.73,2161,1171,454
2018-01-17,14,14 Perrin Beitel,675.52,1886,1096,396
2018-01-17,36,36-S. PRESA ST.,291.83,745,406,150
2018-01-18,2,2-BLANCO RD.,1012.74,2728,1485,526
2018-01-18,14,14 Perrin Beitel,720.38,2030,1172,424
2018-01-18,36,36-S. PRESA ST.,345.25,861,477,182
2018-01-19,2,2-BLANCO RD.,939.89,2684,1352,502
2018-01-19,14,14 Perrin Beitel,589.71,1726,1011,343
2018-01-19,36,36-S. PRESA ST.,268.33,780,457,159
2018-01-20,2,2-BLANCO RD.,769.61,1774,809,438
2018-01-20,14,14 Perrin Beitel,727.56,1875,886,438
2018-01-20,36,36-S. PRESA ST.,178.69,419,198,98
2018-01-21,2,2-BLANCO RD.,621.39,1615,667,343
2018-01-21,14,14 Perrin Beitel,472.75,1140,541,270
2018-01-21,36,36-S. PRESA ST.,140.64,395,159,81
2018-01-22,2,2-BLANCO RD.,965.65,2823,1516,518
2018-01-22,14,14 Perrin Beitel,767.87,2292,1335,435
2018-01-22,36,36-S. PRESA ST.,307.35,820,431,170
2018-01-23,2,2-BLANCO RD.,1045.99,2936,1625,577
2018-01-23,14,14 Perrin Beitel,870.72,2338,1348,507
2018-01-23,36,36-S. PRESA ST.,350.41,808,417,205
2018-01-24,2,2-BLANCO RD.,1057.18,2942,1617,580
2018-01-24,14,14 Perrin Beitel,761.67,2162,1302,428
2018-01-24,36,36-S. PRESA ST.,294.31,948,500,162
2018-01-25,2,2-BLANCO RD.,1070.64,2931,1554,580
2018-01-25,14,14 Perrin Beitel,735.49,1987,1131,437
2018-01-25,36,36-S. PRESA ST.,311.29,797,405,170
2018-01-26,2,2-BLANCO RD.,1074.39,2878,1608,608
2018-01-26,14,14 Perrin Beitel,718.7,1936,1173,443
2018-01-26,36,36-S. PRESA ST.,310.33,671,380,170
2018-01-27,2,2-BLANCO RD.,675.09,1599,701,384
2018-01-27,14,14 Perrin Beitel,590.9,1717,819,369
2018-01-27,36,36-S. PRESA ST.,169.37,368,173,88
2018-01-28,2,2-BLANCO RD.,553.97,1480,622,329
2018-01-28,14,14 Perrin Beitel,519.31,1422,723,287
2018-01-28,36,36-S. PRESA ST.,121.67,332,126,76
2018-01-29,2,2-BLANCO RD.,966.13,2697,1498,528
2018-01-29,14,14 Perrin Beitel,892.8,2264,1326,502
2018-01-29,36,36-S. PRESA ST.,288.71,697,382,155
2018-01-30,2,2-BLANCO RD.,1037.91,2869,1484,587
2018-01-30,14,14 Perrin Beitel,675.5,1896,1131,402
2018-01-30,36,36-S. PRESA ST.,338.19,813,433,180
2018-01-31,2,2-BLANCO RD.,1066.59,2828,1503,587
2018-01-31,14,14 Perrin Beitel,801.44,2185,1262,485
2018-01-31,36,36-S. PRESA ST.,339.48,911,428,180
2018-02-01,2,2-BLANCO RD.,1172.07,3087,1645,612
2018-02-01,14,14 Perrin Beitel,918.06,2540,1487,561
2018-02-01,36,36-S. PRESA ST.,241.81,597,333,112
2018-02-02,2,2-BLANCO RD.,1227.82,3218,1762,671
2018-02-02,14,14 Perrin Beitel,900.13,2351,1387,550
2018-02-02,36,36-S. PRESA ST.,322.83,811,482,188
2018-02-03,2,2-BLANCO RD.,630.5,1679,733,376
2018-02-03,14,14 Perrin Beitel,627.86,1770,701,364
2018-02-03,36,36-S. PRESA ST.,194.85,439,194,118
2018-02-04,2,2-BLANCO RD.,529.11,1624,685,299
2018-02-04,14,14 Perrin Beitel,526.55,1525,619,301
2018-02-04,36,36-S. PRESA ST.,173.54,412,153,98
2018-02-05,2,2-BLANCO RD.,1192.91,2901,1625,629
2018-02-05,14,14 Perrin Beitel,861.07,2364,1437,488
2018-02-05,36,36-S. PRESA ST.,348.7,761,424,179
2018-02-06,2,2-BLANCO RD.,1032.21,2555,1321,522
2018-02-06,14,14 Perrin Beitel,756.67,2144,1240,409
2018-02-06,36,36-S. PRESA ST.,300,703,349,180
2018-02-07,2,2-BLANCO RD.,936.91,2530,1399,500
2018-02-07,14,14 Perrin Beitel,789.28,2013,1218,439
2018-02-07,36,36-S. PRESA ST.,240.15,625,378,145
2018-02-08,2,2-BLANCO RD.,1124.8,2951,1619,602
2018-02-08,14,14 Perrin Beitel,829.35,2305,1365,477
2018-02-08,36,36-S. PRESA ST.,328.3,927,535,186
2018-02-09,2,2-BLANCO RD.,1062.56,2899,1550,577
2018-02-09,14,14 Perrin Beitel,840.64,2230,1250,500
2018-02-09,36,36-S. PRESA ST.,322.06,768,436,170
2018-02-10,2,2-BLANCO RD.,722.86,1833,824,434
2018-02-10,14,14 Perrin Beitel,563.37,1617,797,358
2018-02-10,36,36-S. PRESA ST.,184.67,443,213,119
2018-02-11,2,2-BLANCO RD.,494.73,1249,588,287
2018-02-11,14,14 Perrin Beitel,393.17,1046,522,236
2018-02-11,36,36-S. PRESA ST.,147.55,389,187,84
2018-02-12,2,2-BLANCO RD.,1076.47,2857,1492,593
2018-02-12,14,14 Perrin Beitel,840.65,2255,1352,505
2018-02-12,36,36-S. PRESA ST.,282.74,711,380,139
2018-02-13,2,2-BLANCO RD.,1023.7,2645,1455,569
2018-02-13,14,14 Perrin Beitel,752.56,2141,1240,436
2018-02-13,36,36-S. PRESA ST.,254.96,672,343,145
2018-02-14,2,2-BLANCO RD.,1071.65,3031,1701,588
2018-02-14,14,14 Perrin Beitel,888.15,2369,1404,511
2018-02-14,36,36-S. PRESA ST.,358.68,1037,564,197
2018-02-15,2,2-BLANCO RD.,1013.67,2831,1426,578
2018-02-15,14,14 Perrin Beitel,819.36,2211,1272,468
2018-02-15,36,36-S. PRESA ST.,316.71,780,435,193
2018-02-16,2,2-BLANCO RD.,1031.73,2865,1432,550
2018-02-16,14,14 Perrin Beitel,817.57,2365,1271,497
2018-02-16,36,36-S. PRESA ST.,318.94,825,456,173
2018-02-17,2,2-BLANCO RD.,643.91,1612,720,381
2018-02-17,14,14 Perrin Beitel,744.34,2028,966,468
2018-02-17,36,36-S. PRESA ST.,180.42,400,167,109
2018-02-18,2,2-BLANCO RD.,602.75,1591,634,333
2018-02-18,14,14 Perrin Beitel,507.79,1442,718,294
2018-02-18,36,36-S. PRESA ST.,183.39,477,208,105
2018-02-19,2,2-BLANCO RD.,961.29,2662,1430,507
2018-02-19,14,14 Perrin Beitel,734.79,2190,1202,457
2018-02-19,36,36-S. PRESA ST.,302.71,723,410,167
2018-02-20,2,2-BLANCO RD.,973.99,2672,1422,559
2018-02-20,14,14 Perrin Beitel,762.98,2089,1285,456
2018-02-20,36,36-S. PRESA ST.,259.8,615,361,151
2018-02-21,2,2-BLANCO RD.,958.08,2510,1336,536
2018-02-21,14,14 Perrin Beitel,551.39,1647,987,311
2018-02-21,36,36-S. PRESA ST.,295.15,727,402,171
2018-02-22,2,2-BLANCO RD.,867.78,2310,1269,489
2018-02-22,14,14 Perrin Beitel,821.24,2179,1284,498
2018-02-22,36,36-S. PRESA ST.,283.17,733,386,167
2018-02-23,2,2-BLANCO RD.,893.87,2488,1385,473
2018-02-23,14,14 Perrin Beitel,893.23,2185,1314,509
2018-02-23,36,36-S. PRESA ST.,344.11,742,424,203
2018-02-24,2,2-BLANCO RD.,740.33,2006,855,426
2018-02-24,14,14 Perrin Beitel,704.33,1956,900,427
2018-02-24,36,36-S. PRESA ST.,180.47,418,188,110
2018-02-25,2,2-BLANCO RD.,538.12,1445,587,294
2018-02-25,14,14 Perrin Beitel,485.7,1352,632,293
2018-02-25,36,36-S. PRESA ST.,127.62,347,151,74
2018-02-26,2,2-BLANCO RD.,1102.85,2720,1465,599
2018-02-26,14,14 Perrin Beitel,887.23,2499,1423,508
2018-02-26,36,36-S. PRESA ST.,287.1,634,331,174
2018-02-27,2,2-BLANCO RD.,1071.94,2889,1478,575
2018-02-27,14,14 Perrin Beitel,874.45,2365,1412,499
2018-02-27,36,36-S. PRESA ST.,244.79,581,301,147
2018-02-28,2,2-BLANCO RD.,1107.79,2950,1494,616
2018-02-28,14,14 Perrin Beitel,951.36,2462,1428,518
2018-02-28,36,36-S. PRESA ST.,325.27,866,462,191
2018-03-01,2,2-BLANCO RD.,1182.2,3050,1670,676
2018-03-01,14,14 Perrin Beitel,913.45,2336,1373,536
2018-03-01,36,36-S. PRESA ST.,312.1,887,486,171
2018-03-02,2,2-BLANCO RD.,1134.24,3141,1696,595
2018-03-02,14,14 Perrin Beitel,967.7,2575,1478,573
2018-03-02,36,36-S. PRESA ST.,356.38,849,503,197
2018-03-03,2,2-BLANCO RD.,819.51,2243,988,476
2018-03-03,14,14 Perrin Beitel,714.47,2038,1001,457
2018-03-03,36,36-S. PRESA ST.,191.27,492,211,130
2018-03-04,2,2-BLANCO RD.,595.46,1673,615,383
2018-03-04,14,14 Perrin Beitel,585.86,1521,716,368
2018-03-04,36,36-S. PRESA ST.,121.49,483,189,67
2018-03-05,2,2-BLANCO RD.,1103.04,2813,1510,604
2018-03-05,14,14 Perrin Beitel,1055.98,2678,1599,645
2018-03-05,36,36-S. PRESA ST.,281.35,674,370,154
2018-03-06,2,2-BLANCO RD.,1128.76,2893,1509,598
2018-03-06,14,14 Perrin Beitel,757.07,2110,1241,426
2018-03-06,36,36-S. PRESA ST.,350.76,882,474,189
2018-03-07,2,2-BLANCO RD.,1127.25,2932,1573,620
2018-03-07,14,14 Perrin Beitel,806.11,2213,1309,472
2018-03-07,36,36-S. PRESA ST.,392.74,1135,641,228
2018-03-08,2,2-BLANCO RD.,1077.06,2968,1598,619
2018-03-08,14,14 Perrin Beitel,850.56,2272,1325,468
2018-03-08,36,36-S. PRESA ST.,256.99,670,378,153
2018-03-09,2,2-BLANCO RD.,981.39,2569,1470,549
2018-03-09,14,14 Perrin Beitel,818.26,2215,1286,462
2018-03-09,36,36-S. PRESA ST.,361.96,881,489,205
2018-03-10,2,2-BLANCO RD.,695.27,1853,823,426
2018-03-10,14,14 Perrin Beitel,709.51,1862,844,416
2018-03-10,36,36-S. PRESA ST.,176.91,464,206,86
2018-03-11,2,2-BLANCO RD.,536.96,1497,690,305
2018-03-11,14,14 Perrin Beitel,468.31,1254,573,285
2018-03-11,36,36-S. PRESA ST.,159.54,388,180,85
2018-03-12,2,2-BLANCO RD.,910.57,2440,1376,496
2018-03-12,14,14 Perrin Beitel,895.97,2220,1298,526
2018-03-12,36,36-S. PRESA ST.,306.3,679,375,181
2018-03-13,2,2-BLANCO RD.,1024.52,2456,1329,554
2018-03-13,14,14 Perrin Beitel,757.23,1946,1100,429
2018-03-13,36,36-S. PRESA ST.,398.72,949,536,235
2018-03-14,2,2-BLANCO RD.,1073.3,2546,1402,604
2018-03-14,14,14 Perrin Beitel,806.11,2266,1372,456
2018-03-14,36,36-S. PRESA ST.,305.58,732,427,175
2018-03-15,2,2-BLANCO RD.,911.62,2179,1125,505
2018-03-15,14,14 Perrin Beitel,870.06,2321,1309,518
2018-03-15,36,36-S. PRESA ST.,319.2,710,392,176
2018-03-16,2,2-BLANCO RD.,1089.59,2612,1479,617
2018-03-16,14,14 Perrin Beitel,872.59,2198,1242,532
2018-03-16,36,36-S. PRESA ST.,281.24,604,348,161
2018-03-17,2,2-BLANCO RD.,649.46,1792,757,364
2018-03-17,14,14 Perrin Beitel,709.43,1829,833,427
2018-03-17,36,36-S. PRESA ST.,252.9,507,225,145
2018-03-18,2,2-BLANCO RD.,502.53,1513,516,294
2018-03-18,14,14 Perrin Beitel,547.46,1472,671,333
2018-03-18,36,36-S. PRESA ST.,215.05,568,232,134
2018-03-19,2,2-BLANCO RD.,1091.16,2813,1513,601
2018-03-19,14,14 Perrin Beitel,788.41,2182,1269,458
2018-03-19,36,36-S. PRESA ST.,335.74,778,417,201
2018-03-20,2,2-BLANCO RD.,958.51,2534,1366,537
2018-03-20,14,14 Perrin Beitel,820.83,2236,1286,458
2018-03-20,36,36-S. PRESA ST.,271.9,730,381,150
2018-03-21,2,2-BLANCO RD.,1038.2,2922,1565,569
2018-03-21,14,14 Perrin Beitel,772.59,2129,1271,423
2018-03-21,36,36-S. PRESA ST.,354.48,842,438,189
2018-03-22,2,2-BLANCO RD.,1138.76,2965,1613,627
2018-03-22,14,14 Perrin Beitel,854.2,2297,1321,491
2018-03-22,36,36-S. PRESA ST.,261.37,819,464,150
2018-03-23,2,2-BLANCO RD.,961.32,2619,1227,560
2018-03-23,14,14 Perrin Beitel,843.33,2235,1287,479
2018-03-23,36,36-S. PRESA ST.,336.17,868,467,181
2018-03-24,2,2-BLANCO RD.,765.11,1989,835,451
2018-03-24,14,14 Perrin Beitel,643.34,1704,793,383
2018-03-24,36,36-S. PRESA ST.,146.96,387,158,70
2018-03-25,2,2-BLANCO RD.,513.03,1461,630,316
2018-03-25,14,14 Perrin Beitel,443.33,1268,609,250
2018-03-25,36,36-S. PRESA ST.,127.38,428,167,75
2018-03-26,2,2-BLANCO RD.,1136.85,2850,1525,630
2018-03-26,14,14 Perrin Beitel,806.97,2240,1274,451
2018-03-26,36,36-S. PRESA ST.,340.13,878,463,191
2018-03-27,2,2-BLANCO RD.,1037.8,2868,1594,567
2018-03-27,14,14 Perrin Beitel,804.69,2033,1134,491
2018-03-27,36,36-S. PRESA ST.,302.83,713,365,168
2018-03-28,2,2-BLANCO RD.,825.01,2145,1116,465
2018-03-28,14,14 Perrin Beitel,588.59,1682,908,353
2018-03-28,36,36-S. PRESA ST.,289.97,749,407,151
2018-03-29,2,2-BLANCO RD.,1076.82,2704,1430,590
2018-03-29,14,14 Perrin Beitel,862.7,2351,1329,511
2018-03-29,36,36-S. PRESA ST.,351.77,931,503,200
2018-03-30,2,2-BLANCO RD.,893.69,2317,1230,487
2018-03-30,14,14 Perrin Beitel,838.94,2115,1166,453
2018-03-30,36,36-S. PRESA ST.,392.26,866,439,213
2018-03-31,2,2-BLANCO RD.,802.89,2120,927,483
2018-03-31,14,14 Perrin Beitel,745.67,1978,788,452
2018-03-31,36,36-S. PRESA ST.,276.06,629,241,153
2018-04-01,2,2-BLANCO RD.,522.56,1276,539,308
2018-04-01,14,14 Perrin Beitel,449.23,1282,544,290
2018-04-01,36,36-S. PRESA ST.,193.02,448,167,114
2018-04-02,2,2-BLANCO RD.,1012.16,2655,1424,558
2018-04-02,14,14 Perrin Beitel,895.09,2206,1262,537
2018-04-02,36,36-S. PRESA ST.,423.01,971,488,217
2018-04-03,2,2-BLANCO RD.,1188.62,3188,1704,676
2018-04-03,14,14 Perrin Beitel,986.55,2699,1516,583
2018-04-03,36,36-S. PRESA ST.,357.45,792,427,188
2018-04-04,2,2-BLANCO RD.,1073.01,3046,1661,586
2018-04-04,14,14 Perrin Beitel,877.08,2363,1369,505
2018-04-04,36,36-S. PRESA ST.,385.25,981,528,215
2018-04-05,2,2-BLANCO RD.,1077.47,2966,1598,564
2018-04-05,14,14 Perrin Beitel,785.12,2246,1305,450
2018-04-05,36,36-S. PRESA ST.,325.93,791,375,191
2018-04-06,2,2-BLANCO RD.,1119.36,2966,1583,618
2018-04-06,14,14 Perrin Beitel,843.83,2367,1334,495
2018-04-06,36,36-S. PRESA ST.,347.12,747,390,200
2018-04-07,2,2-BLANCO RD.,623.18,1696,721,377
2018-04-07,14,14 Perrin Beitel,576.22,1656,841,354
2018-04-07,36,36-S. PRESA ST.,184.97,433,190,110
2018-04-08,2,2-BLANCO RD.,452.53,1431,602,257
2018-04-08,14,14 Perrin Beitel,414.29,1289,633,261
2018-04-08,36,36-S. PRESA ST.,178.48,509,221,100
2018-04-09,2,2-BLANCO RD.,1076.34,2772,1504,576
2018-04-09,14,14 Perrin Beitel,1008.09,2457,1422,594
2018-04-09,36,36-S. PRESA ST.,310.24,637,339,165
2018-04-10,2,2-BLANCO RD.,925.2,2604,1364,499
2018-04-10,14,14 Perrin Beitel,833.61,2409,1409,471
2018-04-10,36,36-S. PRESA ST.,340.91,918,455,175
2018-04-11,2,2-BLANCO RD.,902.74,2485,1329,491
2018-04-11,14,14 Perrin Beitel,866.9,2249,1287,512
2018-04-11,36,36-S. PRESA ST.,292.94,709,375,143
2018-04-12,2,2-BLANCO RD.,1052.93,2929,1579,574
2018-04-12,14,14 Perrin Beitel,738.66,2140,1196,422
2018-04-12,36,36-S. PRESA ST.,405.58,981,516,237
2018-04-13,2,2-BLANCO RD.,972.39,2797,1511,512
2018-04-13,14,14 Perrin Beitel,798.3,2217,1253,450
2018-04-13,36,36-S. PRESA ST.,355.21,810,438,187
2018-04-14,2,2-BLANCO RD.,638.33,1844,830,375
2018-04-14,14,14 Perrin Beitel,582.29,1777,863,348
2018-04-14,36,36-S. PRESA ST.,206.54,442,176,129
2018-04-15,2,2-BLANCO RD.,597.17,1522,666,346
2018-04-15,14,14 Perrin Beitel,529.13,1537,679,311
2018-04-15,36,36-S. PRESA ST.,197.36,567,244,118
2018-04-16,2,2-BLANCO RD.,1025.23,2756,1498,530
2018-04-16,14,14 Perrin Beitel,906.16,2289,1300,508
2018-04-16,36,36-S. PRESA ST.,331.14,880,475,170
2018-04-17,2,2-BLANCO RD.,1091.21,2765,1453,618
2018-04-17,14,14 Perrin Beitel,938.2,2346,1317,535
2018-04-17,36,36-S. PRESA ST.,315.77,765,393,175
2018-04-18,2,2-BLANCO RD.,1066,2834,1478,576
2018-04-18,14,14 Perrin Beitel,838.42,2418,1396,476
2018-04-18,36,36-S. PRESA ST.,371.63,971,503,202
2018-04-19,2,2-BLANCO RD.,968.5,2491,1335,530
2018-04-19,14,14 Perrin Beitel,800.66,2150,1182,449
2018-04-19,36,36-S. PRESA ST.,387.38,1045,568,223
2018-04-20,2,2-BLANCO RD.,1082.72,2674,1453,586
2018-04-20,14,14 Perrin Beitel,785.47,2066,1171,489
2018-04-20,36,36-S. PRESA ST.,281.98,776,415,155
2018-04-21,2,2-BLANCO RD.,710.8,1830,778,441
2018-04-21,14,14 Perrin Beitel,650.3,1677,785,406
2018-04-21,36,36-S. PRESA ST.,234.02,511,194,137
2018-04-22,2,2-BLANCO RD.,577.24,1498,655,325
2018-04-22,14,14 Perrin Beitel,435.74,1260,519,242
2018-04-22,36,36-S. PRESA ST.,185.79,493,215,101
2018-04-23,2,2-BLANCO RD.,1135.82,2859,1514,587
2018-04-23,14,14 Perrin Beitel,988.21,2385,1316,554
2018-04-23,36,36-S. PRESA ST.,345.16,873,350,186
2018-04-24,2,2-BLANCO RD.,1132.73,2911,1549,579
2018-04-24,14,14 Perrin Beitel,806.94,2343,1307,469
2018-04-24,36,36-S. PRESA ST.,280.85,624,322,170
2018-04-25,2,2-BLANCO RD.,1095.05,2692,1469,605
2018-04-25,14,14 Perrin Beitel,769.71,2039,1170,432
2018-04-25,36,36-S. PRESA ST.,316.72,775,425,171
2018-04-26,2,2-BLANCO RD.,1123.97,2800,1496,631
2018-04-26,14,14 Perrin Beitel,808.5,2265,1302,463
2018-04-26,36,36-S. PRESA ST.,322.41,716,354,192
2018-04-27,2,2-BLANCO RD.,1091.96,2483,1229,622
2018-04-27,14,14 Perrin Beitel,858.2,1985,1118,487
2018-04-27,36,36-S. PRESA ST.,494.52,935,453,302
2018-04-28,2,2-BLANCO RD.,896.59,1889,724,496
2018-04-28,14,14 Perrin Beitel,589.21,1770,687,383
2018-04-28,36,36-S. PRESA ST.,183.94,587,227,98
2018-04-29,2,2-BLANCO RD.,652.09,1683,667,367
2018-04-29,14,14 Perrin Beitel,272.44,881,394,170
2018-04-29,36,36-S. PRESA ST.,149.2,437,154,80
2018-04-30,2,2-BLANCO RD.,948.29,2741,1511,526
2018-04-30,14,14 Perrin Beitel,702.22,2112,1275,417
2018-04-30,36,36-S. PRESA ST.,268.23,645,369,152
2018-05-01,2,2-BLANCO RD.,1159.12,3098,1751,656
2018-05-01,14,14 Perrin Beitel,886.15,2496,1462,521
2018-05-01,36,36-S. PRESA ST.,326.18,821,434,185
2018-05-02,2,2-BLANCO RD.,1141.12,3099,1638,636
2018-05-02,14,14 Perrin Beitel,913.88,2450,1392,542
2018-05-02,36,36-S. PRESA ST.,421.07,1068,549,227
2018-05-03,2,2-BLANCO RD.,1207.07,3206,1752,630
2018-05-03,14,14 Perrin Beitel,928.29,2394,1392,536
2018-05-03,36,36-S. PRESA ST.,308.23,858,427,174
2018-05-04,2,2-BLANCO RD.,802.33,2124,1163,439
2018-05-04,14,14 Perrin Beitel,640.81,1767,1019,362
2018-05-04,36,36-S. PRESA ST.,281.05,768,433,149
2018-05-05,2,2-BLANCO RD.,726.75,2061,874,432
2018-05-05,14,14 Perrin Beitel,693.52,2000,947,412
2018-05-05,36,36-S. PRESA ST.,163.57,444,179,81
2018-05-06,2,2-BLANCO RD.,517.42,1445,533,305
2018-05-06,14,14 Perrin Beitel,434.06,1497,541,255
2018-05-06,36,36-S. PRESA ST.,164.48,508,211,92
2018-05-07,2,2-BLANCO RD.,1072.54,2832,1566,575
2018-05-07,14,14 Perrin Beitel,785.4,2285,1328,461
2018-05-07,36,36-S. PRESA ST.,285.02,761,404,161
2018-05-08,2,2-BLANCO RD.,1057.21,2773,1506,563
2018-05-08,14,14 Perrin Beitel,882.11,2392,1402,510
2018-05-08,36,36-S. PRESA ST.,283.88,762,374,140
2018-05-09,2,2-BLANCO RD.,1113.64,2854,1558,614
2018-05-09,14,14 Perrin Beitel,806.58,2177,1303,449
2018-05-09,36,36-S. PRESA ST.,311.66,799,437,169
2018-05-10,2,2-BLANCO RD.,1081.06,2867,1476,614
2018-05-10,14,14 Perrin Beitel,739.72,2216,1357,435
2018-05-10,36,36-S. PRESA ST.,394.89,932,506,219
2018-05-11,2,2-BLANCO RD.,890.41,2300,1275,497
2018-05-11,14,14 Perrin Beitel,807.53,2148,1265,498
2018-05-11,36,36-S. PRESA ST.,293.83,681,386,153
2018-05-12,2,2-BLANCO RD.,724.9,1841,806,417
2018-05-12,14,14 Perrin Beitel,593.97,1649,791,369
2018-05-12,36,36-S. PRESA ST.,191.72,523,226,100
2018-05-13,2,2-BLANCO RD.,497.69,1358,536,292
2018-05-13,14,14 Perrin Beitel,561.04,1394,635,346
2018-05-13,36,36-S. PRESA ST.,152.91,406,162,91
2018-05-14,2,2-BLANCO RD.,1072.65,2761,1512,597
2018-05-14,14,14 Perrin Beitel,791.88,2073,1254,422
2018-05-14,36,36-S. PRESA ST.,297.42,705,364,169
2018-05-15,2,2-BLANCO RD.,1137.59,2771,1532,634
2018-05-15,14,14 Perrin Beitel,774.05,2238,1333,430
2018-05-15,36,36-S. PRESA ST.,338,789,420,195
2018-05-16,2,2-BLANCO RD.,1119.81,3029,1599,574
2018-05-16,14,14 Perrin Beitel,822.41,2160,1254,477
2018-05-16,36,36-S. PRESA ST.,335.3,851,504,191
2018-05-17,2,2-BLANCO RD.,960.78,2726,1539,518
2018-05-17,14,14 Perrin Beitel,610.46,1793,1112,341
2018-05-17,36,36-S. PRESA ST.,364.58,890,483,192
2018-05-18,2,2-BLANCO RD.,1109.06,2887,1498,611
2018-05-18,14,14 Perrin Beitel,838.07,2099,1283,477
2018-05-18,36,36-S. PRESA ST.,322.27,734,391,185
2018-05-19,2,2-BLANCO RD.,714.45,1992,870,418
2018-05-19,14,14 Perrin Beitel,728.42,1707,817,405
2018-05-19,36,36-S. PRESA ST.,220.43,562,243,128
2018-05-20,2,2-BLANCO RD.,448,1179,505,253
2018-05-20,14,14 Perrin Beitel,428.76,1107,499,271
2018-05-20,36,36-S. PRESA ST.,162.53,412,184,90
2018-05-21,2,2-BLANCO RD.,1193.13,2954,1611,626
2018-05-21,14,14 Perrin Beitel,754.17,2072,1251,421
2018-05-21,36,36-S. PRESA ST.,288.05,721,379,159
2018-05-22,2,2-BLANCO RD.,1108.6,2726,1499,581
2018-05-22,14,14 Perrin Beitel,714.08,2144,1267,417
2018-05-22,36,36-S. PRESA ST.,349.54,796,384,200
2018-05-23,2,2-BLANCO RD.,1152.44,2853,1552,647
2018-05-23,14,14 Perrin Beitel,717.01,2101,1263,383
2018-05-23,36,36-S. PRESA ST.,350.13,890,502,180
2018-05-24,2,2-BLANCO RD.,1099.87,2763,1478,608
2018-05-24,14,14 Perrin Beitel,638.82,1980,1224,368
2018-05-24,36,36-S. PRESA ST.,303.09,757,420,170
2018-05-25,2,2-BLANCO RD.,1007.29,2844,1481,563
2018-05-25,14,14 Perrin Beitel,789.95,2068,1255,477
2018-05-25,36,36-S. PRESA ST.,259.35,663,362,142
2018-05-26,2,2-BLANCO RD.,695.05,1825,830,427
2018-05-26,14,14 Perrin Beitel,643.98,1701,817,409
2018-05-26,36,36-S. PRESA ST.,136.57,360,158,79
2018-05-27,2,2-BLANCO RD.,622.3,1578,688,375
2018-05-27,14,14 Perrin Beitel,579.81,1388,578,346
2018-05-27,36,36-S. PRESA ST.,177.3,427,179,110
2018-05-28,2,2-BLANCO RD.,579.13,1465,829,300
2018-05-28,14,14 Perrin Beitel,556.52,1492,898,343
2018-05-28,36,36-S. PRESA ST.,157.56,364,195,88
2018-05-29,2,2-BLANCO RD.,1037.83,2788,1545,554
2018-05-29,14,14 Perrin Beitel,733.91,2087,1240,415
2018-05-29,36,36-S. PRESA ST.,361.94,786,450,204
2018-05-30,2,2-BLANCO RD.,1020.94,2654,1500,564
2018-05-30,14,14 Perrin Beitel,754.32,1996,1167,427
2018-05-30,36,36-S. PRESA ST.,314.73,801,459,161
2018-05-31,2,2-BLANCO RD.,1004.59,2582,1433,540
2018-05-31,14,14 Perrin Beitel,827.45,2189,1271,492
2018-05-31,36,36-S. PRESA ST.,278.95,703,410,152
2018-06-01,2,2-BLANCO RD.,1084.9,3005,1677,622
2018-06-01,14,14 Perrin Beitel,943.61,2492,1447,512
2018-06-01,36,36-S. PRESA ST.,349.55,919,478,193
2018-06-02,2,2-BLANCO RD.,668.61,1867,869,403
2018-06-02,14,14 Perrin Beitel,683.64,2008,913,424
2018-06-02,36,36-S. PRESA ST.,211.81,469,211,137
2018-06-03,2,2-BLANCO RD.,553.93,1487,576,316
2018-06-03,14,14 Perrin Beitel,496.04,1299,459,296
2018-06-03,36,36-S. PRESA ST.,193.39,457,171,109
2018-06-04,2,2-BLANCO RD.,986.47,2645,1499,541
2018-06-04,14,14 Perrin Beitel,802.32,2012,1148,480
2018-06-04,36,36-S. PRESA ST.,265.15,595,323,156
2018-06-05,2,2-BLANCO RD.,1137.56,2987,1674,640
2018-06-05,14,14 Perrin Beitel,759.03,2281,1397,443
2018-06-05,36,36-S. PRESA ST.,299.18,618,333,169
2018-06-06,2,2-BLANCO RD.,1042.6,2747,1520,593
2018-06-06,14,14 Perrin Beitel,818.42,2193,1275,471
2018-06-06,36,36-S. PRESA ST.,431.58,1013,611,215
2018-06-07,2,2-BLANCO RD.,1029.25,2757,1545,567
2018-06-07,14,14 Perrin Beitel,695.46,2016,1190,419
2018-06-07,36,36-S. PRESA ST.,326.32,788,444,189
2018-06-08,2,2-BLANCO RD.,976.41,2626,1548,539
2018-06-08,14,14 Perrin Beitel,817.14,2112,1259,470
2018-06-08,36,36-S. PRESA ST.,388.54,889,504,215
2018-06-09,2,2-BLANCO RD.,720.56,1871,819,400
2018-06-09,14,14 Perrin Beitel,600.73,1729,844,348
2018-06-09,36,36-S. PRESA ST.,232.18,549,242,147
2018-06-10,2,2-BLANCO RD.,528.77,1580,576,311
2018-06-10,14,14 Perrin Beitel,477,1284,558,300
2018-06-10,36,36-S. PRESA ST.,122.08,339,138,73
2018-06-11,2,2-BLANCO RD.,918.42,2409,1331,507
2018-06-11,14,14 Perrin Beitel,775.35,1922,1105,461
2018-06-11,36,36-S. PRESA ST.,376.58,848,459,204
2018-06-12,2,2-BLANCO RD.,959.79,2597,1486,539
2018-06-12,14,14 Perrin Beitel,765.64,2148,1190,422
2018-06-12,36,36-S. PRESA ST.,306.15,762,446,169
2018-06-13,2,2-BLANCO RD.,1127.25,3149,1876,631
2018-06-13,14,14 Perrin Beitel,636.79,1827,1112,375
2018-06-13,36,36-S. PRESA ST.,309.76,760,418,173
2018-06-14,2,2-BLANCO RD.,993.34,2588,1468,549
2018-06-14,14,14 Perrin Beitel,740.29,2102,1157,429
2018-06-14,36,36-S. PRESA ST.,295.81,709,357,162
2018-06-15,2,2-BLANCO RD.,1041.77,2459,1357,602
2018-06-15,14,14 Perrin Beitel,785.27,1885,1101,459
2018-06-15,36,36-S. PRESA ST.,313.31,709,407,181
2018-06-16,2,2-BLANCO RD.,665.86,1858,847,396
2018-06-16,14,14 Perrin Beitel,647.48,1715,810,395
2018-06-16,36,36-S. PRESA ST.,143.68,384,176,101
2018-06-17,2,2-BLANCO RD.,595.22,1576,658,348
2018-06-17,14,14 Perrin Beitel,542.4,1424,581,324
2018-06-17,36,36-S. PRESA ST.,186.65,517,221,103
2018-06-18,2,2-BLANCO RD.,982.65,2383,1314,554
2018-06-18,14,14 Perrin Beitel,791.89,1932,1121,464
2018-06-18,36,36-S. PRESA ST.,283.74,698,394,149
2018-06-19,2,2-BLANCO RD.,1006.18,2505,1446,561
2018-06-19,14,14 Perrin Beitel,751.37,1999,1178,443
2018-06-19,36,36-S. PRESA ST.,279.38,596,319,143
2018-06-20,2,2-BLANCO RD.,1031.14,2655,1435,565
2018-06-20,14,14 Perrin Beitel,775.15,1916,1118,436
2018-06-20,36,36-S. PRESA ST.,302.99,766,424,162
2018-06-21,2,2-BLANCO RD.,1011.24,2644,1483,582
2018-06-21,14,14 Perrin Beitel,891.89,2132,1258,537
2018-06-21,36,36-S. PRESA ST.,336.41,793,442,197
2018-06-22,2,2-BLANCO RD.,1025.16,2529,1458,584
2018-06-22,14,14 Perrin Beitel,812.92,2082,1163,470
2018-06-22,36,36-S. PRESA ST.,357.33,775,405,198
2018-06-23,2,2-BLANCO RD.,685.26,1779,807,410
2018-06-23,14,14 Perrin Beitel,536.05,1722,768,348
2018-06-23,36,36-S. PRESA ST.,183.58,424,169,108
2018-06-24,2,2-BLANCO RD.,526.21,1497,695,317
2018-06-24,14,14 Perrin Beitel,551.77,1454,647,330
2018-06-24,36,36-S. PRESA ST.,146.53,377,146,82
2018-06-25,2,2-BLANCO RD.,1037.15,2665,1488,614
2018-06-25,14,14 Perrin Beitel,796.7,2120,1248,436
2018-06-25,36,36-S. PRESA ST.,304.81,731,383,182
2018-06-26,2,2-BLANCO RD.,971.08,2481,1444,548
2018-06-26,14,14 Perrin Beitel,744.04,2095,1295,422
2018-06-26,36,36-S. PRESA ST.,306.43,714,372,184
2018-06-27,2,2-BLANCO RD.,1099.08,2766,1600,628
2018-06-27,14,14 Perrin Beitel,871.22,2247,1337,507
2018-06-27,36,36-S. PRESA ST.,307.46,626,338,157
2018-06-28,2,2-BLANCO RD.,937.69,2433,1379,499
2018-06-28,14,14 Perrin Beitel,667.62,1823,1110,372
2018-06-28,36,36-S. PRESA ST.,313.79,719,415,170
2018-06-29,2,2-BLANCO RD.,1108.7,2802,1589,634
2018-06-29,14,14 Perrin Beitel,972.61,2352,1381,597
2018-06-29,36,36-S. PRESA ST.,377.53,765,415,225
2018-06-30,2,2-BLANCO RD.,709.06,1968,895,421
2018-06-30,14,14 Perrin Beitel,591.14,1684,795,362
2018-06-30,36,36-S. PRESA ST.,208.25,470,208,130
2018-07-01,2,2-BLANCO RD.,529.44,1549,689,323
2018-07-01,14,14 Perrin Beitel,357.29,948,405,210
2018-07-01,36,36-S. PRESA ST.,221.44,593,282,131
2018-07-02,2,2-BLANCO RD.,996.17,2463,1403,548
2018-07-02,14,14 Perrin Beitel,868.6,2251,1273,467
2018-07-02,36,36-S. PRESA ST.,331.06,799,438,189
2018-07-03,2,2-BLANCO RD.,1078.45,2663,1477,601
2018-07-03,14,14 Perrin Beitel,735.66,1955,1145,414
2018-07-03,36,36-S. PRESA ST.,325.26,764,406,184
2018-07-04,2,2-BLANCO RD.,507.37,1224,697,290
2018-07-04,14,14 Perrin Beitel,492.54,1210,709,273
2018-07-04,36,36-S. PRESA ST.,138.06,348,138,77
2018-07-05,2,2-BLANCO RD.,1025.53,2377,1308,568
2018-07-05,14,14 Perrin Beitel,785.14,2085,1295,474
2018-07-05,36,36-S. PRESA ST.,229.09,633,363,144
2018-07-06,2,2-BLANCO RD.,884.02,2384,1312,515
2018-07-06,14,14 Perrin Beitel,775.55,2093,1206,453
2018-07-06,36,36-S. PRESA ST.,390.83,748,391,198
2018-07-07,2,2-BLANCO RD.,637.39,1723,753,384
2018-07-07,14,14 Perrin Beitel,637.63,1777,768,391
2018-07-07,36,36-S. PRESA ST.,160.79,368,158,97
2018-07-08,2,2-BLANCO RD.,583.64,1590,607,353
2018-07-08,14,14 Perrin Beitel,365.6,1123,521,223
2018-07-08,36,36-S. PRESA ST.,152.72,369,152,93
2018-07-09,2,2-BLANCO RD.,803.23,2066,1192,432
2018-07-09,14,14 Perrin Beitel,764.33,1923,1142,422
2018-07-09,36,36-S. PRESA ST.,245.38,556,310,149
2018-07-10,2,2-BLANCO RD.,1114.91,2861,1599,622
2018-07-10,14,14 Perrin Beitel,785.59,2141,1219,464
2018-07-10,36,36-S. PRESA ST.,264.5,691,419,143
2018-07-11,2,2-BLANCO RD.,979.68,2641,1511,536
2018-07-11,14,14 Perrin Beitel,746.05,1989,1168,427
2018-07-11,36,36-S. PRESA ST.,273.9,670,373,155
2018-07-12,2,2-BLANCO RD.,1045.69,2783,1558,590
2018-07-12,14,14 Perrin Beitel,742.8,2047,1242,428
2018-07-12,36,36-S. PRESA ST.,246.6,718,403,142
2018-07-13,2,2-BLANCO RD.,1020.91,2744,1525,586
2018-07-13,14,14 Perrin Beitel,864.73,2257,1319,508
2018-07-13,36,36-S. PRESA ST.,354.31,849,488,190
2018-07-14,2,2-BLANCO RD.,755.65,1956,872,420
2018-07-14,14,14 Perrin Beitel,583.01,1880,926,348
2018-07-14,36,36-S. PRESA ST.,200.54,537,245,124
2018-07-15,2,2-BLANCO RD.,580.43,1573,682,353
2018-07-15,14,14 Perrin Beitel,523.53,1423,628,320
2018-07-15,36,36-S. PRESA ST.,164.72,466,207,108
2018-07-16,2,2-BLANCO RD.,1053.65,2767,1618,596
2018-07-16,14,14 Perrin Beitel,853.93,2249,1322,469
2018-07-16,36,36-S. PRESA ST.,332.39,749,411,201
2018-07-17,2,2-BLANCO RD.,1026.36,2791,1646,585
2018-07-17,14,14 Perrin Beitel,810.28,2346,1362,464
2018-07-17,36,36-S. PRESA ST.,391.43,820,442,232
2018-07-18,2,2-BLANCO RD.,1117.11,2646,1503,635
2018-07-18,14,14 Perrin Beitel,732.55,1886,1108,422
2018-07-18,36,36-S. PRESA ST.,344.56,872,506,199
2018-07-19,2,2-BLANCO RD.,941.4,2713,1598,538
2018-07-19,14,14 Perrin Beitel,879.51,2289,1372,497
2018-07-19,36,36-S. PRESA ST.,309.56,672,361,168
2018-07-20,2,2-BLANCO RD.,1152.02,2960,1667,636
2018-07-20,14,14 Perrin Beitel,920.11,2517,1533,563
2018-07-20,36,36-S. PRESA ST.,316.99,650,358,176
2018-07-21,2,2-BLANCO RD.,735.11,2107,981,447
2018-07-21,14,14 Perrin Beitel,671.62,2004,998,403
2018-07-21,36,36-S. PRESA ST.,212.16,514,229,134
2018-07-22,2,2-BLANCO RD.,573.9,1490,615,345
2018-07-22,14,14 Perrin Beitel,485.7,1322,571,300
2018-07-22,36,36-S. PRESA ST.,184.1,479,196,96
2018-07-23,2,2-BLANCO RD.,999.79,2660,1533,565
2018-07-23,14,14 Perrin Beitel,676.5,1985,1167,402
2018-07-23,36,36-S. PRESA ST.,278.03,724,423,156
2018-07-24,2,2-BLANCO RD.,1013.02,2613,1484,542
2018-07-24,14,14 Perrin Beitel,767.41,2074,1242,451
2018-07-24,36,36-S. PRESA ST.,249.67,640,391,133
2018-07-25,2,2-BLANCO RD.,960.25,2777,1504,535
2018-07-25,14,14 Perrin Beitel,766.13,2176,1264,438
2018-07-25,36,36-S. PRESA ST.,290.64,662,374,170
2018-07-26,2,2-BLANCO RD.,1033.75,2852,1620,579
2018-07-26,14,14 Perrin Beitel,720.06,1980,1201,423
2018-07-26,36,36-S. PRESA ST.,279.82,673,393,147
2018-07-27,2,2-BLANCO RD.,1079.42,2787,1615,598
2018-07-27,14,14 Perrin Beitel,819.89,2213,1337,484
2018-07-27,36,36-S. PRESA ST.,291.2,635,361,167
2018-07-28,2,2-BLANCO RD.,844.78,2165,972,520
2018-07-28,14,14 Perrin Beitel,594.6,1737,838,362
2018-07-28,36,36-S. PRESA ST.,175.92,420,179,105
2018-07-29,2,2-BLANCO RD.,559.07,1440,593,328
2018-07-29,14,14 Perrin Beitel,494.59,1305,564,285
2018-07-29,36,36-S. PRESA ST.,178.1,411,187,118
2018-07-30,2,2-BLANCO RD.,1147.68,2876,1646,622
2018-07-30,14,14 Perrin Beitel,640.94,1917,1109,375
2018-07-30,36,36-S. PRESA ST.,226.39,613,343,143
2018-07-31,2,2-BLANCO RD.,1059.16,2739,1571,601
2018-07-31,14,14 Perrin Beitel,735.11,2359,1396,450
2018-07-31,36,36-S. PRESA ST.,260.2,594,314,144
2018-08-01,2,2-BLANCO RD.,1158.53,2975,1760,692
2018-08-01,14,14 Perrin Beitel,705.64,2188,1229,430
2018-08-01,36,36-S. PRESA ST.,291.16,721,415,158
2018-08-02,2,2-BLANCO RD.,975.88,2658,1527,563
2018-08-02,14,14 Perrin Beitel,842.68,2110,1271,496
2018-08-02,36,36-S. PRESA ST.,323.05,783,413,181
2018-08-03,2,2-BLANCO RD.,1050.18,2986,1685,582
2018-08-03,14,14 Perrin Beitel,792.13,2414,1386,460
2018-08-03,36,36-S. PRESA ST.,284.56,739,465,175
2018-08-04,2,2-BLANCO RD.,810.93,2117,937,493
2018-08-04,14,14 Perrin Beitel,713.83,1996,977,444
2018-08-04,36,36-S. PRESA ST.,156.68,424,196,99
2018-08-05,2,2-BLANCO RD.,548.4,1593,670,347
2018-08-05,14,14 Perrin Beitel,559.3,1567,679,339
2018-08-05,36,36-S. PRESA ST.,141.57,409,186,87
2018-08-06,2,2-BLANCO RD.,1034.99,2636,1501,553
2018-08-06,14,14 Perrin Beitel,771.17,2193,1249,440
2018-08-06,36,36-S. PRESA ST.,344.49,794,476,181
2018-08-07,2,2-BLANCO RD.,1041.52,2818,1628,592
2018-08-07,14,14 Perrin Beitel,741.91,2086,1261,418
2018-08-07,36,36-S. PRESA ST.,219.06,623,371,124
2018-08-08,2,2-BLANCO RD.,1013.52,2645,1480,542
2018-08-08,14,14 Perrin Beitel,768.88,2249,1418,424
2018-08-08,36,36-S. PRESA ST.,295.69,768,450,165
2018-08-09,2,2-BLANCO RD.,1042.38,2700,1561,572
2018-08-09,14,14 Perrin Beitel,817.84,2219,1380,497
2018-08-09,36,36-S. PRESA ST.,303.13,785,445,158
2018-08-10,2,2-BLANCO RD.,1015.36,2639,1523,557
2018-08-10,14,14 Perrin Beitel,906.6,2467,1497,553
2018-08-10,36,36-S. PRESA ST.,261.49,590,350,133
2018-08-11,2,2-BLANCO RD.,733.92,1839,786,426
2018-08-11,14,14 Perrin Beitel,658.9,1840,865,414
2018-08-11,36,36-S. PRESA ST.,181.85,421,195,112
2018-08-12,2,2-BLANCO RD.,459.51,1379,531,273
2018-08-12,14,14 Perrin Beitel,464.65,1258,565,271
2018-08-12,36,36-S. PRESA ST.,121.87,391,200,74
2018-08-13,2,2-BLANCO RD.,1033.79,2747,1545,581
2018-08-13,14,14 Perrin Beitel,756.75,2171,1304,438
2018-08-13,36,36-S. PRESA ST.,365.87,665,367,178
2018-08-14,2,2-BLANCO RD.,1057.81,2799,1574,588
2018-08-14,14,14 Perrin Beitel,771.74,2221,1330,470
2018-08-14,36,36-S. PRESA ST.,290.45,697,395,143
2018-08-15,2,2-BLANCO RD.,1121.46,2926,1743,621
2018-08-15,14,14 Perrin Beitel,822.45,2214,1341,473
2018-08-15,36,36-S. PRESA ST.,305.85,834,497,174
2018-08-16,2,2-BLANCO RD.,1029.89,2765,1563,525
2018-08-16,14,14 Perrin Beitel,814.57,2148,1321,477
2018-08-16,36,36-S. PRESA ST.,280.85,696,391,156
2018-08-17,2,2-BLANCO RD.,1112.53,2878,1606,632
2018-08-17,14,14 Perrin Beitel,875.7,2192,1336,507
2018-08-17,36,36-S. PRESA ST.,314.24,739,424,177
2018-08-18,2,2-BLANCO RD.,614.29,1761,780,383
2018-08-18,14,14 Perrin Beitel,598.07,1826,888,374
2018-08-18,36,36-S. PRESA ST.,169.72,488,252,101
2018-08-19,2,2-BLANCO RD.,562.07,1510,657,327
2018-08-19,14,14 Perrin Beitel,580.84,1597,746,346
2018-08-19,36,36-S. PRESA ST.,175.87,454,204,98
2018-08-20,2,2-BLANCO RD.,1060.17,2666,1441,571
2018-08-20,14,14 Perrin Beitel,848.23,2341,1416,484
2018-08-20,36,36-S. PRESA ST.,243.71,623,372,131
2018-08-21,2,2-BLANCO RD.,1215.89,3202,1735,655
2018-08-21,14,14 Perrin Beitel,847.33,2256,1326,480
2018-08-21,36,36-S. PRESA ST.,250.1,624,351,138
2018-08-22,2,2-BLANCO RD.,1169.95,2705,1536,541
2018-08-22,14,14 Perrin Beitel,777.91,2212,1298,452
2018-08-22,36,36-S. PRESA ST.,214.22,537,302,131
2018-08-23,2,2-BLANCO RD.,1084.11,2933,1632,582
2018-08-23,14,14 Perrin Beitel,773.83,2196,1355,460
2018-08-23,36,36-S. PRESA ST.,332.95,827,443,173
2018-08-24,2,2-BLANCO RD.,1117.82,3146,1656,637
2018-08-24,14,14 Perrin Beitel,960.01,2360,1442,546
2018-08-24,36,36-S. PRESA ST.,356.58,759,401,200
2018-08-25,2,2-BLANCO RD.,752.71,1912,836,449
2018-08-25,14,14 Perrin Beitel,495.41,1505,707,288
2018-08-25,36,36-S. PRESA ST.,197.71,440,176,101
2018-08-26,2,2-BLANCO RD.,638.27,1428,626,345
2018-08-26,14,14 Perrin Beitel,510.64,1447,679,293
2018-08-26,36,36-S. PRESA ST.,173.64,443,192,101
2018-08-27,2,2-BLANCO RD.,1006.05,2793,1250,549
2018-08-27,14,14 Perrin Beitel,808.12,2242,1294,470
2018-08-27,36,36-S. PRESA ST.,365.09,801,430,185
2018-08-28,2,2-BLANCO RD.,1233.69,3505,1974,717
2018-08-28,14,14 Perrin Beitel,907.28,2482,1483,543
2018-08-28,36,36-S. PRESA ST.,326.53,794,432,174
2018-08-29,2,2-BLANCO RD.,1064.7,2894,1522,562
2018-08-29,14,14 Perrin Beitel,792.1,2332,1421,442
2018-08-29,36,36-S. PRESA ST.,317.33,905,452,185
2018-08-30,2,2-BLANCO RD.,1018.13,2986,1652,602
2018-08-30,14,14 Perrin Beitel,747.53,2282,1386,450
2018-08-30,36,36-S. PRESA ST.,210.89,621,346,110
2018-08-31,2,2-BLANCO RD.,1181.03,3209,1663,667
2018-08-31,14,14 Perrin Beitel,886.08,2562,1553,503
2018-08-31,36,36-S. PRESA ST.,338.1,878,498,203
2018-09-01,2,2-BLANCO RD.,752.65,2114,893,449
2018-09-01,14,14 Perrin Beitel,592.66,1826,878,361
2018-09-01,36,36-S. PRESA ST.,253.11,574,243,160
2018-09-02,2,2-BLANCO RD.,560.63,1503,662,322
2018-09-02,14,14 Perrin Beitel,529.76,1508,706,317
2018-09-02,36,36-S. PRESA ST.,167.47,432,209,100
2018-09-03,2,2-BLANCO RD.,540.43,1543,777,303
2018-09-03,14,14 Perrin Beitel,468.98,1132,649,271
2018-09-03,36,36-S. PRESA ST.,186.5,452,243,108
2018-09-04,2,2-BLANCO RD.,840.34,2593,1352,452
2018-09-04,14,14 Perrin Beitel,755.9,2168,1228,432
2018-09-04,36,36-S. PRESA ST.,214.66,636,288,128
2018-09-05,2,2-BLANCO RD.,949.32,2838,1344,515
2018-09-05,14,14 Perrin Beitel,875.46,2412,1460,482
2018-09-05,36,36-S. PRESA ST.,350.6,810,471,197
2018-09-06,2,2-BLANCO RD.,970.86,2863,1515,511
2018-09-06,14,14 Perrin Beitel,678.04,2132,1247,402
2018-09-06,36,36-S. PRESA ST.,275.01,652,339,168
2018-09-07,2,2-BLANCO RD.,1037.81,2984,1515,565
2018-09-07,14,14 Perrin Beitel,901.84,2433,1463,511
2018-09-07,36,36-S. PRESA ST.,321.04,779,407,195
2018-09-08,2,2-BLANCO RD.,724.56,2014,818,442
2018-09-08,14,14 Perrin Beitel,674.27,1998,970,405
2018-09-08,36,36-S. PRESA ST.,225.42,479,196,134
2018-09-09,2,2-BLANCO RD.,467.96,1171,544,282
2018-09-09,14,14 Perrin Beitel,398.99,1190,598,224
2018-09-09,36,36-S. PRESA ST.,163.98,518,235,106
2018-09-10,2,2-BLANCO RD.,743.5,2203,1141,392
2018-09-10,14,14 Perrin Beitel,721.71,1819,1063,423
2018-09-10,36,36-S. PRESA ST.,247.94,583,289,144
2018-09-11,2,2-BLANCO RD.,962.35,2852,1447,536
2018-09-11,14,14 Perrin Beitel,782.92,2129,1263,450
2018-09-11,36,36-S. PRESA ST.,297.72,897,395,158
2018-09-12,2,2-BLANCO RD.,968.89,2887,1532,548
2018-09-12,14,14 Perrin Beitel,755.25,2220,1267,441
2018-09-12,36,36-S. PRESA ST.,352.99,905,478,186
2018-09-13,2,2-BLANCO RD.,1065.83,3063,1634,579
2018-09-13,14,14 Perrin Beitel,818.1,2232,1232,455
2018-09-13,36,36-S. PRESA ST.,305.65,714,385,159
2018-09-14,2,2-BLANCO RD.,968.7,2767,1479,545
2018-09-14,14,14 Perrin Beitel,698.81,2022,1159,406
2018-09-14,36,36-S. PRESA ST.,336.18,774,405,171
2018-09-15,2,2-BLANCO RD.,596.73,1565,713,364
2018-09-15,14,14 Perrin Beitel,429.64,1451,664,258
2018-09-15,36,36-S. PRESA ST.,193.17,392,151,107
2018-09-16,2,2-BLANCO RD.,401.88,1106,493,237
2018-09-16,14,14 Perrin Beitel,422.49,1213,554,251
2018-09-16,36,36-S. PRESA ST.,142.94,451,191,80
2018-09-17,2,2-BLANCO RD.,954.71,2767,1207,537
2018-09-17,14,14 Perrin Beitel,766.05,2413,1352,452
2018-09-17,36,36-S. PRESA ST.,274.12,783,445,150
2018-09-18,2,2-BLANCO RD.,1024.74,3095,1474,570
2018-09-18,14,14 Perrin Beitel,801.99,2393,1435,478
2018-09-18,36,36-S. PRESA ST.,334.96,909,431,182
2018-09-19,2,2-BLANCO RD.,1126.58,3161,1641,610
2018-09-19,14,14 Perrin Beitel,785.29,2216,1307,452
2018-09-19,36,36-S. PRESA ST.,328.67,929,500,186
2018-09-20,2,2-BLANCO RD.,1011.15,2683,1380,562
2018-09-20,14,14 Perrin Beitel,788.12,2253,1396,482
2018-09-20,36,36-S. PRESA ST.,270.68,808,433,148
2018-09-21,2,2-BLANCO RD.,1148.81,3140,1709,632
2018-09-21,14,14 Perrin Beitel,801.16,2310,1331,454
2018-09-21,36,36-S. PRESA ST.,241.42,536,293,128
2018-09-22,2,2-BLANCO RD.,624.97,1656,692,346
2018-09-22,14,14 Perrin Beitel,694.04,1925,905,428
2018-09-22,36,36-S. PRESA ST.,173.12,395,156,104
2018-09-23,2,2-BLANCO RD.,504.32,1420,525,300
2018-09-23,14,14 Perrin Beitel,525.63,1459,657,342
2018-09-23,36,36-S. PRESA ST.,192.56,524,230,108
2018-09-24,2,2-BLANCO RD.,1142.72,3130,1720,636
2018-09-24,14,14 Perrin Beitel,822.88,2146,1197,457
2018-09-24,36,36-S. PRESA ST.,282,755,398,150
2018-09-25,2,2-BLANCO RD.,1129.73,2997,1492,631
2018-09-25,14,14 Perrin Beitel,807.94,2328,1378,477
2018-09-25,36,36-S. PRESA ST.,380.77,912,480,207
2018-09-26,2,2-BLANCO RD.,1116.77,3109,1613,617
2018-09-26,14,14 Perrin Beitel,868.05,2365,1373,498
2018-09-26,36,36-S. PRESA ST.,359.91,1000,518,187
2018-09-27,2,2-BLANCO RD.,981.54,3037,1663,516
2018-09-27,14,14 Perrin Beitel,882.22,2492,1508,517
2018-09-27,36,36-S. PRESA ST.,317.02,906,448,176
2018-09-28,2,2-BLANCO RD.,1242.34,3113,1659,684
2018-09-28,14,14 Perrin Beitel,855.81,2517,1591,490
2018-09-28,36,36-S. PRESA ST.,379.92,888,456,210
2018-10-01,2,2-BLANCO RD.,990.86,2896,1373,527
2018-10-01,14,14 Perrin Beitel,1002.13,2556,1346,594
2018-10-01,36,36-S. PRESA ST.,340.21,829,423,187
2018-10-02,2,2-BLANCO RD.,864.78,2720,1366,474
2018-10-02,14,14 Perrin Beitel,823.87,2445,1407,480
2018-10-02,36,36-S. PRESA ST.,383.11,969,462,210
2018-10-03,2,2-BLANCO RD.,1102.45,3171,1614,592
2018-10-03,14,14 Perrin Beitel,800.05,2476,1384,460
2018-10-03,36,36-S. PRESA ST.,427.98,1063,499,237
2018-10-04,2,2-BLANCO RD.,1143.39,3222,1625,627
2018-10-04,14,14 Perrin Beitel,921.35,2515,1466,545
2018-10-04,36,36-S. PRESA ST.,344.12,910,423,189
2018-10-05,2,2-BLANCO RD.,1080.69,2922,1398,583
2018-10-05,14,14 Perrin Beitel,916.8,2669,1439,580
2018-10-05,36,36-S. PRESA ST.,449.54,1031,516,259
2018-10-06,2,2-BLANCO RD.,677.54,1894,793,415
2018-10-06,14,14 Perrin Beitel,695.51,1849,813,418
2018-10-06,36,36-S. PRESA ST.,190.27,519,245,107
2018-10-07,2,2-BLANCO RD.,586.51,1430,624,351
2018-10-07,14,14 Perrin Beitel,478.61,1546,580,275
2018-10-07,36,36-S. PRESA ST.,185.78,622,268,108
2018-10-08,2,2-BLANCO RD.,893.63,2558,1291,466
2018-10-08,14,14 Perrin Beitel,757.25,2115,1102,436
2018-10-08,36,36-S. PRESA ST.,363.95,851,448,199
2018-10-09,2,2-BLANCO RD.,881.56,2637,1241,473
2018-10-09,14,14 Perrin Beitel,676.93,2001,1070,391
2018-10-09,36,36-S. PRESA ST.,293.03,643,340,169
2018-10-10,2,2-BLANCO RD.,1029.71,2798,1520,566
2018-10-10,14,14 Perrin Beitel,659.67,2304,1157,392
2018-10-10,36,36-S. PRESA ST.,329.12,915,516,178
2018-10-11,2,2-BLANCO RD.,1052.18,2859,1479,533
2018-10-11,14,14 Perrin Beitel,793.06,2479,1390,431
2018-10-11,36,36-S. PRESA ST.,367.29,919,401,202
2018-10-12,2,2-BLANCO RD.,1058.12,2895,1409,570
2018-10-12,14,14 Perrin Beitel,861.99,2368,1376,503
2018-10-12,36,36-S. PRESA ST.,315.34,750,408,181
2018-10-13,2,2-BLANCO RD.,601.52,1610,702,335
2018-10-13,14,14 Perrin Beitel,626.06,1873,791,383
2018-10-13,36,36-S. PRESA ST.,259.09,603,265,139
2018-10-14,2,2-BLANCO RD.,591.72,1555,624,352
2018-10-14,14,14 Perrin Beitel,541.18,1537,688,338
2018-10-14,36,36-S. PRESA ST.,189.57,458,185,115
2018-10-15,2,2-BLANCO RD.,664.36,1834,888,380
2018-10-15,14,14 Perrin Beitel,619.74,1665,921,372
2018-10-15,36,36-S. PRESA ST.,234.09,596,317,129
2018-10-16,2,2-BLANCO RD.,958.56,2604,1190,541
2018-10-16,14,14 Perrin Beitel,678.84,2133,1269,396
2018-10-16,36,36-S. PRESA ST.,241.98,684,331,123
2018-10-17,2,2-BLANCO RD.,926.28,2866,1418,507
2018-10-17,14,14 Perrin Beitel,795.26,2186,1269,442
2018-10-17,36,36-S. PRESA ST.,291.63,789,461,161
2018-10-18,2,2-BLANCO RD.,845.95,2510,1249,471
2018-10-18,14,14 Perrin Beitel,699.54,1975,1120,417
2018-10-18,36,36-S. PRESA ST.,261.31,662,335,150
2018-10-19,2,2-BLANCO RD.,1048.7,2863,1528,561
2018-10-19,14,14 Perrin Beitel,696.38,1932,1160,390
2018-10-19,36,36-S. PRESA ST.,296.24,680,322,156
2018-10-20,2,2-BLANCO RD.,770.2,1908,783,429
2018-10-20,14,14 Perrin Beitel,564.01,1745,770,343
2018-10-20,36,36-S. PRESA ST.,215.84,576,250,112
2018-10-21,2,2-BLANCO RD.,531.86,1390,574,321
2018-10-21,14,14 Perrin Beitel,494.17,1511,590,313
2018-10-21,36,36-S. PRESA ST.,146.23,427,186,87
2018-10-22,2,2-BLANCO RD.,996.41,2717,1436,514
2018-10-22,14,14 Perrin Beitel,755.87,2197,1118,414
2018-10-22,36,36-S. PRESA ST.,323.76,746,370,169
2018-10-23,2,2-BLANCO RD.,1021.17,2763,1421,551
2018-10-23,14,14 Perrin Beitel,773.43,2173,1181,450
2018-10-23,36,36-S. PRESA ST.,230.73,725,379,134
2018-10-24,2,2-BLANCO RD.,783.38,2155,1134,437
2018-10-24,14,14 Perrin Beitel,622.03,1828,1040,343
2018-10-24,36,36-S. PRESA ST.,216.94,644,387,129
2018-10-25,2,2-BLANCO RD.,1049.89,2964,1560,576
2018-10-25,14,14 Perrin Beitel,831.62,2378,1361,497
2018-10-25,36,36-S. PRESA ST.,275.15,670,349,157
2018-10-26,2,2-BLANCO RD.,1133.58,3068,1570,605
2018-10-26,14,14 Perrin Beitel,869.59,2443,1358,513
2018-10-26,36,36-S. PRESA ST.,232.16,612,322,131
2018-10-27,2,2-BLANCO RD.,716.37,1877,779,439
2018-10-27,14,14 Perrin Beitel,710.47,2123,951,441
2018-10-27,36,36-S. PRESA ST.,159.23,359,145,80
2018-10-28,2,2-BLANCO RD.,645.21,1640,680,368
2018-10-28,14,14 Perrin Beitel,547.37,1485,643,338
2018-10-28,36,36-S. PRESA ST.,142.67,357,152,80
2018-10-29,2,2-BLANCO RD.,1067.51,2852,1395,571
2018-10-29,14,14 Perrin Beitel,760.34,2226,1166,448
2018-10-29,36,36-S. PRESA ST.,304.33,731,367,174
2018-10-30,2,2-BLANCO RD.,1143.13,3131,1607,623
2018-10-30,14,14 Perrin Beitel,858.66,2577,1462,464
2018-10-30,36,36-S. PRESA ST.,360.35,776,410,214
2018-10-31,2,2-BLANCO RD.,1068.83,2864,1446,598
2018-10-31,14,14 Perrin Beitel,757.03,2250,1236,441
2018-10-31,36,36-S. PRESA ST.,316.05,843,460,175
2018-11-01,2,2-BLANCO RD.,1049.18,2917,1360,582
2018-11-01,14,14 Perrin Beitel,860.89,2587,1465,485
2018-11-01,36,36-S. PRESA ST.,366.86,773,409,199
2018-11-02,2,2-BLANCO RD.,1180.59,3153,1550,676
2018-11-02,14,14 Perrin Beitel,942.37,2602,1476,567
2018-11-02,36,36-S. PRESA ST.,304.68,808,384,167
2018-11-03,2,2-BLANCO RD.,728.56,1915,765,418
2018-11-03,14,14 Perrin Beitel,741.87,2224,1071,471
2018-11-03,36,36-S. PRESA ST.,178.4,425,178,109
2018-11-04,2,2-BLANCO RD.,553.66,1474,593,334
2018-11-04,14,14 Perrin Beitel,574.36,1546,631,341
2018-11-04,36,36-S. PRESA ST.,190.47,443,184,111
2018-11-05,2,2-BLANCO RD.,1141.37,3062,1461,623
2018-11-05,14,14 Perrin Beitel,862.77,2445,1350,491
2018-11-05,36,36-S. PRESA ST.,326.47,856,422,188
2018-11-06,2,2-BLANCO RD.,995.33,2804,1394,540
2018-11-06,14,14 Perrin Beitel,924.6,2596,1473,544
2018-11-06,36,36-S. PRESA ST.,285.34,678,356,165
2018-11-07,2,2-BLANCO RD.,1109.78,3030,1560,590
2018-11-07,14,14 Perrin Beitel,900.29,2503,1450,532
2018-11-07,36,36-S. PRESA ST.,336.91,808,444,192
2018-11-08,2,2-BLANCO RD.,1096.52,2931,1470,585
2018-11-08,14,14 Perrin Beitel,864.68,2404,1325,525
2018-11-08,36,36-S. PRESA ST.,298.45,694,351,171
2018-11-09,2,2-BLANCO RD.,930.09,2532,1251,524
2018-11-09,14,14 Perrin Beitel,691.29,1967,1137,405
2018-11-09,36,36-S. PRESA ST.,228.42,565,308,121
2018-11-10,2,2-BLANCO RD.,696.3,1729,719,413
2018-11-10,14,14 Perrin Beitel,606.41,1860,830,356
2018-11-10,36,36-S. PRESA ST.,235.37,526,239,137
2018-11-11,2,2-BLANCO RD.,466.72,1346,483,263
2018-11-11,14,14 Perrin Beitel,389.64,1250,452,240
2018-11-11,36,36-S. PRESA ST.,137.37,443,181,80
2018-11-12,2,2-BLANCO RD.,906.36,2420,1202,481
2018-11-12,14,14 Perrin Beitel,651.94,1954,1130,385
2018-11-12,36,36-S. PRESA ST.,271.77,617,336,160
2018-11-13,2,2-BLANCO RD.,868.52,2516,1281,456
2018-11-13,14,14 Perrin Beitel,658.76,2054,1179,398
2018-11-13,36,36-S. PRESA ST.,256.91,691,385,156
2018-11-14,2,2-BLANCO RD.,1046.89,2662,1368,576
2018-11-14,14,14 Perrin Beitel,640.26,1906,1085,365
2018-11-14,36,36-S. PRESA ST.,283.1,768,421,160
2018-11-15,2,2-BLANCO RD.,1063.67,2813,1469,581
2018-11-15,14,14 Perrin Beitel,601.65,1682,874,379
2018-11-15,36,36-S. PRESA ST.,241.81,608,296,145
2018-11-16,2,2-BLANCO RD.,1059.35,2748,1410,561
2018-11-16,14,14 Perrin Beitel,801.8,2213,1198,484
2018-11-16,36,36-S. PRESA ST.,239.76,581,266,136
2018-11-17,2,2-BLANCO RD.,823.75,2073,907,499
2018-11-17,14,14 Perrin Beitel,691.19,1986,878,421
2018-11-17,36,36-S. PRESA ST.,156.97,394,176,94
2018-11-18,2,2-BLANCO RD.,659.19,1532,647,393
2018-11-18,14,14 Perrin Beitel,463.22,1376,656,282
2018-11-18,36,36-S. PRESA ST.,177.51,447,209,119
2018-11-19,2,2-BLANCO RD.,904.84,2376,1281,497
2018-11-19,14,14 Perrin Beitel,830.46,2137,1207,477
2018-11-19,36,36-S. PRESA ST.,186.35,421,220,105
2018-11-20,2,2-BLANCO RD.,990.93,2519,1306,544
2018-11-20,14,14 Perrin Beitel,866.92,2304,1263,506
2018-11-20,36,36-S. PRESA ST.,327.33,912,439,184
2018-11-21,2,2-BLANCO RD.,911.74,2353,1313,526
2018-11-21,14,14 Perrin Beitel,764.49,2084,1237,456
2018-11-21,36,36-S. PRESA ST.,272.35,697,379,161
2018-11-22,2,2-BLANCO RD.,441.47,1089,581,260
2018-11-22,14,14 Perrin Beitel,422.12,957,478,258
2018-11-22,36,36-S. PRESA ST.,174.46,406,203,103
2018-11-23,2,2-BLANCO RD.,944.79,2091,1120,527
2018-11-23,14,14 Perrin Beitel,758.89,1868,1063,453
2018-11-23,36,36-S. PRESA ST.,267.54,525,246,129
2018-11-24,2,2-BLANCO RD.,687.28,1711,691,397
2018-11-24,14,14 Perrin Beitel,597.22,1791,798,362
2018-11-24,36,36-S. PRESA ST.,151.62,357,153,91
2018-11-25,2,2-BLANCO RD.,576.46,1739,641,313
2018-11-25,14,14 Perrin Beitel,434.47,1311,513,263
2018-11-25,36,36-S. PRESA ST.,138.5,476,184,85
2018-11-26,2,2-BLANCO RD.,1048.2,2754,1320,589
2018-11-26,14,14 Perrin Beitel,824.73,2219,1204,444
2018-11-26,36,36-S. PRESA ST.,283.51,628,345,138
2018-11-27,2,2-BLANCO RD.,1050.75,2749,1335,575
2018-11-27,14,14 Perrin Beitel,828.25,2307,1233,469
2018-11-27,36,36-S. PRESA ST.,217.56,564,302,115
2018-11-28,2,2-BLANCO RD.,1074.59,2749,1443,578
2018-11-28,14,14 Perrin Beitel,807.06,2359,1336,464
2018-11-28,36,36-S. PRESA ST.,299.64,868,472,176
2018-11-29,2,2-BLANCO RD.,996.19,2753,1428,558
2018-11-29,14,14 Perrin Beitel,801.6,2194,1225,476
2018-11-29,36,36-S. PRESA ST.,286,683,357,147
2018-11-30,2,2-BLANCO RD.,1250.61,3127,1590,710
2018-11-30,14,14 Perrin Beitel,955.69,2549,1403,556
2018-11-30,36,36-S. PRESA ST.,343.8,720,383,193
2018-12-01,2,2-BLANCO RD.,813.99,1980,763,464
2018-12-01,14,14 Perrin Beitel,724.52,2052,929,435
2018-12-01,36,36-S. PRESA ST.,224.48,407,170,142
2018-12-02,2,2-BLANCO RD.,607.12,1565,604,360
2018-12-02,14,14 Perrin Beitel,577.19,1418,624,342
2018-12-02,36,36-S. PRESA ST.,208.23,515,213,135
2018-12-03,2,2-BLANCO RD.,1112.01,3057,1384,576
2018-12-03,14,14 Perrin Beitel,871.1,2463,1317,507
2018-12-03,36,36-S. PRESA ST.,303.05,630,330,160
2018-12-04,2,2-BLANCO RD.,1121.81,2948,1430,647
2018-12-04,14,14 Perrin Beitel,806.71,2490,1307,472
2018-12-04,36,36-S. PRESA ST.,299.05,768,395,156
2018-12-05,2,2-BLANCO RD.,1018.14,2634,1335,548
2018-12-05,14,14 Perrin Beitel,822.29,2401,1376,485
2018-12-05,36,36-S. PRESA ST.,273.37,693,384,142
2018-12-06,2,2-BLANCO RD.,1025.48,2640,1410,542
2018-12-06,14,14 Perrin Beitel,755.8,2039,1233,431
2018-12-06,36,36-S. PRESA ST.,333.77,674,365,186
2018-12-07,2,2-BLANCO RD.,744.21,2220,1165,409
2018-12-07,14,14 Perrin Beitel,644.42,1699,968,395
2018-12-07,36,36-S. PRESA ST.,232.26,485,262,124
2018-12-08,2,2-BLANCO RD.,615.68,1614,695,384
2018-12-08,14,14 Perrin Beitel,568.59,1744,761,372
2018-12-08,36,36-S. PRESA ST.,162.5,388,186,99
2018-12-09,2,2-BLANCO RD.,584.66,1439,579,362
2018-12-09,14,14 Perrin Beitel,415.89,1136,422,251
2018-12-09,36,36-S. PRESA ST.,135.92,452,221,81
2018-12-10,2,2-BLANCO RD.,951.52,2911,1311,514
2018-12-10,14,14 Perrin Beitel,840.59,2194,1249,485
2018-12-10,36,36-S. PRESA ST.,268.86,584,318,140
2018-12-11,2,2-BLANCO RD.,960.68,2692,1291,487
2018-12-11,14,14 Perrin Beitel,832.83,2272,1269,478
2018-12-11,36,36-S. PRESA ST.,289.67,735,394,153
2018-12-12,2,2-BLANCO RD.,1095.73,2882,1541,604
2018-12-12,14,14 Perrin Beitel,788.42,2299,1276,440
2018-12-12,36,36-S. PRESA ST.,300.6,716,390,173
2018-12-13,2,2-BLANCO RD.,1042.18,2603,1358,567
2018-12-13,14,14 Perrin Beitel,795.79,2103,1163,468
2018-12-13,36,36-S. PRESA ST.,275.97,631,284,145
2018-12-14,2,2-BLANCO RD.,1032.66,2535,1322,544
2018-12-14,14,14 Perrin Beitel,825.19,2092,1169,503
2018-12-14,36,36-S. PRESA ST.,261.14,658,376,150
2018-12-15,2,2-BLANCO RD.,762.34,1936,842,465
2018-12-15,14,14 Perrin Beitel,658.64,1774,797,385
2018-12-15,36,36-S. PRESA ST.,185.27,413,183,110
2018-12-16,2,2-BLANCO RD.,598.63,1511,666,345
2018-12-16,14,14 Perrin Beitel,488.5,1381,594,295
2018-12-16,36,36-S. PRESA ST.,205.22,514,239,127
2018-12-17,2,2-BLANCO RD.,1101.65,2764,1398,611
2018-12-17,14,14 Perrin Beitel,778.16,2194,1102,450
2018-12-17,36,36-S. PRESA ST.,253.45,592,333,138
2018-12-18,2,2-BLANCO RD.,1102.77,2877,1541,614
2018-12-18,14,14 Perrin Beitel,861.97,2326,1308,504
2018-12-18,36,36-S. PRESA ST.,241.34,572,324,119
2018-12-19,2,2-BLANCO RD.,1077.41,2754,1353,590
2018-12-19,14,14 Perrin Beitel,891.89,2334,1357,505
2018-12-19,36,36-S. PRESA ST.,290.4,715,408,151
2018-12-20,2,2-BLANCO RD.,1017.73,2543,1359,577
2018-12-20,14,14 Perrin Beitel,840.42,2156,1204,494
2018-12-20,36,36-S. PRESA ST.,243.85,620,352,126
2018-12-21,2,2-BLANCO RD.,1191.17,3118,1687,638
2018-12-21,14,14 Perrin Beitel,832.87,2210,1270,493
2018-12-21,36,36-S. PRESA ST.,262.8,595,335,129
2018-12-22,2,2-BLANCO RD.,735.31,1948,831,417
2018-12-22,14,14 Perrin Beitel,838.87,2138,927,507
2018-12-22,36,36-S. PRESA ST.,132.4,385,175,73
2018-12-23,2,2-BLANCO RD.,514.53,1302,540,312
2018-12-23,14,14 Perrin Beitel,608.47,1490,661,357
2018-12-23,36,36-S. PRESA ST.,168.42,471,217,100
2018-12-24,2,2-BLANCO RD.,710.4,1647,912,375
2018-12-24,14,14 Perrin Beitel,649.38,1690,910,384
2018-12-24,36,36-S. PRESA ST.,171.56,443,262,107
2018-12-25,2,2-BLANCO RD.,361.04,766,432,191
2018-12-25,14,14 Perrin Beitel,240.93,568,320,140
2018-12-25,36,36-S. PRESA ST.,117.48,275,154,71
2018-12-26,2,2-BLANCO RD.,837.49,2002,1059,500
2018-12-26,14,14 Perrin Beitel,722.35,1845,1057,406
2018-12-26,36,36-S. PRESA ST.,186.25,463,267,103
2018-12-27,2,2-BLANCO RD.,951.52,2308,1184,526
2018-12-27,14,14 Perrin Beitel,871.88,2283,1274,533
2018-12-27,36,36-S. PRESA ST.,242.86,586,336,132
2018-12-28,2,2-BLANCO RD.,1075.2,2586,1372,637
2018-12-28,14,14 Perrin Beitel,799.41,2156,1271,477
2018-12-28,36,36-S. PRESA ST.,307.77,643,341,179
2018-12-29,2,2-BLANCO RD.,635.89,1490,624,381
2018-12-29,14,14 Perrin Beitel,514.27,1532,699,324
2018-12-29,36,36-S. PRESA ST.,167.86,311,139,99
2018-12-30,2,2-BLANCO RD.,466.6,1094,445,272
2018-12-30,14,14 Perrin Beitel,375.59,1061,427,235
2018-12-30,36,36-S. PRESA ST.,122.42,348,165,74
2018-12-31,2,2-BLANCO RD.,902.86,2014,1112,501
2018-12-31,14,14 Perrin Beitel,774.61,2001,1100,435
2018-12-31,36,36-S. PRESA ST.,161.35,377,222,89
